what,kind,bundleId,bundleVersion,description,time
activated,workbench,org.eclipse.ui.workbench,3.7.0.I20110519-0100,"",1358159385406
deactivated,workbench,org.eclipse.ui.workbench,3.7.0.I20110519-0100,"",1358159404671
activated,workbench,org.eclipse.ui.workbench,3.7.0.I20110519-0100,"",1358159426812
deactivated,workbench,org.eclipse.ui.workbench,3.7.0.I20110519-0100,"",1358159430530
activated,workbench,org.eclipse.ui.workbench,3.7.0.I20110519-0100,"",1358159438890
deactivated,workbench,org.eclipse.ui.workbench,3.7.0.I20110519-0100,"",1358159452765
activated,workbench,org.eclipse.ui.workbench,3.7.0.I20110519-0100,"",1358159519592
activated,editor,org.eclipse.jdt.ui,3.7.1.r371_v20110824-0800,"org.eclipse.jdt.ui.CompilationUnitEditor",1358159519686
executed,command,org.eclipse.ui,3.7.0.I20110602-0100,"org.eclipse.ui.edit.delete",1358159542280
executed,command,org.eclipse.ui.workbench.texteditor,3.7.0.v20110505-0800,"org.eclipse.ui.edit.text.select.lineStart",1358159585842
executed,command,org.eclipse.ui,3.7.0.I20110602-0100,"org.eclipse.ui.edit.delete",1358159586232
deactivated,workbench,org.eclipse.ui.workbench,3.7.0.I20110519-0100,"",1358159603170
activated,workbench,org.eclipse.ui.workbench,3.7.0.I20110519-0100,"",1358161458580
activated,view,org.eclipse.ui.navigator.resources,3.4.300.I20110421-1800,"org.eclipse.ui.navigator.ProjectExplorer",1358161485517
activated,editor,org.eclipse.jdt.ui,3.7.1.r371_v20110824-0800,"org.eclipse.jdt.ui.CompilationUnitEditor",1358161485720
deactivated,workbench,org.eclipse.ui.workbench,3.7.0.I20110519-0100,"",1358161521845
activated,workbench,org.eclipse.ui.workbench,3.7.0.I20110519-0100,"",1358161523048
deactivated,workbench,org.eclipse.ui.workbench,3.7.0.I20110519-0100,"",1358161525470
activated,workbench,org.eclipse.ui.workbench,3.7.0.I20110519-0100,"",1358161593298
activated,editor,org.eclipse.jdt.ui,3.7.1.r371_v20110824-0800,"org.eclipse.jdt.ui.CompilationUnitEditor",1358161600329
executed,command,org.eclipse.ui.workbench.texteditor,3.7.0.v20110505-0800,"org.eclipse.ui.edit.text.goto.lineStart",1358161648282
executed,command,org.eclipse.ui.workbench.texteditor,3.7.0.v20110505-0800,"org.eclipse.ui.edit.text.goto.lineStart",1358161650438
executed,command,org.eclipse.ui.workbench.texteditor,3.7.0.v20110505-0800,"org.eclipse.ui.edit.text.goto.lineStart",1358161651016
executed,command,org.eclipse.ui.workbench.texteditor,3.7.0.v20110505-0800,"org.eclipse.ui.edit.text.goto.lineStart",1358161651501
executed,command,org.eclipse.ui.workbench.texteditor,3.7.0.v20110505-0800,"org.eclipse.ui.edit.text.goto.lineStart",1358161652032
executed,command,org.eclipse.ui.workbench.texteditor,3.7.0.v20110505-0800,"org.eclipse.ui.edit.text.goto.lineStart",1358161660047
executed,command,org.eclipse.ui.workbench.texteditor,3.7.0.v20110505-0800,"org.eclipse.ui.edit.text.goto.lineStart",1358161668547
executed,command,org.eclipse.ui.workbench.texteditor,3.7.0.v20110505-0800,"org.eclipse.ui.edit.text.goto.lineStart",1358161669125
executed,command,org.eclipse.ui.workbench.texteditor,3.7.0.v20110505-0800,"org.eclipse.ui.edit.text.goto.lineStart",1358161669485
executed,command,org.eclipse.ui.workbench.texteditor,3.7.0.v20110505-0800,"org.eclipse.ui.edit.text.goto.lineStart",1358161684891
executed,command,org.eclipse.ui.workbench.texteditor,3.7.0.v20110505-0800,"org.eclipse.ui.edit.text.goto.lineStart",1358161685469
executed,command,org.eclipse.ui.workbench.texteditor,3.7.0.v20110505-0800,"org.eclipse.ui.edit.text.goto.lineStart",1358161685813
executed,command,org.eclipse.ui.workbench.texteditor,3.7.0.v20110505-0800,"org.eclipse.ui.edit.text.goto.lineStart",1358161687203
executed,command,org.eclipse.ui,3.7.0.I20110602-0100,"org.eclipse.ui.file.saveAll",1358161692672
deactivated,workbench,org.eclipse.ui.workbench,3.7.0.I20110519-0100,"",1358161695360
activated,workbench,org.eclipse.ui.workbench,3.7.0.I20110519-0100,"",1358161730687
deactivated,workbench,org.eclipse.ui.workbench,3.7.0.I20110519-0100,"",1358161742844
activated,workbench,org.eclipse.ui.workbench,3.7.0.I20110519-0100,"",1358161877437
deactivated,workbench,org.eclipse.ui.workbench,3.7.0.I20110519-0100,"",1358161976967
activated,workbench,org.eclipse.ui.workbench,3.7.0.I20110519-0100,"",1358161978561
executed,command,org.eclipse.ui.workbench.texteditor,3.7.0.v20110505-0800,"org.eclipse.ui.edit.text.goto.lineEnd",1358162003998
executed,command,org.eclipse.ui,3.7.0.I20110602-0100,"org.eclipse.ui.edit.text.contentAssist.proposals",1358162127654
executed,command,org.eclipse.ui.workbench.texteditor,3.7.0.v20110505-0800,"org.eclipse.ui.edit.text.goto.lineEnd",1358162131966
executed,command,org.eclipse.ui.workbench.texteditor,3.7.0.v20110505-0800,"org.eclipse.ui.edit.text.goto.lineStart",1358162134076
executed,command,org.eclipse.ui.workbench.texteditor,3.7.0.v20110505-0800,"org.eclipse.ui.edit.text.goto.lineStart",1358162135216
executed,command,org.eclipse.ui,3.7.0.I20110602-0100,"org.eclipse.ui.edit.text.contentAssist.proposals",1358162138888
executed,command,org.eclipse.ui.workbench.texteditor,3.7.0.v20110505-0800,"org.eclipse.ui.edit.text.goto.lineEnd",1358162143575
executed,command,org.eclipse.ui.workbench.texteditor,3.7.0.v20110505-0800,"org.eclipse.ui.edit.text.select.lineStart",1358162200247
executed,command,org.eclipse.ui,3.7.0.I20110602-0100,"org.eclipse.ui.edit.delete",1358162207388
deactivated,workbench,org.eclipse.ui.workbench,3.7.0.I20110519-0100,"",1358162271028
activated,workbench,org.eclipse.ui.workbench,3.7.0.I20110519-0100,"",1358162315543
executed,command,org.eclipse.ui,3.7.0.I20110602-0100,"org.eclipse.ui.edit.delete",1358162318809
executed,command,org.eclipse.ui.workbench.texteditor,3.7.0.v20110505-0800,"org.eclipse.ui.edit.text.goto.lineEnd",1358162320027
executed,command,org.eclipse.ui.workbench.texteditor,3.7.0.v20110505-0800,"org.eclipse.ui.edit.text.select.lineStart",1358162344465
deactivated,workbench,org.eclipse.ui.workbench,3.7.0.I20110519-0100,"",1358162345996
activated,workbench,org.eclipse.ui.workbench,3.7.0.I20110519-0100,"",1358162359387
executed,command,org.eclipse.ui,3.7.0.I20110602-0100,"org.eclipse.ui.edit.delete",1358162360777
executed,command,org.eclipse.ui.workbench.texteditor,3.7.0.v20110505-0800,"org.eclipse.ui.edit.text.select.lineStart",1358162367105
executed,command,org.eclipse.ui,3.7.0.I20110602-0100,"org.eclipse.ui.edit.delete",1358162367637
executed,command,org.eclipse.ui,3.7.0.I20110602-0100,"org.eclipse.ui.edit.delete",1358162368355
activated,view,org.eclipse.ui.navigator.resources,3.4.300.I20110421-1800,"org.eclipse.ui.navigator.ProjectExplorer",1358162376340
opened,editor,org.eclipse.jdt.ui,3.7.1.r371_v20110824-0800,"org.eclipse.jdt.ui.CompilationUnitEditor",1358162376980
activated,editor,org.eclipse.jdt.ui,3.7.1.r371_v20110824-0800,"org.eclipse.jdt.ui.CompilationUnitEditor",1358162377027
activated,view,org.eclipse.ui.navigator.resources,3.4.300.I20110421-1800,"org.eclipse.ui.navigator.ProjectExplorer",1358162377746
activated,editor,org.eclipse.jdt.ui,3.7.1.r371_v20110824-0800,"org.eclipse.jdt.ui.CompilationUnitEditor",1358162378480
deactivated,workbench,org.eclipse.ui.workbench,3.7.0.I20110519-0100,"",1358162426402
activated,workbench,org.eclipse.ui.workbench,3.7.0.I20110519-0100,"",1358162426402
deactivated,workbench,org.eclipse.ui.workbench,3.7.0.I20110519-0100,"",1358162427324
activated,workbench,org.eclipse.ui.workbench,3.7.0.I20110519-0100,"",1358162427417
activated,editor,org.eclipse.jdt.ui,3.7.1.r371_v20110824-0800,"org.eclipse.jdt.ui.CompilationUnitEditor",1358162458527
executed,command,org.eclipse.ui,3.7.0.I20110602-0100,"org.eclipse.ui.edit.delete",1358162463339
deactivated,workbench,org.eclipse.ui.workbench,3.7.0.I20110519-0100,"",1358162470730
activated,workbench,org.eclipse.ui.workbench,3.7.0.I20110519-0100,"",1358162471605
deactivated,workbench,org.eclipse.ui.workbench,3.7.0.I20110519-0100,"",1358162475323
activated,workbench,org.eclipse.ui.workbench,3.7.0.I20110519-0100,"",1358162536635
activated,view,org.eclipse.ui.console,3.5.100.v20110511,"org.eclipse.ui.console.ConsoleView",1358162536651
started,bundle,org.eclipse.wst.xsl.debug.ui,1.0.200.v201101281837,"org.eclipse.wst.xsl.debug.ui",1358162679103
deactivated,workbench,org.eclipse.ui.workbench,3.7.0.I20110519-0100,"",1358162682166
activated,workbench,org.eclipse.ui.workbench,3.7.0.I20110519-0100,"",1358162703634
activated,editor,org.eclipse.jdt.ui,3.7.1.r371_v20110824-0800,"org.eclipse.jdt.ui.CompilationUnitEditor",1358162706447
executed,command,org.eclipse.ui.workbench.texteditor,3.7.0.v20110505-0800,"org.eclipse.ui.edit.text.select.lineEnd",1358162714275
executed,command,org.eclipse.ui,3.7.0.I20110602-0100,"org.eclipse.ui.edit.delete",1358162714556
executed,command,org.eclipse.ui.workbench.texteditor,3.7.0.v20110505-0800,"org.eclipse.ui.edit.text.select.lineStart",1358162716509
executed,command,org.eclipse.ui,3.7.0.I20110602-0100,"org.eclipse.ui.file.saveAll",1358162719884
deactivated,workbench,org.eclipse.ui.workbench,3.7.0.I20110519-0100,"",1358162722150
activated,workbench,org.eclipse.ui.workbench,3.7.0.I20110519-0100,"",1358163429177
deactivated,workbench,org.eclipse.ui.workbench,3.7.0.I20110519-0100,"",1358163454083
activated,workbench,org.eclipse.ui.workbench,3.7.0.I20110519-0100,"",1358163516004
activated,editor,org.eclipse.jdt.ui,3.7.1.r371_v20110824-0800,"org.eclipse.jdt.ui.CompilationUnitEditor",1358163518129
executed,command,org.eclipse.ui,3.7.0.I20110602-0100,"org.eclipse.ui.edit.delete",1358163525051
executed,command,org.eclipse.ui,3.7.0.I20110602-0100,"org.eclipse.ui.edit.delete",1358163526785
deactivated,workbench,org.eclipse.ui.workbench,3.7.0.I20110519-0100,"",1358163528942
activated,workbench,org.eclipse.ui.workbench,3.7.0.I20110519-0100,"",1358163529848
deactivated,workbench,org.eclipse.ui.workbench,3.7.0.I20110519-0100,"",1358163531207
activated,workbench,org.eclipse.ui.workbench,3.7.0.I20110519-0100,"",1358163544723
executed,command,org.eclipse.ui,3.7.0.I20110602-0100,"org.eclipse.ui.edit.delete",1358163546863
deactivated,workbench,org.eclipse.ui.workbench,3.7.0.I20110519-0100,"",1358163549145
activated,workbench,org.eclipse.ui.workbench,3.7.0.I20110519-0100,"",1358163550176
deactivated,workbench,org.eclipse.ui.workbench,3.7.0.I20110519-0100,"",1358163551582
activated,workbench,org.eclipse.ui.workbench,3.7.0.I20110519-0100,"",1358163560973
deactivated,workbench,org.eclipse.ui.workbench,3.7.0.I20110519-0100,"",1358163578566
activated,workbench,org.eclipse.ui.workbench,3.7.0.I20110519-0100,"",1358163629753
executed,command,org.eclipse.ui,3.7.0.I20110602-0100,"org.eclipse.ui.edit.delete",1358163631410
executed,command,org.eclipse.ui,3.7.0.I20110602-0100,"org.eclipse.ui.edit.paste",1358163631644
deactivated,workbench,org.eclipse.ui.workbench,3.7.0.I20110519-0100,"",1358163633722
activated,workbench,org.eclipse.ui.workbench,3.7.0.I20110519-0100,"",1358163634644
deactivated,workbench,org.eclipse.ui.workbench,3.7.0.I20110519-0100,"",1358163636066
activated,workbench,org.eclipse.ui.workbench,3.7.0.I20110519-0100,"",1358163646675
deactivated,workbench,org.eclipse.ui.workbench,3.7.0.I20110519-0100,"",1358163653706
activated,workbench,org.eclipse.ui.workbench,3.7.0.I20110519-0100,"",1358163654425
deactivated,workbench,org.eclipse.ui.workbench,3.7.0.I20110519-0100,"",1358163655863
activated,workbench,org.eclipse.ui.workbench,3.7.0.I20110519-0100,"",1358163670972
executed,command,org.eclipse.ui,3.7.0.I20110602-0100,"org.eclipse.ui.edit.delete",1358163673097
deactivated,workbench,org.eclipse.ui.workbench,3.7.0.I20110519-0100,"",1358163683816
activated,workbench,org.eclipse.ui.workbench,3.7.0.I20110519-0100,"",1358163711065
executed,command,org.eclipse.ui,3.7.0.I20110602-0100,"org.eclipse.ui.edit.text.contentAssist.proposals",1358163719144
executed,command,org.eclipse.ui,3.7.0.I20110602-0100,"org.eclipse.ui.edit.text.contentAssist.proposals",1358163725581
executed,command,org.eclipse.ui,3.7.0.I20110602-0100,"org.eclipse.ui.edit.delete",1358163740940
executed,command,org.eclipse.ui,3.7.0.I20110602-0100,"org.eclipse.ui.edit.delete",1358163741097
executed,command,org.eclipse.ui,3.7.0.I20110602-0100,"org.eclipse.ui.edit.delete",1358163741284
executed,command,org.eclipse.ui,3.7.0.I20110602-0100,"org.eclipse.ui.edit.delete",1358163741440
executed,command,org.eclipse.ui,3.7.0.I20110602-0100,"org.eclipse.ui.edit.delete",1358163741596
executed,command,org.eclipse.ui,3.7.0.I20110602-0100,"org.eclipse.ui.edit.delete",1358163741768
executed,command,org.eclipse.ui,3.7.0.I20110602-0100,"org.eclipse.ui.edit.delete",1358163741940
executed,command,org.eclipse.ui,3.7.0.I20110602-0100,"org.eclipse.ui.edit.delete",1358163742315
deactivated,workbench,org.eclipse.ui.workbench,3.7.0.I20110519-0100,"",1358163773596
activated,workbench,org.eclipse.ui.workbench,3.7.0.I20110519-0100,"",1358163774331
deactivated,workbench,org.eclipse.ui.workbench,3.7.0.I20110519-0100,"",1358163775737
activated,workbench,org.eclipse.ui.workbench,3.7.0.I20110519-0100,"",1358163809643
opened,editor,org.eclipse.jdt.ui,3.7.1.r371_v20110824-0800,"org.eclipse.jdt.ui.CompilationUnitEditor",1358163811096
activated,editor,org.eclipse.jdt.ui,3.7.1.r371_v20110824-0800,"org.eclipse.jdt.ui.CompilationUnitEditor",1358163811112
activated,view,org.eclipse.ui.navigator.resources,3.4.300.I20110421-1800,"org.eclipse.ui.navigator.ProjectExplorer",1358163817330
activated,editor,org.eclipse.jdt.ui,3.7.1.r371_v20110824-0800,"org.eclipse.jdt.ui.CompilationUnitEditor",1358163817502
deactivated,workbench,org.eclipse.ui.workbench,3.7.0.I20110519-0100,"",1358163833955
activated,workbench,org.eclipse.ui.workbench,3.7.0.I20110519-0100,"",1358163834846
deactivated,workbench,org.eclipse.ui.workbench,3.7.0.I20110519-0100,"",1358163836346
activated,workbench,org.eclipse.ui.workbench,3.7.0.I20110519-0100,"",1358163845361
deactivated,workbench,org.eclipse.ui.workbench,3.7.0.I20110519-0100,"",1358163850033
activated,workbench,org.eclipse.ui.workbench,3.7.0.I20110519-0100,"",1358163850783
deactivated,workbench,org.eclipse.ui.workbench,3.7.0.I20110519-0100,"",1358163852236
activated,workbench,org.eclipse.ui.workbench,3.7.0.I20110519-0100,"",1358163857361
deactivated,workbench,org.eclipse.ui.workbench,3.7.0.I20110519-0100,"",1358163902595
executed,command,org.eclipse.ui,3.7.0.I20110602-0100,"org.eclipse.ui.edit.findReplace",1358163902611
activated,workbench,org.eclipse.ui.workbench,3.7.0.I20110519-0100,"",1358163913064
deactivated,workbench,org.eclipse.ui.workbench,3.7.0.I20110519-0100,"",1358163916752
activated,workbench,org.eclipse.ui.workbench,3.7.0.I20110519-0100,"",1358163917470
deactivated,workbench,org.eclipse.ui.workbench,3.7.0.I20110519-0100,"",1358163919002
activated,workbench,org.eclipse.ui.workbench,3.7.0.I20110519-0100,"",1358163946205
activated,editor,org.eclipse.jdt.ui,3.7.1.r371_v20110824-0800,"org.eclipse.jdt.ui.CompilationUnitEditor",1358163949595
executed,command,org.eclipse.ui,3.7.0.I20110602-0100,"org.eclipse.ui.edit.delete",1358163954142
executed,command,org.eclipse.ui,3.7.0.I20110602-0100,"org.eclipse.ui.edit.delete",1358163956814
deactivated,workbench,org.eclipse.ui.workbench,3.7.0.I20110519-0100,"",1358163962533
activated,workbench,org.eclipse.ui.workbench,3.7.0.I20110519-0100,"",1358163963408
deactivated,workbench,org.eclipse.ui.workbench,3.7.0.I20110519-0100,"",1358163964861
activated,workbench,org.eclipse.ui.workbench,3.7.0.I20110519-0100,"",1358163986517
executed,command,org.eclipse.ui,3.7.0.I20110602-0100,"org.eclipse.ui.edit.text.contentAssist.proposals",1358163991407
executed,command,org.eclipse.ui,3.7.0.I20110602-0100,"org.eclipse.ui.edit.text.contentAssist.proposals",1358163997048
executed,command,org.eclipse.ui,3.7.0.I20110602-0100,"org.eclipse.ui.edit.delete",1358164009892
executed,command,org.eclipse.ui,3.7.0.I20110602-0100,"org.eclipse.ui.edit.delete",1358164010048
executed,command,org.eclipse.ui,3.7.0.I20110602-0100,"org.eclipse.ui.edit.delete",1358164010189
executed,command,org.eclipse.ui,3.7.0.I20110602-0100,"org.eclipse.ui.edit.delete",1358164013423
executed,command,org.eclipse.ui,3.7.0.I20110602-0100,"org.eclipse.ui.edit.delete",1358164013923
executed,command,org.eclipse.ui,3.7.0.I20110602-0100,"org.eclipse.ui.edit.delete",1358164013970
executed,command,org.eclipse.ui,3.7.0.I20110602-0100,"org.eclipse.ui.edit.delete",1358164014017
executed,command,org.eclipse.ui,3.7.0.I20110602-0100,"org.eclipse.ui.edit.delete",1358164014064
executed,command,org.eclipse.ui,3.7.0.I20110602-0100,"org.eclipse.ui.edit.delete",1358164014110
executed,command,org.eclipse.ui,3.7.0.I20110602-0100,"org.eclipse.ui.edit.delete",1358164014157
executed,command,org.eclipse.ui,3.7.0.I20110602-0100,"org.eclipse.ui.edit.delete",1358164014204
executed,command,org.eclipse.ui,3.7.0.I20110602-0100,"org.eclipse.ui.edit.delete",1358164014251
executed,command,org.eclipse.ui,3.7.0.I20110602-0100,"org.eclipse.ui.edit.delete",1358164014298
executed,command,org.eclipse.ui,3.7.0.I20110602-0100,"org.eclipse.ui.edit.delete",1358164014345
executed,command,org.eclipse.ui,3.7.0.I20110602-0100,"org.eclipse.ui.edit.delete",1358164014392
executed,command,org.eclipse.ui,3.7.0.I20110602-0100,"org.eclipse.ui.edit.delete",1358164014439
executed,command,org.eclipse.ui,3.7.0.I20110602-0100,"org.eclipse.ui.edit.delete",1358164014485
executed,command,org.eclipse.ui,3.7.0.I20110602-0100,"org.eclipse.ui.edit.delete",1358164014532
executed,command,org.eclipse.ui,3.7.0.I20110602-0100,"org.eclipse.ui.edit.delete",1358164014579
executed,command,org.eclipse.ui,3.7.0.I20110602-0100,"org.eclipse.ui.edit.delete",1358164014626
executed,command,org.eclipse.ui,3.7.0.I20110602-0100,"org.eclipse.ui.edit.delete",1358164014673
executed,command,org.eclipse.ui,3.7.0.I20110602-0100,"org.eclipse.ui.edit.delete",1358164014720
executed,command,org.eclipse.ui,3.7.0.I20110602-0100,"org.eclipse.ui.edit.delete",1358164015220
executed,command,org.eclipse.ui,3.7.0.I20110602-0100,"org.eclipse.ui.edit.delete",1358164017860
executed,command,org.eclipse.ui,3.7.0.I20110602-0100,"org.eclipse.ui.edit.delete",1358164018032
executed,command,org.eclipse.ui,3.7.0.I20110602-0100,"org.eclipse.ui.edit.delete",1358164018173
executed,command,org.eclipse.ui,3.7.0.I20110602-0100,"org.eclipse.ui.edit.delete",1358164018345
deactivated,workbench,org.eclipse.ui.workbench,3.7.0.I20110519-0100,"",1358164027657
activated,workbench,org.eclipse.ui.workbench,3.7.0.I20110519-0100,"",1358164028688
deactivated,workbench,org.eclipse.ui.workbench,3.7.0.I20110519-0100,"",1358164030157
activated,workbench,org.eclipse.ui.workbench,3.7.0.I20110519-0100,"",1358164051688
executed,command,org.eclipse.ui,3.7.0.I20110602-0100,"org.eclipse.ui.edit.copy",1358164056344
executed,command,org.eclipse.ui.workbench.texteditor,3.7.0.v20110505-0800,"org.eclipse.ui.edit.text.goto.lineEnd",1358164067032
executed,command,org.eclipse.ui.workbench.texteditor,3.7.0.v20110505-0800,"org.eclipse.ui.edit.text.goto.lineEnd",1358164070829
executed,command,org.eclipse.ui.workbench.texteditor,3.7.0.v20110505-0800,"org.eclipse.ui.edit.text.select.lineStart",1358164071063
executed,command,org.eclipse.ui.workbench.texteditor,3.7.0.v20110505-0800,"org.eclipse.ui.edit.text.select.lineStart",1358164071204
executed,command,org.eclipse.ui,3.7.0.I20110602-0100,"org.eclipse.ui.edit.delete",1358164072157
executed,command,org.eclipse.ui,3.7.0.I20110602-0100,"org.eclipse.ui.edit.paste",1358164086141
deactivated,workbench,org.eclipse.ui.workbench,3.7.0.I20110519-0100,"",1358164088422
activated,workbench,org.eclipse.ui.workbench,3.7.0.I20110519-0100,"",1358164089251
deactivated,workbench,org.eclipse.ui.workbench,3.7.0.I20110519-0100,"",1358164090688
activated,workbench,org.eclipse.ui.workbench,3.7.0.I20110519-0100,"",1358164169734
deactivated,workbench,org.eclipse.ui.workbench,3.7.0.I20110519-0100,"",1358164175187
activated,workbench,org.eclipse.ui.workbench,3.7.0.I20110519-0100,"",1358164185094
executed,command,org.eclipse.ui,3.7.0.I20110602-0100,"org.eclipse.ui.edit.paste",1358164186219
deactivated,workbench,org.eclipse.ui.workbench,3.7.0.I20110519-0100,"",1358164189531
activated,workbench,org.eclipse.ui.workbench,3.7.0.I20110519-0100,"",1358164195406
executed,command,org.eclipse.ui,3.7.0.I20110602-0100,"org.eclipse.ui.edit.paste",1358164198656
executed,command,org.eclipse.ui,3.7.0.I20110602-0100,"org.eclipse.ui.file.saveAll",1358164200672
deactivated,workbench,org.eclipse.ui.workbench,3.7.0.I20110519-0100,"",1358164202734
activated,workbench,org.eclipse.ui.workbench,3.7.0.I20110519-0100,"",1358164206547
deactivated,workbench,org.eclipse.ui.workbench,3.7.0.I20110519-0100,"",1358164207984
activated,workbench,org.eclipse.ui.workbench,3.7.0.I20110519-0100,"",1358164223906
deactivated,workbench,org.eclipse.ui.workbench,3.7.0.I20110519-0100,"",1358164230406
activated,workbench,org.eclipse.ui.workbench,3.7.0.I20110519-0100,"",1358164231359
deactivated,workbench,org.eclipse.ui.workbench,3.7.0.I20110519-0100,"",1358164232828
activated,workbench,org.eclipse.ui.workbench,3.7.0.I20110519-0100,"",1358164289874
activated,view,org.eclipse.ui.navigator.resources,3.4.300.I20110421-1800,"org.eclipse.ui.navigator.ProjectExplorer",1358164297249
opened,editor,org.eclipse.jdt.ui,3.7.1.r371_v20110824-0800,"org.eclipse.jdt.ui.CompilationUnitEditor",1358164297515
activated,editor,org.eclipse.jdt.ui,3.7.1.r371_v20110824-0800,"org.eclipse.jdt.ui.CompilationUnitEditor",1358164297562
activated,editor,org.eclipse.jdt.ui,3.7.1.r371_v20110824-0800,"org.eclipse.jdt.ui.CompilationUnitEditor",1358164299937
closed,editor,org.eclipse.jdt.ui,3.7.1.r371_v20110824-0800,"org.eclipse.jdt.ui.CompilationUnitEditor",1358164299937
activated,view,org.eclipse.ui.navigator.resources,3.4.300.I20110421-1800,"org.eclipse.ui.navigator.ProjectExplorer",1358164301093
activated,editor,org.eclipse.jdt.ui,3.7.1.r371_v20110824-0800,"org.eclipse.jdt.ui.CompilationUnitEditor",1358164301359
activated,view,org.eclipse.ui.navigator.resources,3.4.300.I20110421-1800,"org.eclipse.ui.navigator.ProjectExplorer",1358164317593
activated,editor,org.eclipse.jdt.ui,3.7.1.r371_v20110824-0800,"org.eclipse.jdt.ui.CompilationUnitEditor",1358164317796
activated,view,org.eclipse.ui.navigator.resources,3.4.300.I20110421-1800,"org.eclipse.ui.navigator.ProjectExplorer",1358164328483
activated,editor,org.eclipse.jdt.ui,3.7.1.r371_v20110824-0800,"org.eclipse.jdt.ui.CompilationUnitEditor",1358164330702
activated,view,org.eclipse.ui.navigator.resources,3.4.300.I20110421-1800,"org.eclipse.ui.navigator.ProjectExplorer",1358164343155
activated,editor,org.eclipse.jdt.ui,3.7.1.r371_v20110824-0800,"org.eclipse.jdt.ui.CompilationUnitEditor",1358164344343
activated,editor,org.eclipse.jdt.ui,3.7.1.r371_v20110824-0800,"org.eclipse.jdt.ui.CompilationUnitEditor",1358164346936
closed,editor,org.eclipse.jdt.ui,3.7.1.r371_v20110824-0800,"org.eclipse.jdt.ui.CompilationUnitEditor",1358164346936
activated,view,org.eclipse.ui.navigator.resources,3.4.300.I20110421-1800,"org.eclipse.ui.navigator.ProjectExplorer",1358164367592
opened,editor,org.eclipse.jdt.ui,3.7.1.r371_v20110824-0800,"org.eclipse.jdt.ui.CompilationUnitEditor",1358164367811
activated,editor,org.eclipse.jdt.ui,3.7.1.r371_v20110824-0800,"org.eclipse.jdt.ui.CompilationUnitEditor",1358164367858
activated,view,org.eclipse.ui.navigator.resources,3.4.300.I20110421-1800,"org.eclipse.ui.navigator.ProjectExplorer",1358164385499
opened,editor,org.eclipse.jdt.ui,3.7.1.r371_v20110824-0800,"org.eclipse.jdt.ui.CompilationUnitEditor",1358164385717
activated,editor,org.eclipse.jdt.ui,3.7.1.r371_v20110824-0800,"org.eclipse.jdt.ui.CompilationUnitEditor",1358164385749
activated,editor,org.eclipse.jdt.ui,3.7.1.r371_v20110824-0800,"org.eclipse.jdt.ui.CompilationUnitEditor",1358164388280
closed,editor,org.eclipse.jdt.ui,3.7.1.r371_v20110824-0800,"org.eclipse.jdt.ui.CompilationUnitEditor",1358164388280
activated,view,org.eclipse.ui.navigator.resources,3.4.300.I20110421-1800,"org.eclipse.ui.navigator.ProjectExplorer",1358164389327
activated,editor,org.eclipse.jdt.ui,3.7.1.r371_v20110824-0800,"org.eclipse.jdt.ui.CompilationUnitEditor",1358164389483
activated,view,org.eclipse.ui.navigator.resources,3.4.300.I20110421-1800,"org.eclipse.ui.navigator.ProjectExplorer",1358164404530
activated,editor,org.eclipse.jdt.ui,3.7.1.r371_v20110824-0800,"org.eclipse.jdt.ui.CompilationUnitEditor",1358164404702
executed,command,org.eclipse.jdt.ui,3.7.1.r371_v20110824-0800,"org.eclipse.jdt.ui.edit.text.java.open.editor",1358164419155
executed,command,org.eclipse.ui.workbench.texteditor,3.7.0.v20110505-0800,"org.eclipse.ui.edit.text.goto.lineEnd",1358164430233
executed,command,org.eclipse.ui.workbench.texteditor,3.7.0.v20110505-0800,"org.eclipse.ui.edit.text.goto.lineEnd",1358164437826
executed,command,org.eclipse.ui,3.7.0.I20110602-0100,"org.eclipse.ui.file.saveAll",1358164440186
deactivated,workbench,org.eclipse.ui.workbench,3.7.0.I20110519-0100,"",1358164445014
executed,command,org.eclipse.ui,3.7.0.I20110602-0100,"org.eclipse.ui.edit.findReplace",1358164445029
activated,workbench,org.eclipse.ui.workbench,3.7.0.I20110519-0100,"",1358164455373
executed,command,,,"AUTOGEN:::org.eclipse.jdt.debug.CompilationUnitEditor.BreakpointRulerActions/org.eclipse.jdt.debug.ui.actions.ManageBreakpointRulerAction",1358164468701
deactivated,workbench,org.eclipse.ui.workbench,3.7.0.I20110519-0100,"",1358164472639
