what,kind,bundleId,bundleVersion,description,time
started,bundle,org.eclipse.wb.os,1.2.0.r37x201112290923,"org.eclipse.wb.os",1357917187486
started,bundle,org.eclipse.wb.os.win32,1.2.0.r37x201112290923,"org.eclipse.wb.os.win32",1357917187501
executed,command,org.eclipse.debug.ui,3.7.101.v20110817_r371,"org.eclipse.debug.ui.commands.Terminate",1357917193758
activated,perspective,org.eclipse.jst.j2ee.ui,1.1.501.v201108231700,"org.eclipse.jst.j2ee.J2EEPerspective",1357917196616
activated,editor,org.eclipse.jdt.ui,3.7.1.r371_v20110824-0800,"org.eclipse.jdt.ui.CompilationUnitEditor",1357917196647
activated,view,org.eclipse.ui.navigator.resources,3.4.300.I20110421-1800,"org.eclipse.ui.navigator.ProjectExplorer",1357917199333
started,bundle,org.eclipse.mylyn.resources.ui,3.6.0.v20110608-1400,"org.eclipse.mylyn.resources.ui",1357917199458
opened,editor,org.eclipse.jdt.ui,3.7.1.r371_v20110824-0800,"org.eclipse.jdt.ui.CompilationUnitEditor",1357917199614
activated,editor,org.eclipse.jdt.ui,3.7.1.r371_v20110824-0800,"org.eclipse.jdt.ui.CompilationUnitEditor",1357917199708
activated,editor,org.eclipse.jdt.ui,3.7.1.r371_v20110824-0800,"org.eclipse.jdt.ui.CompilationUnitEditor",1357917239171
activated,editor,org.eclipse.jdt.ui,3.7.1.r371_v20110824-0800,"org.eclipse.jdt.ui.CompilationUnitEditor",1357917241623
closed,editor,org.eclipse.jdt.ui,3.7.1.r371_v20110824-0800,"org.eclipse.jdt.ui.CompilationUnitEditor",1357917241638
activated,editor,org.eclipse.jdt.ui,3.7.1.r371_v20110824-0800,"org.eclipse.jdt.ui.CompilationUnitEditor",1357917243559
executed,command,org.eclipse.jdt.ui,3.7.1.r371_v20110824-0800,"org.eclipse.jdt.ui.edit.text.java.open.editor",1357917246698
executed,command,org.eclipse.jdt.ui,3.7.1.r371_v20110824-0800,"org.eclipse.jdt.ui.edit.text.java.open.editor",1357917249665
started,bundle,org.eclipse.mylyn.java.tasks,3.6.0.v20110608-1400,"org.eclipse.mylyn.java.tasks",1357917253632
executed,command,org.eclipse.ui,3.7.0.I20110602-0100,"org.eclipse.ui.edit.copy",1357917253679
activated,editor,org.eclipse.jdt.ui,3.7.1.r371_v20110824-0800,"org.eclipse.jdt.ui.CompilationUnitEditor",1357917255537
executed,command,org.eclipse.ui,3.7.0.I20110602-0100,"org.eclipse.ui.edit.paste",1357917259457
executed,command,org.eclipse.ui,3.7.0.I20110602-0100,"org.eclipse.ui.edit.undo",1357917262627
executed,command,org.eclipse.ui,3.7.0.I20110602-0100,"org.eclipse.ui.edit.undo",1357917263314
executed,command,org.eclipse.ui,3.7.0.I20110602-0100,"org.eclipse.ui.edit.undo",1357917263767
executed,command,org.eclipse.ui,3.7.0.I20110602-0100,"org.eclipse.ui.edit.paste",1357917265360
deactivated,workbench,org.eclipse.ui.workbench,3.7.0.I20110519-0100,"",1357917269607
activated,workbench,org.eclipse.ui.workbench,3.7.0.I20110519-0100,"",1357917270935
deactivated,workbench,org.eclipse.ui.workbench,3.7.0.I20110519-0100,"",1357917272793
activated,workbench,org.eclipse.ui.workbench,3.7.0.I20110519-0100,"",1357917325296
activated,editor,org.eclipse.jdt.ui,3.7.1.r371_v20110824-0800,"org.eclipse.jdt.ui.CompilationUnitEditor",1357917327560
deactivated,workbench,org.eclipse.ui.workbench,3.7.0.I20110519-0100,"",1357917351485
activated,workbench,org.eclipse.ui.workbench,3.7.0.I20110519-0100,"",1357917352750
deactivated,workbench,org.eclipse.ui.workbench,3.7.0.I20110519-0100,"",1357917354608
activated,workbench,org.eclipse.ui.workbench,3.7.0.I20110519-0100,"",1357917356295
executed,command,org.eclipse.ui,3.7.0.I20110602-0100,"org.eclipse.ui.edit.delete",1357917358137
deactivated,workbench,org.eclipse.ui.workbench,3.7.0.I20110519-0100,"",1357917361714
activated,workbench,org.eclipse.ui.workbench,3.7.0.I20110519-0100,"",1357917362838
deactivated,workbench,org.eclipse.ui.workbench,3.7.0.I20110519-0100,"",1357917364431
activated,workbench,org.eclipse.ui.workbench,3.7.0.I20110519-0100,"",1357917411077
started,bundle,org.eclipse.pde.launching,3.6.0.v20110506,"org.eclipse.pde.launching",1357917420650
started,bundle,org.eclipse.ui.views.log,1.0.200.v20110404,"org.eclipse.ui.views.log",1357917420681
started,bundle,org.eclipse.pde.ui,3.6.100.v20110603,"org.eclipse.pde.ui",1357917420681
executed,command,org.eclipse.ui.workbench.texteditor,3.7.0.v20110505-0800,"org.eclipse.ui.edit.text.goto.lineEnd",1357917426803
deactivated,workbench,org.eclipse.ui.workbench,3.7.0.I20110519-0100,"",1357917450009
activated,workbench,org.eclipse.ui.workbench,3.7.0.I20110519-0100,"",1357917453226
deactivated,workbench,org.eclipse.ui.workbench,3.7.0.I20110519-0100,"",1357917455085
activated,workbench,org.eclipse.ui.workbench,3.7.0.I20110519-0100,"",1357917460628
deactivated,workbench,org.eclipse.ui.workbench,3.7.0.I20110519-0100,"",1357917470623
activated,workbench,org.eclipse.ui.workbench,3.7.0.I20110519-0100,"",1357917472731
deactivated,workbench,org.eclipse.ui.workbench,3.7.0.I20110519-0100,"",1357917476916
activated,workbench,org.eclipse.ui.workbench,3.7.0.I20110519-0100,"",1357917479603
deactivated,workbench,org.eclipse.ui.workbench,3.7.0.I20110519-0100,"",1357917485146
activated,workbench,org.eclipse.ui.workbench,3.7.0.I20110519-0100,"",1357917486708
deactivated,workbench,org.eclipse.ui.workbench,3.7.0.I20110519-0100,"",1357917492205
activated,workbench,org.eclipse.ui.workbench,3.7.0.I20110519-0100,"",1357917494689
deactivated,workbench,org.eclipse.ui.workbench,3.7.0.I20110519-0100,"",1357917497485
activated,workbench,org.eclipse.ui.workbench,3.7.0.I20110519-0100,"",1357917499344
deactivated,workbench,org.eclipse.ui.workbench,3.7.0.I20110519-0100,"",1357917502750
activated,workbench,org.eclipse.ui.workbench,3.7.0.I20110519-0100,"",1357917504218
deactivated,workbench,org.eclipse.ui.workbench,3.7.0.I20110519-0100,"",1357917504827
activated,workbench,org.eclipse.ui.workbench,3.7.0.I20110519-0100,"",1357917509686
deactivated,workbench,org.eclipse.ui.workbench,3.7.0.I20110519-0100,"",1357917510935
activated,workbench,org.eclipse.ui.workbench,3.7.0.I20110519-0100,"",1357917515919
deactivated,workbench,org.eclipse.ui.workbench,3.7.0.I20110519-0100,"",1357917522652
activated,workbench,org.eclipse.ui.workbench,3.7.0.I20110519-0100,"",1357917527307
deactivated,workbench,org.eclipse.ui.workbench,3.7.0.I20110519-0100,"",1357917531713
activated,workbench,org.eclipse.ui.workbench,3.7.0.I20110519-0100,"",1357917534415
deactivated,workbench,org.eclipse.ui.workbench,3.7.0.I20110519-0100,"",1357917537399
activated,workbench,org.eclipse.ui.workbench,3.7.0.I20110519-0100,"",1357917540586
deactivated,workbench,org.eclipse.ui.workbench,3.7.0.I20110519-0100,"",1357917543476
activated,workbench,org.eclipse.ui.workbench,3.7.0.I20110519-0100,"",1357917545397
deactivated,workbench,org.eclipse.ui.workbench,3.7.0.I20110519-0100,"",1357917552630
activated,workbench,org.eclipse.ui.workbench,3.7.0.I20110519-0100,"",1357917555848
executed,command,org.eclipse.jdt.ui,3.7.1.r371_v20110824-0800,"org.eclipse.jdt.ui.edit.text.java.open.editor",1357917569330
deactivated,workbench,org.eclipse.ui.workbench,3.7.0.I20110519-0100,"",1357917616180
activated,workbench,org.eclipse.ui.workbench,3.7.0.I20110519-0100,"",1357917618055
executed,command,org.eclipse.ui,3.7.0.I20110602-0100,"org.eclipse.ui.edit.copy",1357917654594
executed,command,org.eclipse.ui,3.7.0.I20110602-0100,"org.eclipse.ui.edit.paste",1357917656735
activated,editor,org.eclipse.jdt.ui,3.7.1.r371_v20110824-0800,"org.eclipse.jdt.ui.CompilationUnitEditor",1357917657984
executed,command,org.eclipse.ui,3.7.0.I20110602-0100,"org.eclipse.ui.edit.copy",1357917663858
activated,editor,org.eclipse.jdt.ui,3.7.1.r371_v20110824-0800,"org.eclipse.jdt.ui.CompilationUnitEditor",1357917665217
executed,command,org.eclipse.ui,3.7.0.I20110602-0100,"org.eclipse.ui.edit.paste",1357917670747
deactivated,workbench,org.eclipse.ui.workbench,3.7.0.I20110519-0100,"",1357917688681
activated,workbench,org.eclipse.ui.workbench,3.7.0.I20110519-0100,"",1357917690290
executed,command,org.eclipse.ui.workbench.texteditor,3.7.0.v20110505-0800,"org.eclipse.ui.edit.text.select.lineStart",1357917691556
executed,command,org.eclipse.ui.workbench.texteditor,3.7.0.v20110505-0800,"org.eclipse.ui.edit.text.select.lineStart",1357917691696
executed,command,org.eclipse.ui,3.7.0.I20110602-0100,"org.eclipse.ui.edit.delete",1357917692071
executed,command,org.eclipse.ui,3.7.0.I20110602-0100,"org.eclipse.ui.edit.delete",1357917692243
executed,command,org.eclipse.ui.workbench.texteditor,3.7.0.v20110505-0800,"org.eclipse.ui.edit.text.goto.lineEnd",1357917692759
executed,command,org.eclipse.ui,3.7.0.I20110602-0100,"org.eclipse.ui.edit.text.contentAssist.proposals",1357917697601
deactivated,workbench,org.eclipse.ui.workbench,3.7.0.I20110519-0100,"",1357917704569
activated,workbench,org.eclipse.ui.workbench,3.7.0.I20110519-0100,"",1357917708053
executed,command,org.eclipse.ui,3.7.0.I20110602-0100,"org.eclipse.ui.edit.delete",1357917711458
executed,command,org.eclipse.ui,3.7.0.I20110602-0100,"org.eclipse.ui.edit.delete",1357917711583
executed,command,org.eclipse.ui,3.7.0.I20110602-0100,"org.eclipse.ui.edit.delete",1357917711724
executed,command,org.eclipse.ui.workbench.texteditor,3.7.0.v20110505-0800,"org.eclipse.ui.edit.text.goto.lineEnd",1357917718051
executed,command,org.eclipse.ui,3.7.0.I20110602-0100,"org.eclipse.ui.file.saveAll",1357917733766
executed,command,org.eclipse.ui.workbench.texteditor,3.7.0.v20110505-0800,"org.eclipse.ui.edit.text.goto.lineStart",1357917742530
executed,command,org.eclipse.ui,3.7.0.I20110602-0100,"org.eclipse.ui.edit.delete",1357917743952
executed,command,org.eclipse.ui,3.7.0.I20110602-0100,"org.eclipse.ui.file.saveAll",1357917760386
executed,command,org.eclipse.ui,3.7.0.I20110602-0100,"org.eclipse.ui.file.saveAll",1357917788646
executed,command,org.eclipse.ui,3.7.0.I20110602-0100,"org.eclipse.ui.file.saveAll",1357917829923
deactivated,workbench,org.eclipse.ui.workbench,3.7.0.I20110519-0100,"",1357917834689
activated,workbench,org.eclipse.ui.workbench,3.7.0.I20110519-0100,"",1357917899371
executed,command,org.eclipse.ui,3.7.0.I20110602-0100,"org.eclipse.ui.file.saveAll",1357917933696
deactivated,workbench,org.eclipse.ui.workbench,3.7.0.I20110519-0100,"",1357917940867
activated,workbench,org.eclipse.ui.workbench,3.7.0.I20110519-0100,"",1357917971957
deactivated,workbench,org.eclipse.ui.workbench,3.7.0.I20110519-0100,"",1357917972926
activated,workbench,org.eclipse.ui.workbench,3.7.0.I20110519-0100,"",1357918010109
deactivated,workbench,org.eclipse.ui.workbench,3.7.0.I20110519-0100,"",1357918013108
activated,workbench,org.eclipse.ui.workbench,3.7.0.I20110519-0100,"",1357918025450
deactivated,workbench,org.eclipse.ui.workbench,3.7.0.I20110519-0100,"",1357918027513
activated,workbench,org.eclipse.ui.workbench,3.7.0.I20110519-0100,"",1357918030903
executed,command,,,"AUTOGEN:::org.eclipse.jdt.debug.CompilationUnitEditor.BreakpointRulerActions/org.eclipse.jdt.debug.ui.actions.ManageBreakpointRulerAction",1357918031106
deactivated,workbench,org.eclipse.ui.workbench,3.7.0.I20110519-0100,"",1357918032215
activated,workbench,org.eclipse.ui.workbench,3.7.0.I20110519-0100,"",1357918054400
deactivated,workbench,org.eclipse.ui.workbench,3.7.0.I20110519-0100,"",1357918054416
activated,workbench,org.eclipse.ui.workbench,3.7.0.I20110519-0100,"",1357918055962
activated,perspective,org.eclipse.debug.ui,3.7.101.v20110817_r371,"org.eclipse.debug.ui.DebugPerspective",1357918056009
executed,command,,,"AUTOGEN:::org.eclipse.jdt.debug.CompilationUnitEditor.BreakpointRulerActions/org.eclipse.jdt.debug.ui.actions.ManageBreakpointRulerAction",1357918058978
activated,view,org.eclipse.debug.ui,3.7.101.v20110817_r371,"org.eclipse.debug.ui.DebugView",1357918060321
executed,command,org.eclipse.debug.ui,3.7.101.v20110817_r371,"org.eclipse.debug.ui.commands.Resume",1357918060399
deactivated,workbench,org.eclipse.ui.workbench,3.7.0.I20110519-0100,"",1357918066492
activated,workbench,org.eclipse.ui.workbench,3.7.0.I20110519-0100,"",1357918068133
activated,editor,org.eclipse.jdt.ui,3.7.1.r371_v20110824-0800,"org.eclipse.jdt.ui.CompilationUnitEditor",1357918068164
executed,command,org.eclipse.jdt.ui,3.7.1.r371_v20110824-0800,"org.eclipse.jdt.ui.edit.text.java.open.editor",1357918078163
deactivated,workbench,org.eclipse.ui.workbench,3.7.0.I20110519-0100,"",1357918080897
activated,workbench,org.eclipse.ui.workbench,3.7.0.I20110519-0100,"",1357918084990
deactivated,workbench,org.eclipse.ui.workbench,3.7.0.I20110519-0100,"",1357918086271
activated,workbench,org.eclipse.ui.workbench,3.7.0.I20110519-0100,"",1357918104675
executed,command,,,"AUTOGEN:::org.eclipse.jdt.debug.CompilationUnitEditor.BreakpointRulerActions/org.eclipse.jdt.debug.ui.actions.ManageBreakpointRulerAction",1357918109050
executed,command,,,"AUTOGEN:::org.eclipse.jdt.internal.ui.CompilationUnitEditor.ruler.actions/org.eclipse.jdt.internal.ui.javaeditor.JavaSelectRulerAction",1357918109565
activated,view,org.eclipse.debug.ui,3.7.101.v20110817_r371,"org.eclipse.debug.ui.DebugView",1357918110331
executed,command,org.eclipse.debug.ui,3.7.101.v20110817_r371,"org.eclipse.debug.ui.commands.Resume",1357918110378
deactivated,workbench,org.eclipse.ui.workbench,3.7.0.I20110519-0100,"",1357918111503
activated,workbench,org.eclipse.ui.workbench,3.7.0.I20110519-0100,"",1357918153341
activated,perspective,org.eclipse.jst.j2ee.ui,1.1.501.v201108231700,"org.eclipse.jst.j2ee.J2EEPerspective",1357918155763
activated,editor,org.eclipse.jdt.ui,3.7.1.r371_v20110824-0800,"org.eclipse.jdt.ui.CompilationUnitEditor",1357918155778
deactivated,workbench,org.eclipse.ui.workbench,3.7.0.I20110519-0100,"",1357918163699
activated,workbench,org.eclipse.ui.workbench,3.7.0.I20110519-0100,"",1357918165308
executed,command,org.eclipse.ui.workbench.texteditor,3.7.0.v20110505-0800,"org.eclipse.ui.edit.text.select.lineStart",1357918168183
executed,command,org.eclipse.ui.workbench.texteditor,3.7.0.v20110505-0800,"org.eclipse.ui.edit.text.select.lineStart",1357918168355
deactivated,workbench,org.eclipse.ui.workbench,3.7.0.I20110519-0100,"",1357918172183
activated,workbench,org.eclipse.ui.workbench,3.7.0.I20110519-0100,"",1357918174479
deactivated,workbench,org.eclipse.ui.workbench,3.7.0.I20110519-0100,"",1357918175588
activated,workbench,org.eclipse.ui.workbench,3.7.0.I20110519-0100,"",1357918179635
deactivated,workbench,org.eclipse.ui.workbench,3.7.0.I20110519-0100,"",1357918182166
activated,workbench,org.eclipse.ui.workbench,3.7.0.I20110519-0100,"",1357918184166
deactivated,workbench,org.eclipse.ui.workbench,3.7.0.I20110519-0100,"",1357918190977
activated,workbench,org.eclipse.ui.workbench,3.7.0.I20110519-0100,"",1357918204085
deactivated,workbench,org.eclipse.ui.workbench,3.7.0.I20110519-0100,"",1357918205960
activated,workbench,org.eclipse.ui.workbench,3.7.0.I20110519-0100,"",1357918208663
deactivated,workbench,org.eclipse.ui.workbench,3.7.0.I20110519-0100,"",1357918210506
activated,workbench,org.eclipse.ui.workbench,3.7.0.I20110519-0100,"",1357918211506
deactivated,workbench,org.eclipse.ui.workbench,3.7.0.I20110519-0100,"",1357918217333
activated,workbench,org.eclipse.ui.workbench,3.7.0.I20110519-0100,"",1357918222583
deactivated,workbench,org.eclipse.ui.workbench,3.7.0.I20110519-0100,"",1357918225130
activated,workbench,org.eclipse.ui.workbench,3.7.0.I20110519-0100,"",1357918226177
executed,command,org.eclipse.ui.workbench.texteditor,3.7.0.v20110505-0800,"org.eclipse.ui.edit.text.select.lineStart",1357918230598
executed,command,org.eclipse.ui.workbench.texteditor,3.7.0.v20110505-0800,"org.eclipse.ui.edit.text.select.lineStart",1357918231130
deactivated,workbench,org.eclipse.ui.workbench,3.7.0.I20110519-0100,"",1357918239707
activated,workbench,org.eclipse.ui.workbench,3.7.0.I20110519-0100,"",1357918241426
deactivated,workbench,org.eclipse.ui.workbench,3.7.0.I20110519-0100,"",1357918246816
activated,workbench,org.eclipse.ui.workbench,3.7.0.I20110519-0100,"",1357918263612
deactivated,workbench,org.eclipse.ui.workbench,3.7.0.I20110519-0100,"",1357918270549
activated,workbench,org.eclipse.ui.workbench,3.7.0.I20110519-0100,"",1357918272596
executed,command,org.eclipse.ui.workbench.texteditor,3.7.0.v20110505-0800,"org.eclipse.ui.edit.text.select.lineStart",1357918274362
executed,command,org.eclipse.ui.workbench.texteditor,3.7.0.v20110505-0800,"org.eclipse.ui.edit.text.select.lineStart",1357918274471
executed,command,org.eclipse.ui,3.7.0.I20110602-0100,"org.eclipse.ui.edit.cut",1357918275502
executed,command,org.eclipse.ui,3.7.0.I20110602-0100,"org.eclipse.ui.edit.paste",1357918276502
executed,command,org.eclipse.ui.workbench.texteditor,3.7.0.v20110505-0800,"org.eclipse.ui.edit.text.toggleOverwrite",1357918277424
executed,command,org.eclipse.ui.workbench.texteditor,3.7.0.v20110505-0800,"org.eclipse.ui.edit.text.toggleOverwrite",1357918278408
deactivated,workbench,org.eclipse.ui.workbench,3.7.0.I20110519-0100,"",1357918280080
activated,workbench,org.eclipse.ui.workbench,3.7.0.I20110519-0100,"",1357918282314
deactivated,workbench,org.eclipse.ui.workbench,3.7.0.I20110519-0100,"",1357918286361
activated,workbench,org.eclipse.ui.workbench,3.7.0.I20110519-0100,"",1357918288423
deactivated,workbench,org.eclipse.ui.workbench,3.7.0.I20110519-0100,"",1357918289845
activated,workbench,org.eclipse.ui.workbench,3.7.0.I20110519-0100,"",1357918292361
deactivated,workbench,org.eclipse.ui.workbench,3.7.0.I20110519-0100,"",1357918297704
activated,workbench,org.eclipse.ui.workbench,3.7.0.I20110519-0100,"",1357918299314
executed,command,org.eclipse.ui.workbench.texteditor,3.7.0.v20110505-0800,"org.eclipse.ui.edit.text.goto.lineEnd",1357918313313
executed,command,org.eclipse.ui.workbench.texteditor,3.7.0.v20110505-0800,"org.eclipse.ui.edit.text.select.lineStart",1357918337249
executed,command,org.eclipse.ui.workbench.texteditor,3.7.0.v20110505-0800,"org.eclipse.ui.edit.text.select.lineStart",1357918337390
executed,command,org.eclipse.ui,3.7.0.I20110602-0100,"org.eclipse.ui.edit.copy",1357918340140
executed,command,org.eclipse.ui,3.7.0.I20110602-0100,"org.eclipse.ui.edit.paste",1357918342249
activated,editor,org.eclipse.jdt.ui,3.7.1.r371_v20110824-0800,"org.eclipse.jdt.ui.CompilationUnitEditor",1357918351811
executed,command,org.eclipse.ui,3.7.0.I20110602-0100,"org.eclipse.ui.edit.copy",1357918358545
activated,editor,org.eclipse.jdt.ui,3.7.1.r371_v20110824-0800,"org.eclipse.jdt.ui.CompilationUnitEditor",1357918359889
executed,command,org.eclipse.ui,3.7.0.I20110602-0100,"org.eclipse.ui.edit.paste",1357918362248
executed,command,org.eclipse.ui,3.7.0.I20110602-0100,"org.eclipse.ui.edit.text.contentAssist.proposals",1357918373107
deactivated,workbench,org.eclipse.ui.workbench,3.7.0.I20110519-0100,"",1357918377638
activated,workbench,org.eclipse.ui.workbench,3.7.0.I20110519-0100,"",1357918380934
deactivated,workbench,org.eclipse.ui.workbench,3.7.0.I20110519-0100,"",1357918388090
activated,workbench,org.eclipse.ui.workbench,3.7.0.I20110519-0100,"",1357918389856
executed,command,org.eclipse.ui.workbench.texteditor,3.7.0.v20110505-0800,"org.eclipse.ui.edit.text.goto.lineEnd",1357918390918
deactivated,workbench,org.eclipse.ui.workbench,3.7.0.I20110519-0100,"",1357918394434
activated,workbench,org.eclipse.ui.workbench,3.7.0.I20110519-0100,"",1357918396074
deactivated,workbench,org.eclipse.ui.workbench,3.7.0.I20110519-0100,"",1357918396840
activated,workbench,org.eclipse.ui.workbench,3.7.0.I20110519-0100,"",1357918451431
deactivated,workbench,org.eclipse.ui.workbench,3.7.0.I20110519-0100,"",1357918452306
activated,workbench,org.eclipse.ui.workbench,3.7.0.I20110519-0100,"",1357918462133
executed,command,org.eclipse.ui,3.7.0.I20110602-0100,"org.eclipse.ui.edit.paste",1357918489413
executed,command,org.eclipse.ui.workbench.texteditor,3.7.0.v20110505-0800,"org.eclipse.ui.edit.text.select.lineStart",1357918490679
executed,command,org.eclipse.ui,3.7.0.I20110602-0100,"org.eclipse.ui.edit.copy",1357918496632
executed,command,org.eclipse.ui,3.7.0.I20110602-0100,"org.eclipse.ui.edit.paste",1357918498600
activated,editor,org.eclipse.jdt.ui,3.7.1.r371_v20110824-0800,"org.eclipse.jdt.ui.CompilationUnitEditor",1357918504553
executed,command,org.eclipse.ui,3.7.0.I20110602-0100,"org.eclipse.ui.edit.copy",1357918512068
activated,editor,org.eclipse.jdt.ui,3.7.1.r371_v20110824-0800,"org.eclipse.jdt.ui.CompilationUnitEditor",1357918513021
executed,command,org.eclipse.ui,3.7.0.I20110602-0100,"org.eclipse.ui.edit.paste",1357918516787
deactivated,workbench,org.eclipse.ui.workbench,3.7.0.I20110519-0100,"",1357918525380
activated,workbench,org.eclipse.ui.workbench,3.7.0.I20110519-0100,"",1357918528130
deactivated,workbench,org.eclipse.ui.workbench,3.7.0.I20110519-0100,"",1357918533880
activated,workbench,org.eclipse.ui.workbench,3.7.0.I20110519-0100,"",1357918534802
executed,command,org.eclipse.ui.workbench.texteditor,3.7.0.v20110505-0800,"org.eclipse.ui.edit.text.select.lineStart",1357918537192
executed,command,org.eclipse.ui,3.7.0.I20110602-0100,"org.eclipse.ui.edit.text.contentAssist.proposals",1357918539317
deactivated,workbench,org.eclipse.ui.workbench,3.7.0.I20110519-0100,"",1357918544817
activated,workbench,org.eclipse.ui.workbench,3.7.0.I20110519-0100,"",1357918547630
deactivated,workbench,org.eclipse.ui.workbench,3.7.0.I20110519-0100,"",1357918557551
activated,workbench,org.eclipse.ui.workbench,3.7.0.I20110519-0100,"",1357918559426
deactivated,workbench,org.eclipse.ui.workbench,3.7.0.I20110519-0100,"",1357918560754
activated,workbench,org.eclipse.ui.workbench,3.7.0.I20110519-0100,"",1357918574348
executed,command,org.eclipse.ui.workbench.texteditor,3.7.0.v20110505-0800,"org.eclipse.ui.edit.text.goto.lineEnd",1357918581551
executed,command,org.eclipse.ui,3.7.0.I20110602-0100,"org.eclipse.ui.edit.delete",1357918586785
executed,command,org.eclipse.ui,3.7.0.I20110602-0100,"org.eclipse.ui.edit.delete",1357918587097
deactivated,workbench,org.eclipse.ui.workbench,3.7.0.I20110519-0100,"",1357918617409
activated,workbench,org.eclipse.ui.workbench,3.7.0.I20110519-0100,"",1357918649799
deactivated,workbench,org.eclipse.ui.workbench,3.7.0.I20110519-0100,"",1357918673939
activated,workbench,org.eclipse.ui.workbench,3.7.0.I20110519-0100,"",1357918677908
deactivated,workbench,org.eclipse.ui.workbench,3.7.0.I20110519-0100,"",1357918678501
activated,workbench,org.eclipse.ui.workbench,3.7.0.I20110519-0100,"",1357918679736
deactivated,workbench,org.eclipse.ui.workbench,3.7.0.I20110519-0100,"",1357918681173
activated,workbench,org.eclipse.ui.workbench,3.7.0.I20110519-0100,"",1357918699235
deactivated,workbench,org.eclipse.ui.workbench,3.7.0.I20110519-0100,"",1357918700641
activated,workbench,org.eclipse.ui.workbench,3.7.0.I20110519-0100,"",1357918711063
deactivated,workbench,org.eclipse.ui.workbench,3.7.0.I20110519-0100,"",1357918718657
activated,workbench,org.eclipse.ui.workbench,3.7.0.I20110519-0100,"",1357918720625
deactivated,workbench,org.eclipse.ui.workbench,3.7.0.I20110519-0100,"",1357918750390
activated,workbench,org.eclipse.ui.workbench,3.7.0.I20110519-0100,"",1357918754593
deactivated,workbench,org.eclipse.ui.workbench,3.7.0.I20110519-0100,"",1357918777608
activated,workbench,org.eclipse.ui.workbench,3.7.0.I20110519-0100,"",1357918779249
deactivated,workbench,org.eclipse.ui.workbench,3.7.0.I20110519-0100,"",1357918780952
activated,workbench,org.eclipse.ui.workbench,3.7.0.I20110519-0100,"",1357918844560
executed,command,org.eclipse.ui.workbench.texteditor,3.7.0.v20110505-0800,"org.eclipse.ui.edit.text.goto.lineEnd",1357918905371
executed,command,org.eclipse.ui.workbench.texteditor,3.7.0.v20110505-0800,"org.eclipse.ui.edit.text.goto.lineStart",1357918920902
executed,command,org.eclipse.ui.workbench.texteditor,3.7.0.v20110505-0800,"org.eclipse.ui.edit.text.goto.lineEnd",1357918922480
activated,editor,org.eclipse.jdt.ui,3.7.1.r371_v20110824-0800,"org.eclipse.jdt.ui.CompilationUnitEditor",1357918935839
executed,command,org.eclipse.ui,3.7.0.I20110602-0100,"org.eclipse.ui.edit.copy",1357918940214
activated,editor,org.eclipse.jdt.ui,3.7.1.r371_v20110824-0800,"org.eclipse.jdt.ui.CompilationUnitEditor",1357918941167
executed,command,org.eclipse.ui,3.7.0.I20110602-0100,"org.eclipse.ui.edit.paste",1357918942527
executed,command,org.eclipse.ui.workbench.texteditor,3.7.0.v20110505-0800,"org.eclipse.ui.edit.text.goto.lineEnd",1357919303483
executed,command,org.eclipse.ui.workbench.texteditor,3.7.0.v20110505-0800,"org.eclipse.ui.edit.text.goto.lineEnd",1357919346514
deactivated,workbench,org.eclipse.ui.workbench,3.7.0.I20110519-0100,"",1357919362170
activated,workbench,org.eclipse.ui.workbench,3.7.0.I20110519-0100,"",1357919367608
executed,command,org.eclipse.ui.workbench.texteditor,3.7.0.v20110505-0800,"org.eclipse.ui.edit.text.goto.lineEnd",1357919390358
executed,command,org.eclipse.ui.workbench.texteditor,3.7.0.v20110505-0800,"org.eclipse.ui.edit.text.goto.lineEnd",1357919401030
executed,command,org.eclipse.ui.workbench.texteditor,3.7.0.v20110505-0800,"org.eclipse.ui.edit.text.goto.lineEnd",1357919407076
executed,command,org.eclipse.ui,3.7.0.I20110602-0100,"org.eclipse.ui.edit.text.contentAssist.proposals",1357919414264
executed,command,org.eclipse.ui,3.7.0.I20110602-0100,"org.eclipse.ui.edit.cut",1357919441373
executed,command,org.eclipse.ui,3.7.0.I20110602-0100,"org.eclipse.ui.edit.paste",1357919442623
executed,command,org.eclipse.ui.workbench.texteditor,3.7.0.v20110505-0800,"org.eclipse.ui.edit.text.select.lineStart",1357919445482
executed,command,org.eclipse.ui.workbench.texteditor,3.7.0.v20110505-0800,"org.eclipse.ui.edit.text.select.lineStart",1357919445623
executed,command,org.eclipse.ui,3.7.0.I20110602-0100,"org.eclipse.ui.edit.copy",1357919480779
executed,command,org.eclipse.ui,3.7.0.I20110602-0100,"org.eclipse.ui.edit.paste",1357919482263
executed,command,org.eclipse.ui.workbench.texteditor,3.7.0.v20110505-0800,"org.eclipse.ui.edit.text.goto.lineStart",1357919486435
executed,command,org.eclipse.ui.workbench.texteditor,3.7.0.v20110505-0800,"org.eclipse.ui.edit.text.goto.lineStart",1357919487545
executed,command,org.eclipse.ui.workbench.texteditor,3.7.0.v20110505-0800,"org.eclipse.ui.edit.text.goto.lineStart",1357919487966
executed,command,org.eclipse.ui.workbench.texteditor,3.7.0.v20110505-0800,"org.eclipse.ui.edit.text.goto.lineStart",1357919488482
executed,command,org.eclipse.ui.workbench.texteditor,3.7.0.v20110505-0800,"org.eclipse.ui.edit.text.goto.lineStart",1357919489326
executed,command,org.eclipse.ui.workbench.texteditor,3.7.0.v20110505-0800,"org.eclipse.ui.edit.text.goto.lineStart",1357919492420
executed,command,org.eclipse.ui.workbench.texteditor,3.7.0.v20110505-0800,"org.eclipse.ui.edit.text.goto.lineEnd",1357919497326
executed,command,org.eclipse.ui,3.7.0.I20110602-0100,"org.eclipse.ui.edit.copy",1357919508560
executed,command,org.eclipse.ui,3.7.0.I20110602-0100,"org.eclipse.ui.edit.paste",1357919509810
executed,command,org.eclipse.ui,3.7.0.I20110602-0100,"org.eclipse.ui.edit.paste",1357919514529
executed,command,org.eclipse.ui,3.7.0.I20110602-0100,"org.eclipse.ui.edit.paste",1357919519841
deactivated,workbench,org.eclipse.ui.workbench,3.7.0.I20110519-0100,"",1357919532576
activated,workbench,org.eclipse.ui.workbench,3.7.0.I20110519-0100,"",1357919533622
executed,command,org.eclipse.ui,3.7.0.I20110602-0100,"org.eclipse.ui.edit.text.contentAssist.proposals",1357919536560
