what,kind,bundleId,bundleVersion,description,time
executed,command,org.eclipse.debug.ui,3.7.101.v20110817_r371,"org.eclipse.debug.ui.commands.StepOver",1347276596161
executed,command,org.eclipse.debug.ui,3.7.101.v20110817_r371,"org.eclipse.debug.ui.commands.StepOver",1347276596473
executed,command,org.eclipse.debug.ui,3.7.101.v20110817_r371,"org.eclipse.debug.ui.commands.StepOver",1347276596723
executed,command,org.eclipse.debug.ui,3.7.101.v20110817_r371,"org.eclipse.debug.ui.commands.StepOver",1347276596926
executed,command,org.eclipse.debug.ui,3.7.101.v20110817_r371,"org.eclipse.debug.ui.commands.StepOver",1347276597192
executed,command,org.eclipse.debug.ui,3.7.101.v20110817_r371,"org.eclipse.debug.ui.commands.StepOver",1347276597567
executed,command,org.eclipse.debug.ui,3.7.101.v20110817_r371,"org.eclipse.debug.ui.commands.StepOver",1347276597754
executed,command,org.eclipse.debug.ui,3.7.101.v20110817_r371,"org.eclipse.debug.ui.commands.StepOver",1347276597989
executed,command,org.eclipse.debug.ui,3.7.101.v20110817_r371,"org.eclipse.debug.ui.commands.StepOver",1347276598192
executed,command,org.eclipse.debug.ui,3.7.101.v20110817_r371,"org.eclipse.debug.ui.commands.StepOver",1347276598379
executed,command,org.eclipse.debug.ui,3.7.101.v20110817_r371,"org.eclipse.debug.ui.commands.StepOver",1347276598551
executed,command,org.eclipse.debug.ui,3.7.101.v20110817_r371,"org.eclipse.debug.ui.commands.StepOver",1347276598754
executed,command,org.eclipse.debug.ui,3.7.101.v20110817_r371,"org.eclipse.debug.ui.commands.StepOver",1347276598973
executed,command,org.eclipse.debug.ui,3.7.101.v20110817_r371,"org.eclipse.debug.ui.commands.StepOver",1347276599161
executed,command,org.eclipse.debug.ui,3.7.101.v20110817_r371,"org.eclipse.debug.ui.commands.StepOver",1347276599364
executed,command,org.eclipse.debug.ui,3.7.101.v20110817_r371,"org.eclipse.debug.ui.commands.StepOver",1347276599567
executed,command,org.eclipse.debug.ui,3.7.101.v20110817_r371,"org.eclipse.debug.ui.commands.StepOver",1347276599754
executed,command,org.eclipse.debug.ui,3.7.101.v20110817_r371,"org.eclipse.debug.ui.commands.StepOver",1347276599973
executed,command,org.eclipse.debug.ui,3.7.101.v20110817_r371,"org.eclipse.debug.ui.commands.StepOver",1347276600145
executed,command,org.eclipse.debug.ui,3.7.101.v20110817_r371,"org.eclipse.debug.ui.commands.StepOver",1347276600333
executed,command,org.eclipse.debug.ui,3.7.101.v20110817_r371,"org.eclipse.debug.ui.commands.StepOver",1347276600583
executed,command,org.eclipse.debug.ui,3.7.101.v20110817_r371,"org.eclipse.debug.ui.commands.StepOver",1347276600864
executed,command,org.eclipse.debug.ui,3.7.101.v20110817_r371,"org.eclipse.debug.ui.commands.StepOver",1347276601083
executed,command,org.eclipse.debug.ui,3.7.101.v20110817_r371,"org.eclipse.debug.ui.commands.StepOver",1347276601317
executed,command,org.eclipse.debug.ui,3.7.101.v20110817_r371,"org.eclipse.debug.ui.commands.StepOver",1347276601520
executed,command,org.eclipse.debug.ui,3.7.101.v20110817_r371,"org.eclipse.debug.ui.commands.StepOver",1347276601739
executed,command,org.eclipse.debug.ui,3.7.101.v20110817_r371,"org.eclipse.debug.ui.commands.StepOver",1347276601942
activated,view,org.eclipse.debug.ui,3.7.101.v20110817_r371,"org.eclipse.debug.ui.DebugView",1347276617676
executed,command,org.eclipse.debug.ui,3.7.101.v20110817_r371,"org.eclipse.debug.ui.commands.Resume",1347276617739
deactivated,workbench,org.eclipse.ui.workbench,3.7.0.I20110519-0100,"",1347276619270
activated,workbench,org.eclipse.ui.workbench,3.7.0.I20110519-0100,"",1347276625833
activated,editor,org.eclipse.jdt.ui,3.7.1.r371_v20110824-0800,"org.eclipse.jdt.ui.CompilationUnitEditor",1347276627301
executed,command,,,"AUTOGEN:::org.eclipse.jdt.debug.CompilationUnitEditor.BreakpointRulerActions/org.eclipse.jdt.debug.ui.actions.ManageBreakpointRulerAction",1347276627473
activated,view,org.eclipse.debug.ui,3.7.101.v20110817_r371,"org.eclipse.debug.ui.DebugView",1347276628489
executed,command,org.eclipse.debug.ui,3.7.101.v20110817_r371,"org.eclipse.debug.ui.commands.Resume",1347276628520
deactivated,workbench,org.eclipse.ui.workbench,3.7.0.I20110519-0100,"",1347276629317
activated,workbench,org.eclipse.ui.workbench,3.7.0.I20110519-0100,"",1347276633114
deactivated,workbench,org.eclipse.ui.workbench,3.7.0.I20110519-0100,"",1347276636942
activated,workbench,org.eclipse.ui.workbench,3.7.0.I20110519-0100,"",1347276637879
deactivated,workbench,org.eclipse.ui.workbench,3.7.0.I20110519-0100,"",1347276639098
activated,workbench,org.eclipse.ui.workbench,3.7.0.I20110519-0100,"",1347276640270
deactivated,workbench,org.eclipse.ui.workbench,3.7.0.I20110519-0100,"",1347276642536
activated,workbench,org.eclipse.ui.workbench,3.7.0.I20110519-0100,"",1347276721051
activated,editor,org.eclipse.jdt.ui,3.7.1.r371_v20110824-0800,"org.eclipse.jdt.ui.CompilationUnitEditor",1347276721083
deactivated,workbench,org.eclipse.ui.workbench,3.7.0.I20110519-0100,"",1347276721786
activated,workbench,org.eclipse.ui.workbench,3.7.0.I20110519-0100,"",1347276733286
activated,view,org.eclipse.ui.console,3.5.100.v20110511,"org.eclipse.ui.console.ConsoleView",1347276733301
activated,editor,org.eclipse.jdt.ui,3.7.1.r371_v20110824-0800,"org.eclipse.jdt.ui.CompilationUnitEditor",1347276738754
activated,editor,org.eclipse.jdt.ui,3.7.1.r371_v20110824-0800,"org.eclipse.jdt.ui.CompilationUnitEditor",1347276740286
activated,view,org.eclipse.debug.ui,3.7.101.v20110817_r371,"org.eclipse.debug.ui.DebugView",1347276761176
executed,command,org.eclipse.debug.ui,3.7.101.v20110817_r371,"org.eclipse.debug.ui.commands.Terminate",1347276761254
deactivated,workbench,org.eclipse.ui.workbench,3.7.0.I20110519-0100,"",1347276762411
activated,workbench,org.eclipse.ui.workbench,3.7.0.I20110519-0100,"",1347276763317
deactivated,workbench,org.eclipse.ui.workbench,3.7.0.I20110519-0100,"",1347276765254
activated,workbench,org.eclipse.ui.workbench,3.7.0.I20110519-0100,"",1347276919254
deactivated,workbench,org.eclipse.ui.workbench,3.7.0.I20110519-0100,"",1347276920114
activated,workbench,org.eclipse.ui.workbench,3.7.0.I20110519-0100,"",1347276922395
deactivated,workbench,org.eclipse.ui.workbench,3.7.0.I20110519-0100,"",1347276922801
activated,workbench,org.eclipse.ui.workbench,3.7.0.I20110519-0100,"",1347276945192
activated,perspective,org.eclipse.jst.j2ee.ui,1.1.501.v201108231700,"org.eclipse.jst.j2ee.J2EEPerspective",1347276946864
activated,editor,org.eclipse.jdt.ui,3.7.1.r371_v20110824-0800,"org.eclipse.jdt.ui.CompilationUnitEditor",1347276946879
activated,editor,org.eclipse.jdt.ui,3.7.1.r371_v20110824-0800,"org.eclipse.jdt.ui.CompilationUnitEditor",1347276957473
closed,editor,org.eclipse.jdt.ui,3.7.1.r371_v20110824-0800,"org.eclipse.jdt.ui.CompilationUnitEditor",1347276957473
deactivated,workbench,org.eclipse.ui.workbench,3.7.0.I20110519-0100,"",1347276975083
activated,workbench,org.eclipse.ui.workbench,3.7.0.I20110519-0100,"",1347277146317
deactivated,workbench,org.eclipse.ui.workbench,3.7.0.I20110519-0100,"",1347277146739
activated,workbench,org.eclipse.ui.workbench,3.7.0.I20110519-0100,"",1347277239348
activated,editor,org.eclipse.jdt.ui,3.7.1.r371_v20110824-0800,"org.eclipse.jdt.ui.CompilationUnitEditor",1347277281754
activated,editor,org.eclipse.jdt.ui,3.7.1.r371_v20110824-0800,"org.eclipse.jdt.ui.CompilationUnitEditor",1347277282395
activated,editor,org.eclipse.jdt.ui,3.7.1.r371_v20110824-0800,"org.eclipse.jdt.ui.CompilationUnitEditor",1347277288364
activated,editor,org.eclipse.jdt.ui,3.7.1.r371_v20110824-0800,"org.eclipse.jdt.ui.CompilationUnitEditor",1347277289098
activated,editor,org.eclipse.jdt.ui,3.7.1.r371_v20110824-0800,"org.eclipse.jdt.ui.CompilationUnitEditor",1347277292223
closed,editor,org.eclipse.jdt.ui,3.7.1.r371_v20110824-0800,"org.eclipse.jdt.ui.CompilationUnitEditor",1347277292223
activated,view,org.eclipse.ui.navigator.resources,3.4.300.I20110421-1800,"org.eclipse.ui.navigator.ProjectExplorer",1347277296395
opened,editor,org.eclipse.jdt.ui,3.7.1.r371_v20110824-0800,"org.eclipse.jdt.ui.CompilationUnitEditor",1347277305301
activated,editor,org.eclipse.jdt.ui,3.7.1.r371_v20110824-0800,"org.eclipse.jdt.ui.CompilationUnitEditor",1347277305395
activated,view,org.eclipse.ui.navigator.resources,3.4.300.I20110421-1800,"org.eclipse.ui.navigator.ProjectExplorer",1347277308817
activated,editor,org.eclipse.jdt.ui,3.7.1.r371_v20110824-0800,"org.eclipse.jdt.ui.CompilationUnitEditor",1347277310536
activated,view,org.eclipse.ui.navigator.resources,3.4.300.I20110421-1800,"org.eclipse.ui.navigator.ProjectExplorer",1347277334176
opened,view,org.eclipse.team.ui,3.6.100.I20110525-0800,"org.eclipse.team.ui.GenericHistoryView",1347277345301
activated,view,org.eclipse.team.ui,3.6.100.I20110525-0800,"org.eclipse.team.ui.GenericHistoryView",1347277345333
executed,command,org.tigris.subversion.subclipse.ui,1.4.8,"org.tigris.subversion.subclipse.ui.showresourceinhistoryaction",1347277345833
activated,editor,org.eclipse.jdt.ui,3.7.1.r371_v20110824-0800,"org.eclipse.jdt.ui.CompilationUnitEditor",1347277374833
activated,view,org.eclipse.ui.navigator.resources,3.4.300.I20110421-1800,"org.eclipse.ui.navigator.ProjectExplorer",1347277395254
activated,view,org.eclipse.team.ui,3.6.100.I20110525-0800,"org.eclipse.team.ui.GenericHistoryView",1347277408161
deactivated,workbench,org.eclipse.ui.workbench,3.7.0.I20110519-0100,"",1347277410536
activated,editor,org.eclipse.jdt.ui,3.7.1.r371_v20110824-0800,"org.eclipse.jdt.ui.CompilationUnitEditor",1347277410551
activated,workbench,org.eclipse.ui.workbench,3.7.0.I20110519-0100,"",1347277410567
activated,view,org.eclipse.team.ui,3.6.100.I20110525-0800,"org.eclipse.team.ui.GenericHistoryView",1347277411395
opened,editor,org.eclipse.compare,3.5.201.R37x_v20110817-0800,"org.eclipse.compare.CompareEditor",1347277415676
activated,editor,org.eclipse.compare,3.5.201.R37x_v20110817-0800,"org.eclipse.compare.CompareEditor",1347277415708
deactivated,workbench,org.eclipse.ui.workbench,3.7.0.I20110519-0100,"",1347277416067
activated,workbench,org.eclipse.ui.workbench,3.7.0.I20110519-0100,"",1347277416504
activated,view,org.eclipse.team.ui,3.6.100.I20110525-0800,"org.eclipse.team.ui.GenericHistoryView",1347277437051
deactivated,workbench,org.eclipse.ui.workbench,3.7.0.I20110519-0100,"",1347277437333
opened,editor,org.eclipse.jdt.ui,3.7.1.r371_v20110824-0800,"org.eclipse.jdt.ui.CompilationUnitEditor",1347277437692
activated,editor,org.eclipse.jdt.ui,3.7.1.r371_v20110824-0800,"org.eclipse.jdt.ui.CompilationUnitEditor",1347277437754
activated,workbench,org.eclipse.ui.workbench,3.7.0.I20110519-0100,"",1347277437801
activated,view,org.eclipse.team.ui,3.6.100.I20110525-0800,"org.eclipse.team.ui.GenericHistoryView",1347277439473
activated,editor,org.eclipse.compare,3.5.201.R37x_v20110817-0800,"org.eclipse.compare.CompareEditor",1347277441129
deactivated,workbench,org.eclipse.ui.workbench,3.7.0.I20110519-0100,"",1347277441395
activated,workbench,org.eclipse.ui.workbench,3.7.0.I20110519-0100,"",1347277441598
activated,view,org.eclipse.ui.navigator.resources,3.4.300.I20110421-1800,"org.eclipse.ui.navigator.ProjectExplorer",1347277463317
executed,command,org.tigris.subversion.subclipse.ui,1.4.8,"org.tigris.subversion.subclipse.ui.update",1347277472833
deactivated,workbench,org.eclipse.ui.workbench,3.7.0.I20110519-0100,"",1347277473098
activated,workbench,org.eclipse.ui.workbench,3.7.0.I20110519-0100,"",1347277479458
deactivated,workbench,org.eclipse.ui.workbench,3.7.0.I20110519-0100,"",1347277492989
activated,workbench,org.eclipse.ui.workbench,3.7.0.I20110519-0100,"",1347277495442
executed,command,org.tigris.subversion.subclipse.ui,1.4.8,"org.tigris.subversion.subclipse.ui.revert",1347277495489
deactivated,workbench,org.eclipse.ui.workbench,3.7.0.I20110519-0100,"",1347277495739
activated,workbench,org.eclipse.ui.workbench,3.7.0.I20110519-0100,"",1347277496458
activated,view,org.eclipse.team.ui,3.6.100.I20110525-0800,"org.eclipse.team.ui.GenericHistoryView",1347277504395
activated,view,org.eclipse.ui.navigator.resources,3.4.300.I20110421-1800,"org.eclipse.ui.navigator.ProjectExplorer",1347277504395
closed,view,org.eclipse.team.ui,3.6.100.I20110525-0800,"org.eclipse.team.ui.GenericHistoryView",1347277504395
activated,editor,org.eclipse.compare,3.5.201.R37x_v20110817-0800,"org.eclipse.compare.CompareEditor",1347277505098
activated,editor,org.eclipse.jdt.ui,3.7.1.r371_v20110824-0800,"org.eclipse.jdt.ui.CompilationUnitEditor",1347277506020
closed,editor,org.eclipse.compare,3.5.201.R37x_v20110817-0800,"org.eclipse.compare.CompareEditor",1347277506020
activated,editor,org.eclipse.jdt.ui,3.7.1.r371_v20110824-0800,"org.eclipse.jdt.ui.CompilationUnitEditor",1347277507614
closed,editor,org.eclipse.jdt.ui,3.7.1.r371_v20110824-0800,"org.eclipse.jdt.ui.CompilationUnitEditor",1347277507614
activated,editor,org.eclipse.jdt.ui,3.7.1.r371_v20110824-0800,"org.eclipse.jdt.ui.CompilationUnitEditor",1347277508458
closed,editor,org.eclipse.jdt.ui,3.7.1.r371_v20110824-0800,"org.eclipse.jdt.ui.CompilationUnitEditor",1347277508458
closed,editor,org.eclipse.jdt.ui,3.7.1.r371_v20110824-0800,"org.eclipse.jdt.ui.CompilationUnitEditor",1347277509786
closed,editor,org.eclipse.jdt.ui,3.7.1.r371_v20110824-0800,"org.eclipse.jdt.ui.ClassFileEditor",1347277510739
activated,editor,org.eclipse.jdt.ui,3.7.1.r371_v20110824-0800,"org.eclipse.jdt.ui.CompilationUnitEditor",1347277511911
closed,editor,org.eclipse.jdt.ui,3.7.1.r371_v20110824-0800,"org.eclipse.jdt.ui.CompilationUnitEditor",1347277511911
deactivated,workbench,org.eclipse.ui.workbench,3.7.0.I20110519-0100,"",1347277514364
activated,workbench,org.eclipse.ui.workbench,3.7.0.I20110519-0100,"",1347277812786
activated,view,org.eclipse.ui.navigator.resources,3.4.300.I20110421-1800,"org.eclipse.ui.navigator.ProjectExplorer",1347277814536
deactivated,workbench,org.eclipse.ui.workbench,3.7.0.I20110519-0100,"",1347277817833
activated,workbench,org.eclipse.ui.workbench,3.7.0.I20110519-0100,"",1347277867973
executed,command,org.eclipse.ui,3.7.0.I20110602-0100,"org.eclipse.ui.file.export",1347277868004
executed,command,org.eclipse.ui,3.7.0.I20110602-0100,"org.eclipse.ui.file.export",1347277868004
deactivated,workbench,org.eclipse.ui.workbench,3.7.0.I20110519-0100,"",1347277869083
activated,workbench,org.eclipse.ui.workbench,3.7.0.I20110519-0100,"",1347277869395
activated,workbench,org.eclipse.ui.workbench,3.7.0.I20110519-0100,"",1347277869442
deactivated,workbench,org.eclipse.ui.workbench,3.7.0.I20110519-0100,"",1347277870020
activated,workbench,org.eclipse.ui.workbench,3.7.0.I20110519-0100,"",1347278067489
activated,editor,org.eclipse.jdt.ui,3.7.1.r371_v20110824-0800,"org.eclipse.jdt.ui.CompilationUnitEditor",1347278071379
activated,editor,org.eclipse.jdt.ui,3.7.1.r371_v20110824-0800,"org.eclipse.jdt.ui.CompilationUnitEditor",1347278076754
deactivated,workbench,org.eclipse.ui.workbench,3.7.0.I20110519-0100,"",1347278089270
activated,workbench,org.eclipse.ui.workbench,3.7.0.I20110519-0100,"",1347278097333
activated,editor,org.eclipse.jdt.ui,3.7.1.r371_v20110824-0800,"org.eclipse.jdt.ui.CompilationUnitEditor",1347278098286
activated,editor,org.eclipse.jdt.ui,3.7.1.r371_v20110824-0800,"org.eclipse.jdt.ui.CompilationUnitEditor",1347278144051
activated,view,org.eclipse.ui.navigator.resources,3.4.300.I20110421-1800,"org.eclipse.ui.navigator.ProjectExplorer",1347278700379
opened,editor,org.eclipse.jdt.ui,3.7.1.r371_v20110824-0800,"org.eclipse.jdt.ui.CompilationUnitEditor",1347278731333
activated,editor,org.eclipse.jdt.ui,3.7.1.r371_v20110824-0800,"org.eclipse.jdt.ui.CompilationUnitEditor",1347278731411
executed,command,org.eclipse.ui,3.7.0.I20110602-0100,"org.eclipse.ui.file.save",1347278770567
deactivated,workbench,org.eclipse.ui.workbench,3.7.0.I20110519-0100,"",1347278779286
activated,workbench,org.eclipse.ui.workbench,3.7.0.I20110519-0100,"",1347278795333
activated,editor,org.eclipse.jdt.ui,3.7.1.r371_v20110824-0800,"org.eclipse.jdt.ui.CompilationUnitEditor",1347278796958
activated,view,org.eclipse.ui.navigator.resources,3.4.300.I20110421-1800,"org.eclipse.ui.navigator.ProjectExplorer",1347278805223
activated,editor,org.eclipse.jdt.ui,3.7.1.r371_v20110824-0800,"org.eclipse.jdt.ui.CompilationUnitEditor",1347278807004
activated,view,org.eclipse.ui.navigator.resources,3.4.300.I20110421-1800,"org.eclipse.ui.navigator.ProjectExplorer",1347278815348
opened,editor,org.eclipse.jdt.ui,3.7.1.r371_v20110824-0800,"org.eclipse.jdt.ui.CompilationUnitEditor",1347278815598
activated,editor,org.eclipse.jdt.ui,3.7.1.r371_v20110824-0800,"org.eclipse.jdt.ui.CompilationUnitEditor",1347278815676
activated,view,org.eclipse.ui.navigator.resources,3.4.300.I20110421-1800,"org.eclipse.ui.navigator.ProjectExplorer",1347278819489
activated,editor,org.eclipse.jdt.ui,3.7.1.r371_v20110824-0800,"org.eclipse.jdt.ui.CompilationUnitEditor",1347278823442
activated,view,org.eclipse.ui.navigator.resources,3.4.300.I20110421-1800,"org.eclipse.ui.navigator.ProjectExplorer",1347278833254
opened,editor,org.eclipse.jdt.ui,3.7.1.r371_v20110824-0800,"org.eclipse.jdt.ui.CompilationUnitEditor",1347278833489
activated,editor,org.eclipse.jdt.ui,3.7.1.r371_v20110824-0800,"org.eclipse.jdt.ui.CompilationUnitEditor",1347278833583
error,log,,,"Internal Error",1347278845286
executed,command,org.eclipse.ui,3.7.0.I20110602-0100,"org.eclipse.ui.edit.text.contentAssist.proposals",1347278860739
executed,command,org.eclipse.ui,3.7.0.I20110602-0100,"org.eclipse.ui.edit.text.contentAssist.proposals",1347278863926
executed,command,org.eclipse.ui,3.7.0.I20110602-0100,"org.eclipse.ui.edit.text.contentAssist.proposals",1347278868161
executed,command,org.eclipse.ui,3.7.0.I20110602-0100,"org.eclipse.ui.edit.text.contentAssist.proposals",1347278877536
executed,command,org.eclipse.ui,3.7.0.I20110602-0100,"org.eclipse.ui.edit.text.contentAssist.proposals",1347278879473
executed,command,org.eclipse.ui.workbench.texteditor,3.7.0.v20110505-0800,"org.eclipse.ui.edit.text.goto.lineEnd",1347278882895
executed,command,org.eclipse.ui,3.7.0.I20110602-0100,"org.eclipse.ui.edit.text.contentAssist.proposals",1347278888879
activated,editor,org.eclipse.jdt.ui,3.7.1.r371_v20110824-0800,"org.eclipse.jdt.ui.CompilationUnitEditor",1347278906754
executed,command,org.eclipse.jdt.ui,3.7.1.r371_v20110824-0800,"org.eclipse.jdt.ui.edit.text.java.open.editor",1347278906786
executed,command,org.eclipse.jdt.ui,3.7.1.r371_v20110824-0800,"org.eclipse.jdt.ui.edit.text.java.rename.element",1347278911661
started,bundle,org.eclipse.wst.jsdt.manipulation,1.0.300.v201104272153,"org.eclipse.wst.jsdt.manipulation",1347278919036
started,bundle,org.eclipse.wst.jsdt.ui,1.1.101.v201108151912,"org.eclipse.wst.jsdt.ui",1347278919254
started,bundle,org.eclipse.jst.jsp.ui,1.1.601.v201108151912,"org.eclipse.jst.jsp.ui",1347278921723
started,bundle,org.eclipse.wst.sse.core,1.1.601.v201108151912,"org.eclipse.wst.sse.core",1347278921926
started,bundle,org.eclipse.jst.jsp.core,1.2.401.v201108302147,"org.eclipse.jst.jsp.core",1347278921958
started,bundle,org.eclipse.wb.core.xml,1.2.0.r37x201112291009,"org.eclipse.wb.core.xml",1347278922067
started,bundle,org.eclipse.wb.xwt,1.2.0.r37x201109270457,"org.eclipse.wb.xwt",1347278922879
activated,editor,org.eclipse.jdt.ui,3.7.1.r371_v20110824-0800,"org.eclipse.jdt.ui.CompilationUnitEditor",1347278928098
activated,view,org.eclipse.ui.navigator.resources,3.4.300.I20110421-1800,"org.eclipse.ui.navigator.ProjectExplorer",1347278932020
activated,editor,org.eclipse.jdt.ui,3.7.1.r371_v20110824-0800,"org.eclipse.jdt.ui.CompilationUnitEditor",1347278932333
activated,view,org.eclipse.ui.navigator.resources,3.4.300.I20110421-1800,"org.eclipse.ui.navigator.ProjectExplorer",1347278951614
activated,editor,org.eclipse.jdt.ui,3.7.1.r371_v20110824-0800,"org.eclipse.jdt.ui.CompilationUnitEditor",1347278954317
deactivated,workbench,org.eclipse.ui.workbench,3.7.0.I20110519-0100,"",1347278958786
executed,command,org.eclipse.ui,3.7.0.I20110602-0100,"org.eclipse.ui.edit.findReplace",1347278958801
activated,workbench,org.eclipse.ui.workbench,3.7.0.I20110519-0100,"",1347278964129
executed,command,org.eclipse.ui,3.7.0.I20110602-0100,"org.eclipse.ui.edit.delete",1347278978364
executed,command,org.eclipse.ui,3.7.0.I20110602-0100,"org.eclipse.ui.edit.delete",1347278978536
executed,command,org.eclipse.ui,3.7.0.I20110602-0100,"org.eclipse.ui.edit.delete",1347278978708
executed,command,org.eclipse.ui,3.7.0.I20110602-0100,"org.eclipse.ui.edit.delete",1347278978864
executed,command,org.eclipse.ui,3.7.0.I20110602-0100,"org.eclipse.ui.edit.delete",1347278979036
executed,command,org.eclipse.ui,3.7.0.I20110602-0100,"org.eclipse.ui.edit.delete",1347278979192
executed,command,org.eclipse.ui,3.7.0.I20110602-0100,"org.eclipse.ui.edit.delete",1347278979348
executed,command,org.eclipse.ui,3.7.0.I20110602-0100,"org.eclipse.ui.edit.delete",1347278979520
executed,command,org.eclipse.ui,3.7.0.I20110602-0100,"org.eclipse.ui.edit.delete",1347278979708
executed,command,org.eclipse.ui.workbench.texteditor,3.7.0.v20110505-0800,"org.eclipse.ui.edit.text.select.lineEnd",1347278982473
executed,command,org.eclipse.ui,3.7.0.I20110602-0100,"org.eclipse.ui.edit.text.contentAssist.proposals",1347278996333
executed,command,org.eclipse.ui,3.7.0.I20110602-0100,"org.eclipse.ui.file.save",1347279006379
activated,editor,org.eclipse.jdt.ui,3.7.1.r371_v20110824-0800,"org.eclipse.jdt.ui.CompilationUnitEditor",1347279018442
executed,command,org.eclipse.ui,3.7.0.I20110602-0100,"org.eclipse.ui.edit.text.contentAssist.proposals",1347279044958
executed,command,org.eclipse.ui,3.7.0.I20110602-0100,"org.eclipse.ui.edit.undo",1347279062895
executed,command,org.eclipse.ui,3.7.0.I20110602-0100,"org.eclipse.ui.edit.undo",1347279063379
executed,command,org.eclipse.ui,3.7.0.I20110602-0100,"org.eclipse.ui.edit.undo",1347279064364
executed,command,org.eclipse.ui,3.7.0.I20110602-0100,"org.eclipse.ui.edit.undo",1347279064833
executed,command,org.eclipse.ui,3.7.0.I20110602-0100,"org.eclipse.ui.edit.undo",1347279065254
executed,command,org.eclipse.ui,3.7.0.I20110602-0100,"org.eclipse.ui.edit.text.contentAssist.proposals",1347279071958
executed,command,org.eclipse.ui,3.7.0.I20110602-0100,"org.eclipse.ui.edit.delete",1347279073317
executed,command,org.eclipse.ui,3.7.0.I20110602-0100,"org.eclipse.ui.edit.delete",1347279073458
executed,command,org.eclipse.ui,3.7.0.I20110602-0100,"org.eclipse.ui.file.save",1347279076989
activated,view,org.eclipse.ui.navigator.resources,3.4.300.I20110421-1800,"org.eclipse.ui.navigator.ProjectExplorer",1347279078176
activated,editor,org.eclipse.jdt.ui,3.7.1.r371_v20110824-0800,"org.eclipse.jdt.ui.CompilationUnitEditor",1347279078614
activated,view,org.eclipse.ui.navigator.resources,3.4.300.I20110421-1800,"org.eclipse.ui.navigator.ProjectExplorer",1347279080676
activated,editor,org.eclipse.jdt.ui,3.7.1.r371_v20110824-0800,"org.eclipse.jdt.ui.CompilationUnitEditor",1347279080879
executed,command,org.eclipse.ui,3.7.0.I20110602-0100,"org.eclipse.ui.edit.text.contentAssist.proposals",1347279087239
executed,command,org.eclipse.ui,3.7.0.I20110602-0100,"org.eclipse.ui.edit.delete",1347279088442
executed,command,org.eclipse.ui,3.7.0.I20110602-0100,"org.eclipse.ui.edit.delete",1347279088598
executed,command,org.eclipse.ui,3.7.0.I20110602-0100,"org.eclipse.ui.file.save",1347279091286
executed,command,org.eclipse.ui,3.7.0.I20110602-0100,"org.eclipse.ui.file.saveAll",1347279095879
deactivated,workbench,org.eclipse.ui.workbench,3.7.0.I20110519-0100,"",1347279099551
activated,workbench,org.eclipse.ui.workbench,3.7.0.I20110519-0100,"",1347279188161
activated,view,org.eclipse.ui.views,3.6.0.I20110412-0800,"org.eclipse.ui.views.ContentOutline",1347279188176
deactivated,workbench,org.eclipse.ui.workbench,3.7.0.I20110519-0100,"",1347279189426
activated,workbench,org.eclipse.ui.workbench,3.7.0.I20110519-0100,"",1347279264723
activated,view,org.eclipse.ui.navigator.resources,3.4.300.I20110421-1800,"org.eclipse.ui.navigator.ProjectExplorer",1347279264723
deactivated,workbench,org.eclipse.ui.workbench,3.7.0.I20110519-0100,"",1347279266739
activated,workbench,org.eclipse.ui.workbench,3.7.0.I20110519-0100,"",1347279282926
executed,command,org.eclipse.ui,3.7.0.I20110602-0100,"org.eclipse.ui.file.export",1347279282942
executed,command,org.eclipse.ui,3.7.0.I20110602-0100,"org.eclipse.ui.file.export",1347279282942
deactivated,workbench,org.eclipse.ui.workbench,3.7.0.I20110519-0100,"",1347279284833
activated,workbench,org.eclipse.ui.workbench,3.7.0.I20110519-0100,"",1347279321051
deactivated,workbench,org.eclipse.ui.workbench,3.7.0.I20110519-0100,"",1347279367739
activated,workbench,org.eclipse.ui.workbench,3.7.0.I20110519-0100,"",1347279371864
deactivated,workbench,org.eclipse.ui.workbench,3.7.0.I20110519-0100,"",1347279375504
activated,workbench,org.eclipse.ui.workbench,3.7.0.I20110519-0100,"",1347279375504
deactivated,workbench,org.eclipse.ui.workbench,3.7.0.I20110519-0100,"",1347279375598
activated,workbench,org.eclipse.ui.workbench,3.7.0.I20110519-0100,"",1347279376270
deactivated,workbench,org.eclipse.ui.workbench,3.7.0.I20110519-0100,"",1347279377083
activated,workbench,org.eclipse.ui.workbench,3.7.0.I20110519-0100,"",1347279377083
deactivated,workbench,org.eclipse.ui.workbench,3.7.0.I20110519-0100,"",1347279379411
activated,workbench,org.eclipse.ui.workbench,3.7.0.I20110519-0100,"",1347279407333
deactivated,workbench,org.eclipse.ui.workbench,3.7.0.I20110519-0100,"",1347279412411
activated,workbench,org.eclipse.ui.workbench,3.7.0.I20110519-0100,"",1347279413754
executed,command,org.tigris.subversion.subclipse.ui,1.4.8,"org.tigris.subversion.subclipse.ui.commit",1347279413786
deactivated,workbench,org.eclipse.ui.workbench,3.7.0.I20110519-0100,"",1347279414036
activated,workbench,org.eclipse.ui.workbench,3.7.0.I20110519-0100,"",1347279422364
deactivated,workbench,org.eclipse.ui.workbench,3.7.0.I20110519-0100,"",1347279429973
activated,workbench,org.eclipse.ui.workbench,3.7.0.I20110519-0100,"",1347279434036
executed,command,org.tigris.subversion.subclipse.ui,1.4.8,"org.tigris.subversion.subclipse.ui.commit",1347279434051
deactivated,workbench,org.eclipse.ui.workbench,3.7.0.I20110519-0100,"",1347279434301
activated,workbench,org.eclipse.ui.workbench,3.7.0.I20110519-0100,"",1347279441379
