what,kind,bundleId,bundleVersion,description,time
executed,command,org.eclipse.ui,3.7.0.I20110602-0100,"org.eclipse.ui.edit.text.contentAssist.proposals",1358497186412
executed,command,org.eclipse.ui,3.7.0.I20110602-0100,"org.eclipse.ui.edit.text.contentAssist.proposals",1358497189037
executed,command,org.eclipse.ui,3.7.0.I20110602-0100,"org.eclipse.ui.edit.delete",1358497204271
executed,command,org.eclipse.ui,3.7.0.I20110602-0100,"org.eclipse.ui.edit.text.contentAssist.proposals",1358497205708
started,bundle,com.google.gdt.eclipse.designer.gpe,2.5.0.r37x201201030222,"com.google.gdt.eclipse.designer.gpe",1358497210802
started,bundle,org.eclipse.wst.server.core,1.1.303.v20110816_1717,"org.eclipse.wst.server.core",1358497211239
started,bundle,org.eclipse.wst.server.ui,1.1.306.v20110823_1704,"org.eclipse.wst.server.ui",1358497211255
deactivated,workbench,org.eclipse.ui.workbench,3.7.0.I20110519-0100,"",1358497211489
started,bundle,com.google.gdt.eclipse.suite,2.5.1.v201201120043-rel-r37,"com.google.gdt.eclipse.suite",1358497211676
started,bundle,org.eclipse.wst.jsdt.debug.rhino.ui,1.0.0.v201103232243,"org.eclipse.wst.jsdt.debug.rhino.ui",1358497211755
started,bundle,org.eclipse.wst.jsdt.core,1.1.101.v201108151912,"org.eclipse.wst.jsdt.core",1358497212114
activated,workbench,org.eclipse.ui.workbench,3.7.0.I20110519-0100,"",1358497212223
deactivated,workbench,org.eclipse.ui.workbench,3.7.0.I20110519-0100,"",1358497214973
activated,workbench,org.eclipse.ui.workbench,3.7.0.I20110519-0100,"",1358497230456
opened,view,org.eclipse.ui.console,3.5.100.v20110511,"org.eclipse.ui.console.ConsoleView",1358497230675
activated,view,org.eclipse.ui.navigator.resources,3.4.300.I20110421-1800,"org.eclipse.ui.navigator.ProjectExplorer",1358497231768
started,bundle,org.eclipse.mylyn.resources.ui,3.6.0.v20110608-1400,"org.eclipse.mylyn.resources.ui",1358497235799
deactivated,workbench,org.eclipse.ui.workbench,3.7.0.I20110519-0100,"",1358497284623
activated,workbench,org.eclipse.ui.workbench,3.7.0.I20110519-0100,"",1358497342430
activated,editor,org.eclipse.jdt.ui,3.7.1.r371_v20110824-0800,"org.eclipse.jdt.ui.CompilationUnitEditor",1358497342446
deactivated,workbench,org.eclipse.ui.workbench,3.7.0.I20110519-0100,"",1358497344305
activated,workbench,org.eclipse.ui.workbench,3.7.0.I20110519-0100,"",1358497373412
deactivated,workbench,org.eclipse.ui.workbench,3.7.0.I20110519-0100,"",1358497389551
activated,workbench,org.eclipse.ui.workbench,3.7.0.I20110519-0100,"",1358497389551
deactivated,workbench,org.eclipse.ui.workbench,3.7.0.I20110519-0100,"",1358497389676
activated,workbench,org.eclipse.ui.workbench,3.7.0.I20110519-0100,"",1358497391176
deactivated,workbench,org.eclipse.ui.workbench,3.7.0.I20110519-0100,"",1358497391660
activated,workbench,org.eclipse.ui.workbench,3.7.0.I20110519-0100,"",1358497400691
activated,view,org.eclipse.ui.navigator.resources,3.4.300.I20110421-1800,"org.eclipse.ui.navigator.ProjectExplorer",1358497436031
opened,editor,org.eclipse.jdt.ui,3.7.1.r371_v20110824-0800,"org.eclipse.jdt.ui.CompilationUnitEditor",1358497437437
activated,editor,org.eclipse.jdt.ui,3.7.1.r371_v20110824-0800,"org.eclipse.jdt.ui.CompilationUnitEditor",1358497437500
activated,editor,org.eclipse.jdt.ui,3.7.1.r371_v20110824-0800,"org.eclipse.jdt.ui.CompilationUnitEditor",1358497445359
closed,editor,org.eclipse.jdt.ui,3.7.1.r371_v20110824-0800,"org.eclipse.jdt.ui.CompilationUnitEditor",1358497445374
activated,view,org.eclipse.ui.navigator.resources,3.4.300.I20110421-1800,"org.eclipse.ui.navigator.ProjectExplorer",1358497446874
activated,editor,org.eclipse.jdt.ui,3.7.1.r371_v20110824-0800,"org.eclipse.jdt.ui.CompilationUnitEditor",1358497448983
executed,command,org.eclipse.ui.workbench.texteditor,3.7.0.v20110505-0800,"org.eclipse.ui.edit.text.select.lineStart",1358497467372
executed,command,org.eclipse.ui,3.7.0.I20110602-0100,"org.eclipse.ui.edit.copy",1358497468716
executed,command,org.eclipse.ui,3.7.0.I20110602-0100,"org.eclipse.ui.edit.paste",1358497470403
deactivated,workbench,org.eclipse.ui.workbench,3.7.0.I20110519-0100,"",1358497473059
activated,workbench,org.eclipse.ui.workbench,3.7.0.I20110519-0100,"",1358497474075
deactivated,workbench,org.eclipse.ui.workbench,3.7.0.I20110519-0100,"",1358497476918
activated,workbench,org.eclipse.ui.workbench,3.7.0.I20110519-0100,"",1358497486777
deactivated,workbench,org.eclipse.ui.workbench,3.7.0.I20110519-0100,"",1358497492089
activated,workbench,org.eclipse.ui.workbench,3.7.0.I20110519-0100,"",1358497493026
deactivated,workbench,org.eclipse.ui.workbench,3.7.0.I20110519-0100,"",1358497494885
activated,workbench,org.eclipse.ui.workbench,3.7.0.I20110519-0100,"",1358497520742
executed,command,org.eclipse.ui.workbench.texteditor,3.7.0.v20110505-0800,"org.eclipse.ui.edit.text.select.lineEnd",1358497540287
deactivated,workbench,org.eclipse.ui.workbench,3.7.0.I20110519-0100,"",1358497543974
activated,workbench,org.eclipse.ui.workbench,3.7.0.I20110519-0100,"",1358497544786
deactivated,workbench,org.eclipse.ui.workbench,3.7.0.I20110519-0100,"",1358497547442
activated,workbench,org.eclipse.ui.workbench,3.7.0.I20110519-0100,"",1358497561597
deactivated,workbench,org.eclipse.ui.workbench,3.7.0.I20110519-0100,"",1358497564690
activated,workbench,org.eclipse.ui.workbench,3.7.0.I20110519-0100,"",1358497564690
deactivated,workbench,org.eclipse.ui.workbench,3.7.0.I20110519-0100,"",1358497564815
activated,workbench,org.eclipse.ui.workbench,3.7.0.I20110519-0100,"",1358497579282
activated,view,org.eclipse.ui.navigator.resources,3.4.300.I20110421-1800,"org.eclipse.ui.navigator.ProjectExplorer",1358497585282
opened,editor,org.eclipse.jdt.ui,3.7.1.r371_v20110824-0800,"org.eclipse.jdt.ui.CompilationUnitEditor",1358497585532
activated,editor,org.eclipse.jdt.ui,3.7.1.r371_v20110824-0800,"org.eclipse.jdt.ui.CompilationUnitEditor",1358497585578
activated,view,org.eclipse.ui.navigator.resources,3.4.300.I20110421-1800,"org.eclipse.ui.navigator.ProjectExplorer",1358497589125
opened,editor,org.eclipse.jdt.ui,3.7.1.r371_v20110824-0800,"org.eclipse.jdt.ui.CompilationUnitEditor",1358497600764
activated,editor,org.eclipse.jdt.ui,3.7.1.r371_v20110824-0800,"org.eclipse.jdt.ui.CompilationUnitEditor",1358497600811
activated,view,org.eclipse.ui.navigator.resources,3.4.300.I20110421-1800,"org.eclipse.ui.navigator.ProjectExplorer",1358497605420
opened,editor,org.eclipse.jdt.ui,3.7.1.r371_v20110824-0800,"org.eclipse.jdt.ui.CompilationUnitEditor",1358497605795
activated,editor,org.eclipse.jdt.ui,3.7.1.r371_v20110824-0800,"org.eclipse.jdt.ui.CompilationUnitEditor",1358497605826
executed,command,org.eclipse.ui.editors,3.7.0.v20110517-0800,"org.eclipse.ui.edit.text.folding.collapse_all",1358497616903
started,bundle,com.google.gdt.eclipse.designer.wizards,2.4.2.r37x201110181249,"com.google.gdt.eclipse.designer.wizards",1358497638744
executed,command,org.eclipse.jdt.ui,3.7.1.r371_v20110824-0800,"org.eclipse.jdt.ui.edit.text.java.open.editor",1358497640369
opened,view,org.eclipse.jdt.ui,3.7.1.r371_v20110824-0800,"org.eclipse.jdt.callhierarchy.view",1358497659233
activated,view,org.eclipse.jdt.ui,3.7.1.r371_v20110824-0800,"org.eclipse.jdt.callhierarchy.view",1358497659265
executed,command,org.eclipse.jdt.ui,3.7.1.r371_v20110824-0800,"org.eclipse.jdt.ui.edit.text.java.open.call.hierarchy",1358497659327
activated,editor,org.eclipse.jdt.ui,3.7.1.r371_v20110824-0800,"org.eclipse.jdt.ui.CompilationUnitEditor",1358497661938
deactivated,workbench,org.eclipse.ui.workbench,3.7.0.I20110519-0100,"",1358497683308
activated,workbench,org.eclipse.ui.workbench,3.7.0.I20110519-0100,"",1358497766851
executed,command,org.eclipse.ui.workbench.texteditor,3.7.0.v20110505-0800,"org.eclipse.ui.edit.text.select.lineStart",1358497795084
executed,command,org.eclipse.ui.workbench.texteditor,3.7.0.v20110505-0800,"org.eclipse.ui.edit.text.select.lineStart",1358497795522
activated,editor,org.eclipse.jdt.ui,3.7.1.r371_v20110824-0800,"org.eclipse.jdt.ui.CompilationUnitEditor",1358497806762
executed,command,org.eclipse.ui,3.7.0.I20110602-0100,"org.eclipse.ui.edit.text.contentAssist.proposals",1358497831024
deactivated,workbench,org.eclipse.ui.workbench,3.7.0.I20110519-0100,"",1358497844750
activated,workbench,org.eclipse.ui.workbench,3.7.0.I20110519-0100,"",1358497845579
deactivated,workbench,org.eclipse.ui.workbench,3.7.0.I20110519-0100,"",1358497847814
activated,workbench,org.eclipse.ui.workbench,3.7.0.I20110519-0100,"",1358497887194
executed,command,org.eclipse.jdt.ui,3.7.1.r371_v20110824-0800,"org.eclipse.jdt.ui.edit.text.java.open.editor",1358497930935
executed,command,org.eclipse.ui,3.7.0.I20110602-0100,"org.eclipse.ui.edit.copy",1358497940283
executed,command,org.eclipse.ui,3.7.0.I20110602-0100,"org.eclipse.ui.edit.paste",1358497943347
executed,command,org.eclipse.ui.workbench.texteditor,3.7.0.v20110505-0800,"org.eclipse.ui.edit.text.select.lineEnd",1358497948647
executed,command,org.eclipse.ui,3.7.0.I20110602-0100,"org.eclipse.ui.edit.delete",1358497950538
executed,command,org.eclipse.ui.workbench.texteditor,3.7.0.v20110505-0800,"org.eclipse.ui.edit.text.goto.lineEnd",1358497993060
executed,command,org.eclipse.ui.workbench.texteditor,3.7.0.v20110505-0800,"org.eclipse.ui.edit.text.select.lineStart",1358497993356
executed,command,org.eclipse.ui,3.7.0.I20110602-0100,"org.eclipse.ui.edit.delete",1358497993669
deactivated,workbench,org.eclipse.ui.workbench,3.7.0.I20110519-0100,"",1358498016110
activated,workbench,org.eclipse.ui.workbench,3.7.0.I20110519-0100,"",1358498051974
executed,command,org.eclipse.ui.workbench.texteditor,3.7.0.v20110505-0800,"org.eclipse.ui.edit.text.goto.lineEnd",1358498066945
executed,command,org.eclipse.ui.workbench.texteditor,3.7.0.v20110505-0800,"org.eclipse.ui.edit.text.goto.lineEnd",1358498067883
executed,command,org.eclipse.ui,3.7.0.I20110602-0100,"org.eclipse.ui.edit.delete",1358498069211
executed,command,org.eclipse.ui,3.7.0.I20110602-0100,"org.eclipse.ui.edit.delete",1358498070774
executed,command,org.eclipse.ui,3.7.0.I20110602-0100,"org.eclipse.ui.edit.delete",1358498071134
executed,command,org.eclipse.ui,3.7.0.I20110602-0100,"org.eclipse.ui.edit.delete",1358498071477
executed,command,org.eclipse.ui,3.7.0.I20110602-0100,"org.eclipse.ui.edit.delete",1358498071805
executed,command,org.eclipse.ui.workbench.texteditor,3.7.0.v20110505-0800,"org.eclipse.ui.edit.text.goto.lineEnd",1358498072446
executed,command,org.eclipse.ui,3.7.0.I20110602-0100,"org.eclipse.ui.edit.text.contentAssist.proposals",1358498079385
executed,command,org.eclipse.ui.workbench.texteditor,3.7.0.v20110505-0800,"org.eclipse.ui.edit.text.goto.lineEnd",1358498085167
executed,command,org.eclipse.ui,3.7.0.I20110602-0100,"org.eclipse.ui.file.saveAll",1358498089167
deactivated,workbench,org.eclipse.ui.workbench,3.7.0.I20110519-0100,"",1358498108827
activated,workbench,org.eclipse.ui.workbench,3.7.0.I20110519-0100,"",1358498109827
deactivated,workbench,org.eclipse.ui.workbench,3.7.0.I20110519-0100,"",1358498111999
activated,workbench,org.eclipse.ui.workbench,3.7.0.I20110519-0100,"",1358498139378
activated,view,org.eclipse.ui.navigator.resources,3.4.300.I20110421-1800,"org.eclipse.ui.navigator.ProjectExplorer",1358498141785
started,bundle,org.eclipse.wst.ws.service.policy.ui,1.0.300.v201108240515,"org.eclipse.wst.ws.service.policy.ui",1358498142175
started,bundle,org.eclipse.wst.ws.service.policy,1.0.303.v201009221810,"org.eclipse.wst.ws.service.policy",1358498142175
started,bundle,org.eclipse.wst.command.env,1.0.409.v201004211805,"org.eclipse.wst.command.env",1358498142222
started,bundle,org.eclipse.wst.ws,1.1.203.v201004211805,"org.eclipse.wst.ws",1358498142222
deactivated,workbench,org.eclipse.ui.workbench,3.7.0.I20110519-0100,"",1358498144144
activated,workbench,org.eclipse.ui.workbench,3.7.0.I20110519-0100,"",1358498170726
executed,command,org.eclipse.ui,3.7.0.I20110602-0100,"org.eclipse.ui.file.export",1358498170758
executed,command,org.eclipse.ui,3.7.0.I20110602-0100,"org.eclipse.ui.file.export",1358498170758
activated,editor,org.eclipse.jdt.ui,3.7.1.r371_v20110824-0800,"org.eclipse.jdt.ui.CompilationUnitEditor",1358498172648
deactivated,workbench,org.eclipse.ui.workbench,3.7.0.I20110519-0100,"",1358498180493
activated,workbench,org.eclipse.ui.workbench,3.7.0.I20110519-0100,"",1358498401645
deactivated,workbench,org.eclipse.ui.workbench,3.7.0.I20110519-0100,"",1358498405473
activated,workbench,org.eclipse.ui.workbench,3.7.0.I20110519-0100,"",1358498475739
deactivated,workbench,org.eclipse.ui.workbench,3.7.0.I20110519-0100,"",1358498479474
activated,workbench,org.eclipse.ui.workbench,3.7.0.I20110519-0100,"",1358498782245
executed,command,org.eclipse.ui,3.7.0.I20110602-0100,"org.eclipse.ui.edit.text.contentAssist.proposals",1358498837860
activated,view,org.eclipse.ui.navigator.resources,3.4.300.I20110421-1800,"org.eclipse.ui.navigator.ProjectExplorer",1358498850314
activated,editor,org.eclipse.jdt.ui,3.7.1.r371_v20110824-0800,"org.eclipse.jdt.ui.CompilationUnitEditor",1358498850518
deactivated,workbench,org.eclipse.ui.workbench,3.7.0.I20110519-0100,"",1358498895256
activated,workbench,org.eclipse.ui.workbench,3.7.0.I20110519-0100,"",1358499644407
executed,command,org.eclipse.ui,3.7.0.I20110602-0100,"org.eclipse.ui.file.saveAll",1358499814759
opened,editor,org.eclipse.jdt.ui,3.7.1.r371_v20110824-0800,"org.eclipse.jdt.ui.CompilationUnitEditor",1358499816649
activated,editor,org.eclipse.jdt.ui,3.7.1.r371_v20110824-0800,"org.eclipse.jdt.ui.CompilationUnitEditor",1358499816681
deactivated,workbench,org.eclipse.ui.workbench,3.7.0.I20110519-0100,"",1358499819259
deactivated,workbench,org.eclipse.ui.workbench,3.7.0.I20110519-0100,"",1358499821165
deactivated,workbench,org.eclipse.ui.workbench,3.7.0.I20110519-0100,"",1358499956081
activated,workbench,org.eclipse.ui.workbench,3.7.0.I20110519-0100,"",1358500104113
activated,view,org.eclipse.ui.navigator.resources,3.4.300.I20110421-1800,"org.eclipse.ui.navigator.ProjectExplorer",1358500109019
activated,editor,org.eclipse.jdt.ui,3.7.1.r371_v20110824-0800,"org.eclipse.jdt.ui.CompilationUnitEditor",1358500116332
activated,view,org.eclipse.ui.navigator.resources,3.4.300.I20110421-1800,"org.eclipse.ui.navigator.ProjectExplorer",1358500117598
deactivated,workbench,org.eclipse.ui.workbench,3.7.0.I20110519-0100,"",1358500121941
activated,workbench,org.eclipse.ui.workbench,3.7.0.I20110519-0100,"",1358500124973
executed,command,org.tigris.subversion.subclipse.ui,1.4.8,"org.tigris.subversion.subclipse.ui.commit",1358500125004
deactivated,workbench,org.eclipse.ui.workbench,3.7.0.I20110519-0100,"",1358500125285
activated,workbench,org.eclipse.ui.workbench,3.7.0.I20110519-0100,"",1358500135347
deactivated,workbench,org.eclipse.ui.workbench,3.7.0.I20110519-0100,"",1358500170253
activated,workbench,org.eclipse.ui.workbench,3.7.0.I20110519-0100,"",1358500170253
deactivated,workbench,org.eclipse.ui.workbench,3.7.0.I20110519-0100,"",1358500170347
activated,workbench,org.eclipse.ui.workbench,3.7.0.I20110519-0100,"",1358500230347
deactivated,workbench,org.eclipse.ui.workbench,3.7.0.I20110519-0100,"",1358500309627
activated,workbench,org.eclipse.ui.workbench,3.7.0.I20110519-0100,"",1358500522917
deactivated,workbench,org.eclipse.ui.workbench,3.7.0.I20110519-0100,"",1358500525182
activated,workbench,org.eclipse.ui.workbench,3.7.0.I20110519-0100,"",1358500532588
activated,editor,org.eclipse.jdt.ui,3.7.1.r371_v20110824-0800,"org.eclipse.jdt.ui.CompilationUnitEditor",1358500532604
deactivated,workbench,org.eclipse.ui.workbench,3.7.0.I20110519-0100,"",1358500536182
activated,workbench,org.eclipse.ui.workbench,3.7.0.I20110519-0100,"",1358500536182
deactivated,workbench,org.eclipse.ui.workbench,3.7.0.I20110519-0100,"",1358500536291
activated,workbench,org.eclipse.ui.workbench,3.7.0.I20110519-0100,"",1358502710848
deactivated,workbench,org.eclipse.ui.workbench,3.7.0.I20110519-0100,"",1358502710879
activated,workbench,org.eclipse.ui.workbench,3.7.0.I20110519-0100,"",1358502713098
closed,workbench,org.eclipse.ui.workbench,3.7.0.I20110519-0100,"",1358502713395
stopped,bundle,org.eclipse.jst.ws.axis.creation.ui,1.0.700.v201104070312,"org.eclipse.jst.ws.axis.creation.ui",1358502718394
stopped,bundle,org.eclipse.jst.ws.axis.consumption.ui,1.0.505.v201004211805,"org.eclipse.jst.ws.axis.consumption.ui",1358502718394
stopped,bundle,org.eclipse.jst.ws.axis.consumption.core,1.0.407.v201104071820,"org.eclipse.jst.ws.axis.consumption.core",1358502718394
stopped,bundle,org.eclipse.jst.ws.axis2.creation.ui,1.0.104.v201004211805,"org.eclipse.jst.ws.axis2.creation.ui",1358502718394
stopped,bundle,org.eclipse.jst.ws.axis2.consumption.ui,1.0.103.v201004211805,"org.eclipse.jst.ws.axis2.consumption.ui",1358502718394
stopped,bundle,org.eclipse.jst.ws.axis2.creation.core,1.0.106.v201004211805,"org.eclipse.jst.ws.axis2.creation.core",1358502718394
stopped,bundle,org.eclipse.jst.ws.axis2.consumption.core,1.0.105.v201004211805,"org.eclipse.jst.ws.axis2.consumption.core",1358502718394
stopped,bundle,org.eclipse.jst.ws.axis2.ui,1.0.303.v201003110431,"org.eclipse.jst.ws.axis2.ui",1358502718394
stopped,bundle,org.eclipse.jst.ws.axis2.core,1.0.204.v201004211805,"org.eclipse.jst.ws.axis2.core",1358502718394
stopped,bundle,org.eclipse.jst.ws.cxf.creation.ui,1.0.100.v201104022153,"org.eclipse.jst.ws.cxf.creation.ui",1358502718394
stopped,bundle,org.eclipse.jst.ws.creation.ui,1.0.609.v201103082016,"org.eclipse.jst.ws.creation.ui",1358502718394
stopped,bundle,org.eclipse.jst.ws.cxf.consumption.ui,1.0.0.v201003222311,"org.eclipse.jst.ws.cxf.consumption.ui",1358502718394
stopped,bundle,org.eclipse.jst.ws.consumption.ui,1.1.401.v201108240414,"org.eclipse.jst.ws.consumption.ui",1358502718394
stopped,bundle,org.eclipse.jst.ws.consumption,1.0.601.v201108230319,"org.eclipse.jst.ws.consumption",1358502718394
stopped,bundle,org.eclipse.jst.ws.cxf.consumption.core,1.0.0.v201003222311,"org.eclipse.jst.ws.cxf.consumption.core",1358502718394
stopped,bundle,org.eclipse.jst.ws.cxf.creation.core,1.0.100.v201104022153,"org.eclipse.jst.ws.cxf.creation.core",1358502718394
stopped,bundle,org.eclipse.jst.ws.cxf.ui,1.0.0.v201004171919,"org.eclipse.jst.ws.cxf.ui",1358502718394
stopped,bundle,org.eclipse.jst.ws.cxf.core,1.0.100.v201104022153,"org.eclipse.jst.ws.cxf.core",1358502718394
stopped,bundle,org.eclipse.jst.ws.uddiregistry,1.0.500.v201004211805,"org.eclipse.jst.ws.uddiregistry",1358502718394
stopped,bundle,org.eclipse.jst.ws.ui,1.0.403.v201004211805,"org.eclipse.jst.ws.ui",1358502718394
stopped,bundle,org.eclipse.jst.ws,1.0.509.v201108250610,"org.eclipse.jst.ws",1358502718394
stopped,bundle,org.eclipse.wst.ws.explorer,1.0.607.v201103082002,"org.eclipse.wst.ws.explorer",1358502718394
stopped,bundle,org.eclipse.wst.wsdl.ui,1.2.403.v201108240515,"org.eclipse.wst.wsdl.ui",1358502718394
stopped,bundle,org.eclipse.wst.ws.ui,1.1.200.v201004211805,"org.eclipse.wst.ws.ui",1358502718394
stopped,bundle,org.eclipse.wst.wsi.ui,1.0.502.v201104071820,"org.eclipse.wst.wsi.ui",1358502718394
stopped,bundle,org.eclipse.wst.wsi,1.0.401.v201104071820,"org.eclipse.wst.wsi",1358502718394
stopped,bundle,org.eclipse.wst.ws,1.1.203.v201004211805,"org.eclipse.wst.ws",1358502718394
stopped,bundle,org.eclipse.jst.j2ee.webservice.ui,1.1.500.v201105122000,"org.eclipse.jst.j2ee.webservice.ui",1358502718394
stopped,bundle,org.eclipse.jst.j2ee.webservice,1.1.400.v201004110600,"org.eclipse.jst.j2ee.webservice",1358502718394
stopped,bundle,org.eclipse.wst.ws.parser,1.0.403.v201004211805,"org.eclipse.wst.ws.parser",1358502718394
stopped,bundle,org.eclipse.jpt.dbws.eclipselink.ui,1.0.0.v201104110000,"org.eclipse.jpt.dbws.eclipselink.ui",1358502718394
stopped,bundle,org.eclipse.datatools.enablement.hsqldb.ui,1.0.0.v201108120600,"org.eclipse.datatools.enablement.hsqldb.ui",1358502718394
stopped,bundle,org.eclipse.datatools.enablement.ingres.ui,1.0.0.v201105270214,"org.eclipse.datatools.enablement.ingres.ui",1358502718394
stopped,bundle,org.eclipse.datatools.enablement.postgresql.ui,1.0.0.v200906020900,"org.eclipse.datatools.enablement.postgresql.ui",1358502718394
stopped,bundle,org.eclipse.datatools.enablement.sqlite.ui,1.0.0.v200906020900,"org.eclipse.datatools.enablement.sqlite.ui",1358502718394
stopped,bundle,org.eclipse.jpt.jpa.eclipselink.ui,2.0.1.v201108080010,"org.eclipse.jpt.jpa.eclipselink.ui",1358502718394
stopped,bundle,org.eclipse.jpt.jpa.ui,3.0.1.v201108080010,"org.eclipse.jpt.jpa.ui",1358502718394
stopped,bundle,org.eclipse.datatools.connectivity.db.generic.ui,1.0.1.v201004070709,"org.eclipse.datatools.connectivity.db.generic.ui",1358502718394
stopped,bundle,org.eclipse.datatools.connectivity.apache.derby.ui,1.0.3.v201007080903,"org.eclipse.datatools.connectivity.apache.derby.ui",1358502718394
stopped,bundle,org.eclipse.datatools.enablement.sybase.asa.schemaobjecteditor.examples,2.5.0.200810071,"org.eclipse.datatools.enablement.sybase.asa.schemaobjecteditor.examples",1358502718394
stopped,bundle,org.eclipse.datatools.enablement.sybase.asa.ui,1.0.1.v200906111150,"org.eclipse.datatools.enablement.sybase.asa.ui",1358502718394
stopped,bundle,org.eclipse.datatools.enablement.sybase.ase.ui,1.0.1.v200906020900,"org.eclipse.datatools.enablement.sybase.ase.ui",1358502718394
stopped,bundle,org.eclipse.datatools.enablement.sybase.ui,1.0.0.v200906090458,"org.eclipse.datatools.enablement.sybase.ui",1358502718394
stopped,bundle,org.eclipse.datatools.sqltools.data.ui,1.2.1.v201010270945,"org.eclipse.datatools.sqltools.data.ui",1358502718394
stopped,bundle,org.eclipse.datatools.connectivity.sqm.server.ui,1.1.100.v201009280455,"org.eclipse.datatools.connectivity.sqm.server.ui",1358502718394
stopped,bundle,org.eclipse.datatools.sqltools.ddlgen.ui,1.0.1.v201002270530,"org.eclipse.datatools.sqltools.ddlgen.ui",1358502718394
stopped,bundle,org.eclipse.datatools.sqltools.db.derby.ui,1.0.0.v200906020900,"org.eclipse.datatools.sqltools.db.derby.ui",1358502718394
stopped,bundle,org.eclipse.datatools.sqltools.db.generic.ui,1.0.0.v200906020900,"org.eclipse.datatools.sqltools.db.generic.ui",1358502718394
stopped,bundle,org.eclipse.datatools.sqltools.debugger.core.ui,1.0.0.v201003161000,"org.eclipse.datatools.sqltools.debugger.core.ui",1358502718394
stopped,bundle,org.eclipse.datatools.sqltools.routineeditor.ui,1.0.1.v201004060545,"org.eclipse.datatools.sqltools.routineeditor.ui",1358502718394
stopped,bundle,org.eclipse.datatools.sqltools.sqlbuilder,1.0.3.v201009131745,"org.eclipse.datatools.sqltools.sqlbuilder",1358502718394
stopped,bundle,org.eclipse.datatools.sqltools.debugger.core,1.0.1.v201005250945,"org.eclipse.datatools.sqltools.debugger.core",1358502718394
stopped,bundle,org.eclipse.datatools.sqltools.schemaobjecteditor.ui.pages,1.1.0.200810071,"org.eclipse.datatools.sqltools.schemaobjecteditor.ui.pages",1358502718394
stopped,bundle,org.eclipse.datatools.sqltools.schemaobjecteditor.ui,1.1.1.200810071,"org.eclipse.datatools.sqltools.schemaobjecteditor.ui",1358502718394
stopped,bundle,org.eclipse.datatools.sqltools.sqlscrapbook,1.0.1.v201005250945,"org.eclipse.datatools.sqltools.sqlscrapbook",1358502718394
stopped,bundle,org.eclipse.datatools.sqltools.sqleditor,1.0.2.v201009230800,"org.eclipse.datatools.sqltools.sqleditor",1358502718394
stopped,bundle,org.eclipse.datatools.sqltools.editor.core.ui,1.0.0.v201001150815,"org.eclipse.datatools.sqltools.editor.core.ui",1358502718394
stopped,bundle,org.eclipse.datatools.sqltools.tabledataeditor,1.0.1.v201005250945,"org.eclipse.datatools.sqltools.tabledataeditor",1358502718394
stopped,bundle,org.eclipse.datatools.connectivity.sqm.core.ui,1.2.0.v201002281800,"org.eclipse.datatools.connectivity.sqm.core.ui",1358502718394
stopped,bundle,org.eclipse.jst.j2ee.ejb.annotations.ui,1.1.200.v201004290730,"org.eclipse.jst.j2ee.ejb.annotations.ui",1358502718394
stopped,bundle,org.eclipse.datatools.connectivity.ui.dse,1.1.4.v201004270430,"org.eclipse.datatools.connectivity.ui.dse",1358502718394
stopped,bundle,org.eclipse.jst.j2ee.xdoclet.runtime,1.1.300.v201004280700,"org.eclipse.jst.j2ee.xdoclet.runtime",1358502718394
stopped,bundle,org.eclipse.jst.j2ee.ejb.annotations.xdoclet,1.2.200.v201103302125,"org.eclipse.jst.j2ee.ejb.annotations.xdoclet",1358502718394
stopped,bundle,org.eclipse.jst.jsf.apache.trinidad.tagsupport,1.1.200.v201104061711,"org.eclipse.jst.jsf.apache.trinidad.tagsupport",1358502718394
stopped,bundle,org.eclipse.jst.jsf.facesconfig.ui,1.2.2.v201103292152,"org.eclipse.jst.jsf.facesconfig.ui",1358502718394
stopped,bundle,org.eclipse.jst.jsf.facelet.ui,1.0.1.v201104032306,"org.eclipse.jst.jsf.facelet.ui",1358502718394
stopped,bundle,org.eclipse.jst.jsf.ui,1.3.2.v201104251204,"org.eclipse.jst.jsf.ui",1358502718394
stopped,bundle,org.eclipse.jst.pagedesigner.jsf.ui,1.2.100.v201104061711,"org.eclipse.jst.pagedesigner.jsf.ui",1358502718394
stopped,bundle,org.eclipse.jst.pagedesigner,1.3.103.v201109010833,"org.eclipse.jst.pagedesigner",1358502718394
stopped,bundle,org.eclipse.jst.jsf.common.ui,1.2.100.v201104061711,"org.eclipse.jst.jsf.common.ui",1358502718394
stopped,bundle,org.eclipse.pde.ua.ui,1.0.100.v20110516,"org.eclipse.pde.ua.ui",1358502718394
stopped,bundle,org.eclipse.datatools.connectivity.oda.template.ui,3.2.2.v201108260345,"org.eclipse.datatools.connectivity.oda.template.ui",1358502718394
stopped,bundle,org.eclipse.pde.api.tools.ui,1.0.301.v20110803_r371,"org.eclipse.pde.api.tools.ui",1358502718394
stopped,bundle,org.eclipse.pde.ds.ui,1.0.100.v20110516,"org.eclipse.pde.ds.ui",1358502718394
stopped,bundle,org.eclipse.pde.runtime,3.4.201.v20110819-0851,"org.eclipse.pde.runtime",1358502718394
stopped,bundle,org.eclipse.pde.ui.templates,3.4.400.v20110516,"org.eclipse.pde.ui.templates",1358502718394
stopped,bundle,org.eclipse.wb.rcp.GroupLayout,1.2.0.r37x201109270449,"org.eclipse.wb.rcp.GroupLayout",1358502718394
stopped,bundle,org.eclipse.wb.rcp.SWT_AWT,1.2.0.r37x201109270453,"org.eclipse.wb.rcp.SWT_AWT",1358502718394
stopped,bundle,org.eclipse.wb.rcp.databinding.emf,1.2.0.r37x201109270442,"org.eclipse.wb.rcp.databinding.emf",1358502718394
stopped,bundle,org.eclipse.wb.rcp.databinding.xwt,1.2.0.r37x201109270457,"org.eclipse.wb.rcp.databinding.xwt",1358502718394
stopped,bundle,org.eclipse.wb.rcp.databinding,1.2.0.r37x201109270442,"org.eclipse.wb.rcp.databinding",1358502718394
stopped,bundle,org.eclipse.wb.rcp.nebula,1.2.0.r37x201109270442,"org.eclipse.wb.rcp.nebula",1358502718394
stopped,bundle,org.eclipse.wb.rcp.swing2swt,1.2.0.r37x201109270442,"org.eclipse.wb.rcp.swing2swt",1358502718394
stopped,bundle,org.eclipse.wb.xwt,1.2.0.r37x201109270457,"org.eclipse.wb.xwt",1358502718394
stopped,bundle,org.eclipse.wb.rcp,1.2.0.r37x201109270442,"org.eclipse.wb.rcp",1358502718394
stopped,bundle,org.eclipse.pde.ui,3.6.100.v20110603,"org.eclipse.pde.ui",1358502718410
stopped,bundle,org.eclipse.ui.cheatsheets,3.4.100.v20110425,"org.eclipse.ui.cheatsheets",1358502718410
stopped,bundle,org.eclipse.help.ui,3.5.101.r37_20110819,"org.eclipse.help.ui",1358502718410
stopped,bundle,org.eclipse.help.webapp,3.6.0.v20110518,"org.eclipse.help.webapp",1358502718410
stopped,bundle,org.eclipse.epp.mpc.ui,1.1.1.I20110907-0947,"org.eclipse.epp.mpc.ui",1358502718410
stopped,bundle,org.eclipse.epp.usagedata.ui,1.3.1.R201106061540,"org.eclipse.epp.usagedata.ui",1358502718410
stopped,bundle,org.eclipse.ui.intro.universal,3.2.500.v20110510,"org.eclipse.ui.intro.universal",1358502718410
