what,kind,bundleId,bundleVersion,description,time
executed,command,org.eclipse.debug.ui,3.7.101.v20110817_r371,"org.eclipse.debug.ui.commands.StepOver",1346699468817
executed,command,org.eclipse.debug.ui,3.7.101.v20110817_r371,"org.eclipse.debug.ui.commands.StepOver",1346699469754
executed,command,org.eclipse.debug.ui,3.7.101.v20110817_r371,"org.eclipse.debug.ui.commands.StepOver",1346699470395
executed,command,org.eclipse.debug.ui,3.7.101.v20110817_r371,"org.eclipse.debug.ui.commands.StepReturn",1346699471613
opened,editor,org.eclipse.jdt.ui,3.7.1.r371_v20110824-0800,"org.eclipse.jdt.ui.CompilationUnitEditor",1346699471692
executed,command,org.eclipse.debug.ui,3.7.101.v20110817_r371,"org.eclipse.debug.ui.commands.StepOver",1346699479644
activated,editor,org.eclipse.jdt.ui,3.7.1.r371_v20110824-0800,"org.eclipse.jdt.ui.CompilationUnitEditor",1346699487691
activated,editor,org.eclipse.jdt.ui,3.7.1.r371_v20110824-0800,"org.eclipse.jdt.ui.CompilationUnitEditor",1346699489894
executed,command,org.eclipse.jdt.ui,3.7.1.r371_v20110824-0800,"org.eclipse.jdt.ui.edit.text.java.open.editor",1346699489894
deactivated,workbench,org.eclipse.ui.workbench,3.7.0.I20110519-0100,"",1346699581687
executed,command,org.eclipse.ui,3.7.0.I20110602-0100,"org.eclipse.ui.edit.findReplace",1346699581702
activated,workbench,org.eclipse.ui.workbench,3.7.0.I20110519-0100,"",1346699591983
deactivated,workbench,org.eclipse.ui.workbench,3.7.0.I20110519-0100,"",1346699600748
activated,workbench,org.eclipse.ui.workbench,3.7.0.I20110519-0100,"",1346879864252
deactivated,workbench,org.eclipse.ui.workbench,3.7.0.I20110519-0100,"",1346879873668
activated,workbench,org.eclipse.ui.workbench,3.7.0.I20110519-0100,"",1346879873777
activated,view,org.eclipse.debug.ui,3.7.101.v20110817_r371,"org.eclipse.debug.ui.DebugView",1346879875541
executed,command,org.eclipse.debug.ui,3.7.101.v20110817_r371,"org.eclipse.debug.ui.commands.Terminate",1346879875619
deactivated,workbench,org.eclipse.ui.workbench,3.7.0.I20110519-0100,"",1346879942577
activated,workbench,org.eclipse.ui.workbench,3.7.0.I20110519-0100,"",1346922066733
activated,editor,org.eclipse.jdt.ui,3.7.1.r371_v20110824-0800,"org.eclipse.jdt.ui.CompilationUnitEditor",1346922067763
deactivated,workbench,org.eclipse.ui.workbench,3.7.0.I20110519-0100,"",1346922077149
activated,workbench,org.eclipse.ui.workbench,3.7.0.I20110519-0100,"",1346922077149
deactivated,workbench,org.eclipse.ui.workbench,3.7.0.I20110519-0100,"",1346922077259
activated,workbench,org.eclipse.ui.workbench,3.7.0.I20110519-0100,"",1346922120814
deactivated,workbench,org.eclipse.ui.workbench,3.7.0.I20110519-0100,"",1346922149456
activated,workbench,org.eclipse.ui.workbench,3.7.0.I20110519-0100,"",1346922149456
deactivated,workbench,org.eclipse.ui.workbench,3.7.0.I20110519-0100,"",1346922149550
activated,workbench,org.eclipse.ui.workbench,3.7.0.I20110519-0100,"",1346922186765
deactivated,workbench,org.eclipse.ui.workbench,3.7.0.I20110519-0100,"",1346922201039
activated,workbench,org.eclipse.ui.workbench,3.7.0.I20110519-0100,"",1346922205615
activated,view,org.eclipse.debug.ui,3.7.101.v20110817_r371,"org.eclipse.debug.ui.DebugView",1346922207442
executed,command,org.eclipse.debug.ui,3.7.101.v20110817_r371,"org.eclipse.debug.ui.commands.Resume",1346922207817
deactivated,workbench,org.eclipse.ui.workbench,3.7.0.I20110519-0100,"",1346922211159
activated,workbench,org.eclipse.ui.workbench,3.7.0.I20110519-0100,"",1346922239472
deactivated,workbench,org.eclipse.ui.workbench,3.7.0.I20110519-0100,"",1346922240503
activated,workbench,org.eclipse.ui.workbench,3.7.0.I20110519-0100,"",1346922251607
activated,editor,org.eclipse.jdt.ui,3.7.1.r371_v20110824-0800,"org.eclipse.jdt.ui.CompilationUnitEditor",1346922251622
deactivated,workbench,org.eclipse.ui.workbench,3.7.0.I20110519-0100,"",1346922253215
activated,workbench,org.eclipse.ui.workbench,3.7.0.I20110519-0100,"",1346922305298
deactivated,workbench,org.eclipse.ui.workbench,3.7.0.I20110519-0100,"",1346922306188
activated,workbench,org.eclipse.ui.workbench,3.7.0.I20110519-0100,"",1346922308640
deactivated,workbench,org.eclipse.ui.workbench,3.7.0.I20110519-0100,"",1346922310217
activated,workbench,org.eclipse.ui.workbench,3.7.0.I20110519-0100,"",1346922353586
activated,view,org.eclipse.debug.ui,3.7.101.v20110817_r371,"org.eclipse.debug.ui.VariableView",1346922353601
activated,editor,org.eclipse.jdt.ui,3.7.1.r371_v20110824-0800,"org.eclipse.jdt.ui.CompilationUnitEditor",1346922380588
activated,editor,org.eclipse.jdt.ui,3.7.1.r371_v20110824-0800,"org.eclipse.jdt.ui.CompilationUnitEditor",1346922383102
executed,command,org.eclipse.jdt.ui,3.7.1.r371_v20110824-0800,"org.eclipse.jdt.ui.edit.text.java.open.editor",1346922383133
deactivated,workbench,org.eclipse.ui.workbench,3.7.0.I20110519-0100,"",1346922393721
activated,workbench,org.eclipse.ui.workbench,3.7.0.I20110519-0100,"",1346922426205
started,bundle,org.eclipse.pde.launching,3.6.0.v20110506,"org.eclipse.pde.launching",1346922462233
started,bundle,org.eclipse.ui.views.log,1.0.200.v20110404,"org.eclipse.ui.views.log",1346922462249
started,bundle,org.eclipse.pde.ui,3.6.100.v20110603,"org.eclipse.pde.ui",1346922462264
started,bundle,org.eclipse.jpt.jaxb.ui,1.1.1.v201108080010,"org.eclipse.jpt.jaxb.ui",1346922485987
started,bundle,org.eclipse.jpt.jpa.ui,3.0.1.v201108080010,"org.eclipse.jpt.jpa.ui",1346922486065
started,bundle,org.eclipse.jpt.common.core,1.0.1.v201108080010,"org.eclipse.jpt.common.core",1346922486096
started,bundle,org.eclipse.jpt.jpa.core,3.0.1.v201109073010,"org.eclipse.jpt.jpa.core",1346922486112
started,bundle,org.eclipse.jst.ws.jaxws.ui,1.0.100.v201104032053,"org.eclipse.jst.ws.jaxws.ui",1346922486158
started,bundle,org.eclipse.mylyn.java.ui,3.6.0.v20110608-1400,"org.eclipse.mylyn.java.ui",1346922486221
started,bundle,org.eclipse.pde.api.tools,1.0.301.v20110728_r371,"org.eclipse.pde.api.tools",1346922486377
started,bundle,org.eclipse.pde.api.tools.ui,1.0.301.v20110803_r371,"org.eclipse.pde.api.tools.ui",1346922486377
started,bundle,org.eclipse.jpt.jaxb.core,1.0.1.v201108080010,"org.eclipse.jpt.jaxb.core",1346922487611
executed,command,org.eclipse.ui,3.7.0.I20110602-0100,"org.eclipse.ui.edit.text.contentAssist.proposals",1346922487814
executed,command,org.eclipse.ui,3.7.0.I20110602-0100,"org.eclipse.ui.edit.text.contentAssist.proposals",1346922489110
deactivated,workbench,org.eclipse.ui.workbench,3.7.0.I20110519-0100,"",1346922513129
activated,workbench,org.eclipse.ui.workbench,3.7.0.I20110519-0100,"",1346922554467
deactivated,workbench,org.eclipse.ui.workbench,3.7.0.I20110519-0100,"",1346922560745
activated,workbench,org.eclipse.ui.workbench,3.7.0.I20110519-0100,"",1346922576909
deactivated,workbench,org.eclipse.ui.workbench,3.7.0.I20110519-0100,"",1346922589153
activated,workbench,org.eclipse.ui.workbench,3.7.0.I20110519-0100,"",1346922589793
deactivated,workbench,org.eclipse.ui.workbench,3.7.0.I20110519-0100,"",1346922591542
activated,workbench,org.eclipse.ui.workbench,3.7.0.I20110519-0100,"",1346922591776
executed,command,org.eclipse.ui.workbench.texteditor,3.7.0.v20110505-0800,"org.eclipse.ui.edit.text.goto.lineEnd",1346922593806
executed,command,,,"AUTOGEN:::org.eclipse.jdt.debug.CompilationUnitEditor.BreakpointRulerActions/org.eclipse.jdt.debug.ui.actions.ManageBreakpointRulerAction",1346922597133
deactivated,workbench,org.eclipse.ui.workbench,3.7.0.I20110519-0100,"",1346922605816
activated,workbench,org.eclipse.ui.workbench,3.7.0.I20110519-0100,"",1346922606972
deactivated,workbench,org.eclipse.ui.workbench,3.7.0.I20110519-0100,"",1346922608908
activated,workbench,org.eclipse.ui.workbench,3.7.0.I20110519-0100,"",1346922653994
deactivated,workbench,org.eclipse.ui.workbench,3.7.0.I20110519-0100,"",1346922672782
activated,workbench,org.eclipse.ui.workbench,3.7.0.I20110519-0100,"",1346922685244
deactivated,workbench,org.eclipse.ui.workbench,3.7.0.I20110519-0100,"",1346922690460
activated,workbench,org.eclipse.ui.workbench,3.7.0.I20110519-0100,"",1346922691444
activated,editor,org.eclipse.jdt.ui,3.7.1.r371_v20110824-0800,"org.eclipse.jdt.ui.CompilationUnitEditor",1346922691678
activated,view,org.eclipse.debug.ui,3.7.101.v20110817_r371,"org.eclipse.debug.ui.DebugView",1346922694661
executed,command,org.eclipse.debug.ui,3.7.101.v20110817_r371,"org.eclipse.debug.ui.commands.Resume",1346922694755
deactivated,workbench,org.eclipse.ui.workbench,3.7.0.I20110519-0100,"",1346922695301
activated,workbench,org.eclipse.ui.workbench,3.7.0.I20110519-0100,"",1346922697144
activated,editor,org.eclipse.jdt.ui,3.7.1.r371_v20110824-0800,"org.eclipse.jdt.ui.CompilationUnitEditor",1346922703016
executed,command,org.eclipse.ui,3.7.0.I20110602-0100,"org.eclipse.ui.edit.text.contentAssist.proposals",1346922707326
deactivated,workbench,org.eclipse.ui.workbench,3.7.0.I20110519-0100,"",1346922712855
activated,workbench,org.eclipse.ui.workbench,3.7.0.I20110519-0100,"",1346922713105
executed,command,org.eclipse.ui,3.7.0.I20110602-0100,"org.eclipse.ui.edit.text.contentAssist.proposals",1346922715713
executed,command,org.eclipse.ui.workbench.texteditor,3.7.0.v20110505-0800,"org.eclipse.ui.edit.text.goto.lineEnd",1346922718118
deactivated,workbench,org.eclipse.ui.workbench,3.7.0.I20110519-0100,"",1346922725426
executed,command,org.eclipse.ui,3.7.0.I20110602-0100,"org.eclipse.ui.edit.findReplace",1346922725442
activated,workbench,org.eclipse.ui.workbench,3.7.0.I20110519-0100,"",1346922732439
executed,command,org.eclipse.ui,3.7.0.I20110602-0100,"org.eclipse.ui.edit.copy",1346922733563
deactivated,workbench,org.eclipse.ui.workbench,3.7.0.I20110519-0100,"",1346922735312
activated,workbench,org.eclipse.ui.workbench,3.7.0.I20110519-0100,"",1346922735406
executed,command,org.eclipse.ui,3.7.0.I20110602-0100,"org.eclipse.ui.edit.paste",1346922740013
deactivated,workbench,org.eclipse.ui.workbench,3.7.0.I20110519-0100,"",1346922744370
activated,workbench,org.eclipse.ui.workbench,3.7.0.I20110519-0100,"",1346922745432
deactivated,workbench,org.eclipse.ui.workbench,3.7.0.I20110519-0100,"",1346922747259
activated,workbench,org.eclipse.ui.workbench,3.7.0.I20110519-0100,"",1346922754349
deactivated,workbench,org.eclipse.ui.workbench,3.7.0.I20110519-0100,"",1346922756036
activated,workbench,org.eclipse.ui.workbench,3.7.0.I20110519-0100,"",1346922763907
deactivated,workbench,org.eclipse.ui.workbench,3.7.0.I20110519-0100,"",1346922772465
activated,workbench,org.eclipse.ui.workbench,3.7.0.I20110519-0100,"",1346922781726
deactivated,workbench,org.eclipse.ui.workbench,3.7.0.I20110519-0100,"",1346922783912
activated,workbench,org.eclipse.ui.workbench,3.7.0.I20110519-0100,"",1346922795172
deactivated,workbench,org.eclipse.ui.workbench,3.7.0.I20110519-0100,"",1346922797764
activated,workbench,org.eclipse.ui.workbench,3.7.0.I20110519-0100,"",1346922869368
deactivated,workbench,org.eclipse.ui.workbench,3.7.0.I20110519-0100,"",1346922873882
activated,workbench,org.eclipse.ui.workbench,3.7.0.I20110519-0100,"",1346922882174
deactivated,workbench,org.eclipse.ui.workbench,3.7.0.I20110519-0100,"",1346922888796
activated,workbench,org.eclipse.ui.workbench,3.7.0.I20110519-0100,"",1346923033242
deactivated,workbench,org.eclipse.ui.workbench,3.7.0.I20110519-0100,"",1346923088627
activated,workbench,org.eclipse.ui.workbench,3.7.0.I20110519-0100,"",1346923089530
deactivated,workbench,org.eclipse.ui.workbench,3.7.0.I20110519-0100,"",1346923114900
activated,workbench,org.eclipse.ui.workbench,3.7.0.I20110519-0100,"",1346923163450
deactivated,workbench,org.eclipse.ui.workbench,3.7.0.I20110519-0100,"",1346923166605
executed,command,org.eclipse.ui,3.7.0.I20110602-0100,"org.eclipse.ui.edit.findReplace",1346923166621
activated,workbench,org.eclipse.ui.workbench,3.7.0.I20110519-0100,"",1346923175627
executed,command,org.eclipse.ui,3.7.0.I20110602-0100,"org.eclipse.ui.edit.text.contentAssist.proposals",1346923184031
executed,command,org.eclipse.ui.workbench.texteditor,3.7.0.v20110505-0800,"org.eclipse.ui.edit.text.goto.lineEnd",1346923194845
deactivated,workbench,org.eclipse.ui.workbench,3.7.0.I20110519-0100,"",1346923209416
activated,workbench,org.eclipse.ui.workbench,3.7.0.I20110519-0100,"",1346923210764
deactivated,workbench,org.eclipse.ui.workbench,3.7.0.I20110519-0100,"",1346923212682
activated,workbench,org.eclipse.ui.workbench,3.7.0.I20110519-0100,"",1346923224257
deactivated,workbench,org.eclipse.ui.workbench,3.7.0.I20110519-0100,"",1346923230365
activated,workbench,org.eclipse.ui.workbench,3.7.0.I20110519-0100,"",1346923235798
executed,command,org.eclipse.ui.workbench.texteditor,3.7.0.v20110505-0800,"org.eclipse.ui.edit.text.select.lineStart",1346923240211
executed,command,org.eclipse.ui.workbench.texteditor,3.7.0.v20110505-0800,"org.eclipse.ui.edit.text.goto.lineStart",1346923241436
deactivated,workbench,org.eclipse.ui.workbench,3.7.0.I20110519-0100,"",1346923244734
activated,workbench,org.eclipse.ui.workbench,3.7.0.I20110519-0100,"",1346923245535
deactivated,workbench,org.eclipse.ui.workbench,3.7.0.I20110519-0100,"",1346923247356
activated,workbench,org.eclipse.ui.workbench,3.7.0.I20110519-0100,"",1346923253292
executed,command,org.eclipse.ui,3.7.0.I20110602-0100,"org.eclipse.ui.edit.delete",1346923262023
activated,editor,org.eclipse.jdt.ui,3.7.1.r371_v20110824-0800,"org.eclipse.jdt.ui.CompilationUnitEditor",1346923265337
executed,command,org.eclipse.jdt.ui,3.7.1.r371_v20110824-0800,"org.eclipse.jdt.ui.edit.text.java.open.editor",1346923265352
executed,command,org.eclipse.ui,3.7.0.I20110602-0100,"org.eclipse.ui.edit.text.contentAssist.proposals",1346923272827
executed,command,org.eclipse.ui,3.7.0.I20110602-0100,"org.eclipse.ui.edit.undo",1346923277146
executed,command,org.eclipse.ui,3.7.0.I20110602-0100,"org.eclipse.ui.edit.undo",1346923277523
executed,command,org.eclipse.ui,3.7.0.I20110602-0100,"org.eclipse.ui.edit.undo",1346923277931
executed,command,org.eclipse.jdt.ui,3.7.1.r371_v20110824-0800,"org.eclipse.jdt.ui.edit.text.java.open.editor",1346923304266
opened,view,org.eclipse.jdt.ui,3.7.1.r371_v20110824-0800,"org.eclipse.jdt.callhierarchy.view",1346923306715
activated,view,org.eclipse.jdt.ui,3.7.1.r371_v20110824-0800,"org.eclipse.jdt.callhierarchy.view",1346923306731
executed,command,org.eclipse.jdt.ui,3.7.1.r371_v20110824-0800,"org.eclipse.jdt.ui.edit.text.java.open.call.hierarchy",1346923306810
activated,editor,org.eclipse.jdt.ui,3.7.1.r371_v20110824-0800,"org.eclipse.jdt.ui.CompilationUnitEditor",1346923309526
deactivated,workbench,org.eclipse.ui.workbench,3.7.0.I20110519-0100,"",1346923410453
activated,workbench,org.eclipse.ui.workbench,3.7.0.I20110519-0100,"",1346923413955
activated,editor,org.eclipse.jdt.ui,3.7.1.r371_v20110824-0800,"org.eclipse.jdt.ui.CompilationUnitEditor",1346923414080
executed,command,,,"AUTOGEN:::org.eclipse.jdt.debug.CompilationUnitEditor.BreakpointRulerActions/org.eclipse.jdt.debug.ui.actions.ManageBreakpointRulerAction",1346923416954
activated,view,org.eclipse.debug.ui,3.7.101.v20110817_r371,"org.eclipse.debug.ui.DebugView",1346923418053
executed,command,org.eclipse.debug.ui,3.7.101.v20110817_r371,"org.eclipse.debug.ui.commands.Resume",1346923418100
activated,editor,org.eclipse.jdt.ui,3.7.1.r371_v20110824-0800,"org.eclipse.jdt.ui.CompilationUnitEditor",1346923419969
executed,command,,,"AUTOGEN:::org.eclipse.jdt.debug.CompilationUnitEditor.BreakpointRulerActions/org.eclipse.jdt.debug.ui.actions.ManageBreakpointRulerAction",1346923420095
activated,view,org.eclipse.debug.ui,3.7.101.v20110817_r371,"org.eclipse.debug.ui.DebugView",1346923421147
executed,command,org.eclipse.debug.ui,3.7.101.v20110817_r371,"org.eclipse.debug.ui.commands.Resume",1346923421194
deactivated,workbench,org.eclipse.ui.workbench,3.7.0.I20110519-0100,"",1346923422058
activated,workbench,org.eclipse.ui.workbench,3.7.0.I20110519-0100,"",1346923820972
deactivated,workbench,org.eclipse.ui.workbench,3.7.0.I20110519-0100,"",1346923823037
deactivated,workbench,org.eclipse.ui.workbench,3.7.0.I20110519-0100,"",1346923830250
activated,workbench,org.eclipse.ui.workbench,3.7.0.I20110519-0100,"",1346923830829
deactivated,workbench,org.eclipse.ui.workbench,3.7.0.I20110519-0100,"",1346923834329
activated,workbench,org.eclipse.ui.workbench,3.7.0.I20110519-0100,"",1346923834439
deactivated,workbench,org.eclipse.ui.workbench,3.7.0.I20110519-0100,"",1346923835236
activated,workbench,org.eclipse.ui.workbench,3.7.0.I20110519-0100,"",1346924619943
deactivated,workbench,org.eclipse.ui.workbench,3.7.0.I20110519-0100,"",1346924639873
activated,workbench,org.eclipse.ui.workbench,3.7.0.I20110519-0100,"",1346924639873
deactivated,workbench,org.eclipse.ui.workbench,3.7.0.I20110519-0100,"",1346924639951
activated,workbench,org.eclipse.ui.workbench,3.7.0.I20110519-0100,"",1346924642231
activated,editor,org.eclipse.jdt.ui,3.7.1.r371_v20110824-0800,"org.eclipse.jdt.ui.CompilationUnitEditor",1346924669424
deactivated,workbench,org.eclipse.ui.workbench,3.7.0.I20110519-0100,"",1346924677172
activated,workbench,org.eclipse.ui.workbench,3.7.0.I20110519-0100,"",1346924680389
deactivated,workbench,org.eclipse.ui.workbench,3.7.0.I20110519-0100,"",1346924680764
activated,workbench,org.eclipse.ui.workbench,3.7.0.I20110519-0100,"",1346924680764
deactivated,workbench,org.eclipse.ui.workbench,3.7.0.I20110519-0100,"",1346924680858
activated,workbench,org.eclipse.ui.workbench,3.7.0.I20110519-0100,"",1346924681904
deactivated,workbench,org.eclipse.ui.workbench,3.7.0.I20110519-0100,"",1346924864219
activated,workbench,org.eclipse.ui.workbench,3.7.0.I20110519-0100,"",1346924868280
activated,view,org.eclipse.jdt.ui,3.7.1.r371_v20110824-0800,"org.eclipse.jdt.callhierarchy.view",1346924868280
deactivated,workbench,org.eclipse.ui.workbench,3.7.0.I20110519-0100,"",1346924869280
activated,workbench,org.eclipse.ui.workbench,3.7.0.I20110519-0100,"",1346924957070
activated,editor,org.eclipse.jdt.ui,3.7.1.r371_v20110824-0800,"org.eclipse.jdt.ui.CompilationUnitEditor",1346924965160
deactivated,workbench,org.eclipse.ui.workbench,3.7.0.I20110519-0100,"",1346924990493
activated,workbench,org.eclipse.ui.workbench,3.7.0.I20110519-0100,"",1346924990493
deactivated,workbench,org.eclipse.ui.workbench,3.7.0.I20110519-0100,"",1346924993039
activated,workbench,org.eclipse.ui.workbench,3.7.0.I20110519-0100,"",1346925981153
executed,command,org.eclipse.ui,3.7.0.I20110602-0100,"org.eclipse.ui.edit.delete",1346926020307
executed,command,org.eclipse.ui,3.7.0.I20110602-0100,"org.eclipse.ui.edit.delete",1346926020822
executed,command,org.eclipse.ui,3.7.0.I20110602-0100,"org.eclipse.ui.edit.delete",1346926021041
executed,command,org.eclipse.ui,3.7.0.I20110602-0100,"org.eclipse.ui.edit.delete",1346926021275
executed,command,org.eclipse.ui,3.7.0.I20110602-0100,"org.eclipse.ui.edit.delete",1346926021478
executed,command,org.eclipse.ui,3.7.0.I20110602-0100,"org.eclipse.ui.edit.delete",1346926021790
activated,editor,org.eclipse.jdt.ui,3.7.1.r371_v20110824-0800,"org.eclipse.jdt.ui.CompilationUnitEditor",1346926170347
executed,command,org.eclipse.jdt.ui,3.7.1.r371_v20110824-0800,"org.eclipse.jdt.ui.edit.text.java.open.editor",1346926170363
deactivated,workbench,org.eclipse.ui.workbench,3.7.0.I20110519-0100,"",1346926233865
activated,workbench,org.eclipse.ui.workbench,3.7.0.I20110519-0100,"",1346926234927
deactivated,workbench,org.eclipse.ui.workbench,3.7.0.I20110519-0100,"",1346926237550
activated,workbench,org.eclipse.ui.workbench,3.7.0.I20110519-0100,"",1346926252231
deactivated,workbench,org.eclipse.ui.workbench,3.7.0.I20110519-0100,"",1346926254074
activated,workbench,org.eclipse.ui.workbench,3.7.0.I20110519-0100,"",1346926265616
activated,editor,org.eclipse.jdt.ui,3.7.1.r371_v20110824-0800,"org.eclipse.jdt.ui.CompilationUnitEditor",1346926270629
executed,command,org.eclipse.ui.workbench.texteditor,3.7.0.v20110505-0800,"org.eclipse.ui.edit.text.select.lineEnd",1346926279859
executed,command,org.eclipse.ui,3.7.0.I20110602-0100,"org.eclipse.ui.edit.delete",1346926280171
executed,command,,,"AUTOGEN:::org.eclipse.jdt.debug.CompilationUnitEditor.BreakpointRulerActions/org.eclipse.jdt.debug.ui.actions.ManageBreakpointRulerAction",1346926304723
deactivated,workbench,org.eclipse.ui.workbench,3.7.0.I20110519-0100,"",1346926306237
activated,workbench,org.eclipse.ui.workbench,3.7.0.I20110519-0100,"",1346926307456
deactivated,workbench,org.eclipse.ui.workbench,3.7.0.I20110519-0100,"",1346926309939
activated,workbench,org.eclipse.ui.workbench,3.7.0.I20110519-0100,"",1346926312531
executed,command,,,"AUTOGEN:::org.eclipse.jdt.debug.CompilationUnitEditor.BreakpointRulerActions/org.eclipse.jdt.debug.ui.actions.ManageBreakpointRulerAction",1346926314749
activated,view,org.eclipse.debug.ui,3.7.101.v20110817_r371,"org.eclipse.debug.ui.DebugView",1346926315764
executed,command,org.eclipse.debug.ui,3.7.101.v20110817_r371,"org.eclipse.debug.ui.commands.Resume",1346926315858
executed,command,org.eclipse.debug.ui,3.7.101.v20110817_r371,"org.eclipse.debug.ui.commands.StepInto",1346926319044
opened,editor,org.eclipse.jdt.ui,3.7.1.r371_v20110824-0800,"org.eclipse.jdt.ui.ClassFileEditor",1346926319403
closed,editor,org.eclipse.jdt.ui,3.7.1.r371_v20110824-0800,"org.eclipse.jdt.ui.CompilationUnitEditor",1346926319559
executed,command,org.eclipse.debug.ui,3.7.101.v20110817_r371,"org.eclipse.debug.ui.commands.StepReturn",1346926322714
deactivated,workbench,org.eclipse.ui.workbench,3.7.0.I20110519-0100,"",1346926334287
activated,workbench,org.eclipse.ui.workbench,3.7.0.I20110519-0100,"",1346926334287
deactivated,workbench,org.eclipse.ui.workbench,3.7.0.I20110519-0100,"",1346926334365
activated,workbench,org.eclipse.ui.workbench,3.7.0.I20110519-0100,"",1346926354278
activated,editor,org.eclipse.jdt.ui,3.7.1.r371_v20110824-0800,"org.eclipse.jdt.ui.CompilationUnitEditor",1346926365085
deactivated,workbench,org.eclipse.ui.workbench,3.7.0.I20110519-0100,"",1346926365929
executed,command,org.eclipse.ui,3.7.0.I20110602-0100,"org.eclipse.ui.edit.findReplace",1346926365944
activated,workbench,org.eclipse.ui.workbench,3.7.0.I20110519-0100,"",1346926371270
deactivated,workbench,org.eclipse.ui.workbench,3.7.0.I20110519-0100,"",1346926372754
activated,workbench,org.eclipse.ui.workbench,3.7.0.I20110519-0100,"",1346926374800
activated,view,org.eclipse.debug.ui,3.7.101.v20110817_r371,"org.eclipse.debug.ui.DebugView",1346926380688
executed,command,org.eclipse.debug.ui,3.7.101.v20110817_r371,"org.eclipse.debug.ui.commands.Terminate",1346926380750
deactivated,workbench,org.eclipse.ui.workbench,3.7.0.I20110519-0100,"",1346926383530
activated,workbench,org.eclipse.ui.workbench,3.7.0.I20110519-0100,"",1346926393307
deactivated,workbench,org.eclipse.ui.workbench,3.7.0.I20110519-0100,"",1346926394197
activated,workbench,org.eclipse.ui.workbench,3.7.0.I20110519-0100,"",1346926394197
deactivated,workbench,org.eclipse.ui.workbench,3.7.0.I20110519-0100,"",1346926394275
activated,workbench,org.eclipse.ui.workbench,3.7.0.I20110519-0100,"",1346926406238
activated,view,org.eclipse.ui.console,3.5.100.v20110511,"org.eclipse.ui.console.ConsoleView",1346926406676
deactivated,workbench,org.eclipse.ui.workbench,3.7.0.I20110519-0100,"",1346926409159
activated,workbench,org.eclipse.ui.workbench,3.7.0.I20110519-0100,"",1346926409159
deactivated,workbench,org.eclipse.ui.workbench,3.7.0.I20110519-0100,"",1346926409252
activated,workbench,org.eclipse.ui.workbench,3.7.0.I20110519-0100,"",1346926433195
activated,editor,org.eclipse.jdt.ui,3.7.1.r371_v20110824-0800,"org.eclipse.jdt.ui.CompilationUnitEditor",1346926435834
executed,command,org.eclipse.ui,3.7.0.I20110602-0100,"org.eclipse.ui.edit.text.contentAssist.proposals",1346926452576
executed,command,org.eclipse.ui.workbench.texteditor,3.7.0.v20110505-0800,"org.eclipse.ui.edit.text.goto.lineEnd",1346926463134
executed,command,org.eclipse.ui,3.7.0.I20110602-0100,"org.eclipse.ui.file.save",1346926467023
executed,command,org.eclipse.ui.workbench.texteditor,3.7.0.v20110505-0800,"org.eclipse.ui.edit.text.goto.lineEnd",1346926476050
executed,command,org.eclipse.ui.workbench.texteditor,3.7.0.v20110505-0800,"org.eclipse.ui.edit.text.goto.lineStart",1346926479470
executed,command,org.eclipse.ui.workbench.texteditor,3.7.0.v20110505-0800,"org.eclipse.ui.edit.text.goto.lineEnd",1346926484155
executed,command,org.eclipse.ui.workbench.texteditor,3.7.0.v20110505-0800,"org.eclipse.ui.edit.text.goto.lineEnd",1346926590419
executed,command,org.eclipse.ui,3.7.0.I20110602-0100,"org.eclipse.ui.file.save",1346926599384
deactivated,workbench,org.eclipse.ui.workbench,3.7.0.I20110519-0100,"",1346926625949
activated,workbench,org.eclipse.ui.workbench,3.7.0.I20110519-0100,"",1346926631119
executed,command,org.eclipse.ui,3.7.0.I20110602-0100,"org.eclipse.ui.edit.delete",1346926669586
executed,command,org.eclipse.ui.workbench.texteditor,3.7.0.v20110505-0800,"org.eclipse.ui.edit.text.goto.lineStart",1346926680112
executed,command,org.eclipse.ui,3.7.0.I20110602-0100,"org.eclipse.ui.edit.text.contentAssist.proposals",1346926683267
executed,command,org.eclipse.ui.workbench.texteditor,3.7.0.v20110505-0800,"org.eclipse.ui.edit.text.goto.lineEnd",1346926698432
executed,command,org.eclipse.ui,3.7.0.I20110602-0100,"org.eclipse.ui.file.save",1346926733556
deactivated,workbench,org.eclipse.ui.workbench,3.7.0.I20110519-0100,"",1346926737429
activated,workbench,org.eclipse.ui.workbench,3.7.0.I20110519-0100,"",1346929061108
activated,view,org.eclipse.ui.console,3.5.100.v20110511,"org.eclipse.ui.console.ConsoleView",1346929061108
activated,editor,org.eclipse.jdt.ui,3.7.1.r371_v20110824-0800,"org.eclipse.jdt.ui.CompilationUnitEditor",1346929062670
deactivated,workbench,org.eclipse.ui.workbench,3.7.0.I20110519-0100,"",1346929066090
activated,workbench,org.eclipse.ui.workbench,3.7.0.I20110519-0100,"",1346929066090
deactivated,workbench,org.eclipse.ui.workbench,3.7.0.I20110519-0100,"",1346929066153
activated,workbench,org.eclipse.ui.workbench,3.7.0.I20110519-0100,"",1346929083691
deactivated,workbench,org.eclipse.ui.workbench,3.7.0.I20110519-0100,"",1346929085706
activated,workbench,org.eclipse.ui.workbench,3.7.0.I20110519-0100,"",1346929094827
deactivated,workbench,org.eclipse.ui.workbench,3.7.0.I20110519-0100,"",1346929095717
activated,workbench,org.eclipse.ui.workbench,3.7.0.I20110519-0100,"",1346929131216
deactivated,workbench,org.eclipse.ui.workbench,3.7.0.I20110519-0100,"",1346929131279
activated,workbench,org.eclipse.ui.workbench,3.7.0.I20110519-0100,"",1346929132216
activated,view,org.eclipse.ui.console,3.5.100.v20110511,"org.eclipse.ui.console.ConsoleView",1346929132232
deactivated,workbench,org.eclipse.ui.workbench,3.7.0.I20110519-0100,"",1346929133340
activated,workbench,org.eclipse.ui.workbench,3.7.0.I20110519-0100,"",1346929136277
activated,view,org.eclipse.debug.ui,3.7.101.v20110817_r371,"org.eclipse.debug.ui.DebugView",1346929136292
