what,kind,bundleId,bundleVersion,description,time
activated,workbench,org.eclipse.ui.workbench,3.7.0.I20110519-0100,"",1359555837562
deactivated,workbench,org.eclipse.ui.workbench,3.7.0.I20110519-0100,"",1359555837937
activated,workbench,org.eclipse.ui.workbench,3.7.0.I20110519-0100,"",1359555839171
activated,editor,org.eclipse.jdt.ui,3.7.1.r371_v20110824-0800,"org.eclipse.jdt.ui.CompilationUnitEditor",1359555868092
deactivated,workbench,org.eclipse.ui.workbench,3.7.0.I20110519-0100,"",1359555906747
activated,workbench,org.eclipse.ui.workbench,3.7.0.I20110519-0100,"",1359555906747
deactivated,workbench,org.eclipse.ui.workbench,3.7.0.I20110519-0100,"",1359555906840
activated,workbench,org.eclipse.ui.workbench,3.7.0.I20110519-0100,"",1359556021070
deactivated,workbench,org.eclipse.ui.workbench,3.7.0.I20110519-0100,"",1359556041037
activated,workbench,org.eclipse.ui.workbench,3.7.0.I20110519-0100,"",1359556510889
activated,view,org.eclipse.debug.ui,3.7.101.v20110817_r371,"org.eclipse.debug.ui.DebugView",1359556512967
executed,command,org.eclipse.debug.ui,3.7.101.v20110817_r371,"org.eclipse.debug.ui.commands.Resume",1359556513061
deactivated,workbench,org.eclipse.ui.workbench,3.7.0.I20110519-0100,"",1359556514530
activated,workbench,org.eclipse.ui.workbench,3.7.0.I20110519-0100,"",1359556517530
executed,command,org.eclipse.debug.ui,3.7.101.v20110817_r371,"org.eclipse.debug.ui.commands.Resume",1359556519280
executed,command,org.eclipse.debug.ui,3.7.101.v20110817_r371,"org.eclipse.debug.ui.commands.Resume",1359556520562
activated,editor,org.eclipse.jdt.ui,3.7.1.r371_v20110824-0800,"org.eclipse.jdt.ui.CompilationUnitEditor",1359556521890
executed,command,,,"AUTOGEN:::org.eclipse.jdt.debug.CompilationUnitEditor.BreakpointRulerActions/org.eclipse.jdt.debug.ui.actions.ManageBreakpointRulerAction",1359556522187
activated,view,org.eclipse.debug.ui,3.7.101.v20110817_r371,"org.eclipse.debug.ui.DebugView",1359556523562
executed,command,org.eclipse.debug.ui,3.7.101.v20110817_r371,"org.eclipse.debug.ui.commands.Resume",1359556523609
deactivated,workbench,org.eclipse.ui.workbench,3.7.0.I20110519-0100,"",1359556526546
activated,workbench,org.eclipse.ui.workbench,3.7.0.I20110519-0100,"",1359556673088
activated,editor,org.eclipse.jdt.ui,3.7.1.r371_v20110824-0800,"org.eclipse.jdt.ui.CompilationUnitEditor",1359556674979
executed,command,,,"AUTOGEN:::org.eclipse.jdt.debug.CompilationUnitEditor.BreakpointRulerActions/org.eclipse.jdt.debug.ui.actions.ManageBreakpointRulerAction",1359556675104
activated,view,org.eclipse.debug.ui,3.7.101.v20110817_r371,"org.eclipse.debug.ui.DebugView",1359556676166
executed,command,org.eclipse.debug.ui,3.7.101.v20110817_r371,"org.eclipse.debug.ui.commands.Resume",1359556676229
deactivated,workbench,org.eclipse.ui.workbench,3.7.0.I20110519-0100,"",1359556679151
activated,workbench,org.eclipse.ui.workbench,3.7.0.I20110519-0100,"",1359556679166
deactivated,workbench,org.eclipse.ui.workbench,3.7.0.I20110519-0100,"",1359556679276
activated,workbench,org.eclipse.ui.workbench,3.7.0.I20110519-0100,"",1359556689417
activated,editor,org.eclipse.jdt.ui,3.7.1.r371_v20110824-0800,"org.eclipse.jdt.ui.CompilationUnitEditor",1359556692527
executed,command,,,"AUTOGEN:::org.eclipse.jdt.debug.CompilationUnitEditor.BreakpointRulerActions/org.eclipse.jdt.debug.ui.actions.ManageBreakpointRulerAction",1359556692636
activated,view,org.eclipse.debug.ui,3.7.101.v20110817_r371,"org.eclipse.debug.ui.DebugView",1359556693792
executed,command,org.eclipse.debug.ui,3.7.101.v20110817_r371,"org.eclipse.debug.ui.commands.Resume",1359556693871
deactivated,workbench,org.eclipse.ui.workbench,3.7.0.I20110519-0100,"",1359556698839
activated,workbench,org.eclipse.ui.workbench,3.7.0.I20110519-0100,"",1359556797433
activated,editor,org.eclipse.jdt.ui,3.7.1.r371_v20110824-0800,"org.eclipse.jdt.ui.CompilationUnitEditor",1359556800089
activated,perspective,org.eclipse.jst.j2ee.ui,1.1.501.v201108231700,"org.eclipse.jst.j2ee.J2EEPerspective",1359556805276
deactivated,workbench,org.eclipse.ui.workbench,3.7.0.I20110519-0100,"",1359556826073
activated,workbench,org.eclipse.ui.workbench,3.7.0.I20110519-0100,"",1359561646807
deactivated,workbench,org.eclipse.ui.workbench,3.7.0.I20110519-0100,"",1359561647541
activated,workbench,org.eclipse.ui.workbench,3.7.0.I20110519-0100,"",1359561648244
deactivated,workbench,org.eclipse.ui.workbench,3.7.0.I20110519-0100,"",1359561650900
activated,workbench,org.eclipse.ui.workbench,3.7.0.I20110519-0100,"",1359561785644
activated,view,org.eclipse.ui.navigator.resources,3.4.300.I20110421-1800,"org.eclipse.ui.navigator.ProjectExplorer",1359561788675
activated,editor,org.eclipse.jdt.ui,3.7.1.r371_v20110824-0800,"org.eclipse.jdt.ui.CompilationUnitEditor",1359561788957
executed,command,,,"AUTOGEN:::org.eclipse.jdt.debug.CompilationUnitEditor.BreakpointRulerActions/org.eclipse.jdt.debug.ui.actions.ManageBreakpointRulerAction",1359561837408
deactivated,workbench,org.eclipse.ui.workbench,3.7.0.I20110519-0100,"",1359561838173
activated,workbench,org.eclipse.ui.workbench,3.7.0.I20110519-0100,"",1359561854251
deactivated,workbench,org.eclipse.ui.workbench,3.7.0.I20110519-0100,"",1359561877578
activated,workbench,org.eclipse.ui.workbench,3.7.0.I20110519-0100,"",1359561880031
deactivated,workbench,org.eclipse.ui.workbench,3.7.0.I20110519-0100,"",1359561885687
activated,workbench,org.eclipse.ui.workbench,3.7.0.I20110519-0100,"",1359561887265
deactivated,workbench,org.eclipse.ui.workbench,3.7.0.I20110519-0100,"",1359561890405
activated,workbench,org.eclipse.ui.workbench,3.7.0.I20110519-0100,"",1359561932575
deactivated,workbench,org.eclipse.ui.workbench,3.7.0.I20110519-0100,"",1359561932575
activated,workbench,org.eclipse.ui.workbench,3.7.0.I20110519-0100,"",1359561934403
activated,perspective,org.eclipse.debug.ui,3.7.101.v20110817_r371,"org.eclipse.debug.ui.DebugPerspective",1359561934466
activated,view,org.eclipse.debug.ui,3.7.101.v20110817_r371,"org.eclipse.debug.ui.DebugView",1359561938622
executed,command,org.eclipse.debug.ui,3.7.101.v20110817_r371,"org.eclipse.debug.ui.commands.StepOver",1359561938700
executed,command,org.eclipse.debug.ui,3.7.101.v20110817_r371,"org.eclipse.debug.ui.commands.StepOver",1359561939778
executed,command,org.eclipse.debug.ui,3.7.101.v20110817_r371,"org.eclipse.debug.ui.commands.StepOver",1359561940528
activated,view,org.eclipse.debug.ui,3.7.101.v20110817_r371,"org.eclipse.debug.ui.VariableView",1359561941340
executed,command,org.eclipse.ui,3.7.0.I20110602-0100,"org.eclipse.ui.edit.selectAll",1359561942481
executed,command,org.eclipse.ui,3.7.0.I20110602-0100,"org.eclipse.ui.edit.copy",1359561943059
deactivated,workbench,org.eclipse.ui.workbench,3.7.0.I20110519-0100,"",1359561943903
activated,workbench,org.eclipse.ui.workbench,3.7.0.I20110519-0100,"",1359562085178
deactivated,workbench,org.eclipse.ui.workbench,3.7.0.I20110519-0100,"",1359562086756
activated,workbench,org.eclipse.ui.workbench,3.7.0.I20110519-0100,"",1359562139332
activated,view,org.eclipse.debug.ui,3.7.101.v20110817_r371,"org.eclipse.debug.ui.DebugView",1359562141457
executed,command,org.eclipse.debug.ui,3.7.101.v20110817_r371,"org.eclipse.debug.ui.commands.StepInto",1359562141535
activated,editor,org.eclipse.jdt.ui,3.7.1.r371_v20110824-0800,"org.eclipse.jdt.ui.CompilationUnitEditor",1359562142988
executed,command,,,"AUTOGEN:::org.eclipse.jdt.debug.CompilationUnitEditor.BreakpointRulerActions/org.eclipse.jdt.debug.ui.actions.ManageBreakpointRulerAction",1359562143191
activated,view,org.eclipse.debug.ui,3.7.101.v20110817_r371,"org.eclipse.debug.ui.DebugView",1359562144472
executed,command,org.eclipse.debug.ui,3.7.101.v20110817_r371,"org.eclipse.debug.ui.commands.Resume",1359562144519
activated,view,org.eclipse.debug.ui,3.7.101.v20110817_r371,"org.eclipse.debug.ui.VariableView",1359562146581
executed,command,org.eclipse.ui,3.7.0.I20110602-0100,"org.eclipse.ui.edit.selectAll",1359562147238
executed,command,org.eclipse.ui,3.7.0.I20110602-0100,"org.eclipse.ui.edit.copy",1359562147722
deactivated,workbench,org.eclipse.ui.workbench,3.7.0.I20110519-0100,"",1359562149300
activated,workbench,org.eclipse.ui.workbench,3.7.0.I20110519-0100,"",1359562185220
activated,view,org.eclipse.debug.ui,3.7.101.v20110817_r371,"org.eclipse.debug.ui.DebugView",1359562188283
executed,command,org.eclipse.debug.ui,3.7.101.v20110817_r371,"org.eclipse.debug.ui.commands.StepReturn",1359562188361
activated,editor,org.eclipse.jdt.ui,3.7.1.r371_v20110824-0800,"org.eclipse.jdt.ui.CompilationUnitEditor",1359562190876
executed,command,org.eclipse.ui,3.7.0.I20110602-0100,"org.eclipse.ui.edit.copy",1359562194610
deactivated,workbench,org.eclipse.ui.workbench,3.7.0.I20110519-0100,"",1359562198188
activated,workbench,org.eclipse.ui.workbench,3.7.0.I20110519-0100,"",1359562253217
deactivated,workbench,org.eclipse.ui.workbench,3.7.0.I20110519-0100,"",1359562257873
activated,workbench,org.eclipse.ui.workbench,3.7.0.I20110519-0100,"",1359562259545
activated,view,org.eclipse.debug.ui,3.7.101.v20110817_r371,"org.eclipse.debug.ui.DebugView",1359562262061
executed,command,org.eclipse.debug.ui,3.7.101.v20110817_r371,"org.eclipse.debug.ui.commands.StepInto",1359562262123
activated,view,org.eclipse.debug.ui,3.7.101.v20110817_r371,"org.eclipse.debug.ui.VariableView",1359562265092
executed,command,org.eclipse.ui,3.7.0.I20110602-0100,"org.eclipse.ui.edit.selectAll",1359562266373
executed,command,org.eclipse.ui,3.7.0.I20110602-0100,"org.eclipse.ui.edit.copy",1359562266888
deactivated,workbench,org.eclipse.ui.workbench,3.7.0.I20110519-0100,"",1359562268498
activated,workbench,org.eclipse.ui.workbench,3.7.0.I20110519-0100,"",1359562315089
activated,view,org.eclipse.debug.ui,3.7.101.v20110817_r371,"org.eclipse.debug.ui.DebugView",1359562316277
executed,command,org.eclipse.debug.ui,3.7.101.v20110817_r371,"org.eclipse.debug.ui.commands.Terminate",1359562316339
activated,editor,org.eclipse.jdt.ui,3.7.1.r371_v20110824-0800,"org.eclipse.jdt.ui.CompilationUnitEditor",1359562318245
executed,command,org.eclipse.ui,3.7.0.I20110602-0100,"org.eclipse.ui.edit.delete",1359562320620
executed,command,org.eclipse.ui,3.7.0.I20110602-0100,"org.eclipse.ui.edit.delete",1359562321089
executed,command,org.eclipse.ui,3.7.0.I20110602-0100,"org.eclipse.ui.edit.delete",1359562321120
executed,command,org.eclipse.ui,3.7.0.I20110602-0100,"org.eclipse.ui.edit.delete",1359562321152
executed,command,org.eclipse.ui,3.7.0.I20110602-0100,"org.eclipse.ui.edit.delete",1359562321183
executed,command,org.eclipse.ui,3.7.0.I20110602-0100,"org.eclipse.ui.edit.delete",1359562321214
executed,command,org.eclipse.ui,3.7.0.I20110602-0100,"org.eclipse.ui.edit.delete",1359562321230
executed,command,org.eclipse.ui,3.7.0.I20110602-0100,"org.eclipse.ui.edit.delete",1359562321277
executed,command,org.eclipse.ui,3.7.0.I20110602-0100,"org.eclipse.ui.edit.delete",1359562321308
executed,command,org.eclipse.ui,3.7.0.I20110602-0100,"org.eclipse.ui.edit.delete",1359562321339
executed,command,org.eclipse.ui,3.7.0.I20110602-0100,"org.eclipse.ui.edit.delete",1359562321370
executed,command,org.eclipse.ui,3.7.0.I20110602-0100,"org.eclipse.ui.edit.delete",1359562321417
executed,command,org.eclipse.ui,3.7.0.I20110602-0100,"org.eclipse.ui.edit.delete",1359562321448
executed,command,org.eclipse.ui,3.7.0.I20110602-0100,"org.eclipse.ui.edit.delete",1359562321464
executed,command,org.eclipse.ui,3.7.0.I20110602-0100,"org.eclipse.ui.edit.delete",1359562321511
executed,command,org.eclipse.ui,3.7.0.I20110602-0100,"org.eclipse.ui.edit.delete",1359562321542
executed,command,org.eclipse.ui,3.7.0.I20110602-0100,"org.eclipse.ui.edit.delete",1359562321558
executed,command,org.eclipse.ui,3.7.0.I20110602-0100,"org.eclipse.ui.edit.delete",1359562321589
executed,command,org.eclipse.ui,3.7.0.I20110602-0100,"org.eclipse.ui.edit.delete",1359562321620
executed,command,org.eclipse.ui,3.7.0.I20110602-0100,"org.eclipse.ui.edit.delete",1359562321667
executed,command,org.eclipse.ui,3.7.0.I20110602-0100,"org.eclipse.ui.edit.delete",1359562321730
executed,command,org.eclipse.ui,3.7.0.I20110602-0100,"org.eclipse.ui.edit.delete",1359562321745
executed,command,org.eclipse.ui,3.7.0.I20110602-0100,"org.eclipse.ui.edit.delete",1359562321761
executed,command,org.eclipse.ui,3.7.0.I20110602-0100,"org.eclipse.ui.edit.delete",1359562321808
executed,command,org.eclipse.ui,3.7.0.I20110602-0100,"org.eclipse.ui.edit.delete",1359562321823
executed,command,org.eclipse.ui,3.7.0.I20110602-0100,"org.eclipse.ui.edit.delete",1359562321870
executed,command,org.eclipse.ui,3.7.0.I20110602-0100,"org.eclipse.ui.edit.delete",1359562321902
executed,command,org.eclipse.ui,3.7.0.I20110602-0100,"org.eclipse.ui.edit.delete",1359562321917
executed,command,org.eclipse.ui,3.7.0.I20110602-0100,"org.eclipse.ui.edit.delete",1359562321964
executed,command,org.eclipse.ui,3.7.0.I20110602-0100,"org.eclipse.ui.edit.delete",1359562321995
executed,command,org.eclipse.ui,3.7.0.I20110602-0100,"org.eclipse.ui.edit.delete",1359562322011
executed,command,org.eclipse.ui,3.7.0.I20110602-0100,"org.eclipse.ui.edit.delete",1359562322058
executed,command,org.eclipse.ui,3.7.0.I20110602-0100,"org.eclipse.ui.edit.delete",1359562322105
executed,command,org.eclipse.ui,3.7.0.I20110602-0100,"org.eclipse.ui.edit.delete",1359562322136
executed,command,org.eclipse.ui,3.7.0.I20110602-0100,"org.eclipse.ui.edit.delete",1359562322167
executed,command,org.eclipse.ui,3.7.0.I20110602-0100,"org.eclipse.ui.edit.delete",1359562322198
executed,command,org.eclipse.ui,3.7.0.I20110602-0100,"org.eclipse.ui.edit.delete",1359562322214
executed,command,org.eclipse.ui,3.7.0.I20110602-0100,"org.eclipse.ui.edit.delete",1359562322261
executed,command,org.eclipse.ui,3.7.0.I20110602-0100,"org.eclipse.ui.edit.delete",1359562322277
executed,command,org.eclipse.ui,3.7.0.I20110602-0100,"org.eclipse.ui.edit.delete",1359562322527
deactivated,workbench,org.eclipse.ui.workbench,3.7.0.I20110519-0100,"",1359562325620
activated,workbench,org.eclipse.ui.workbench,3.7.0.I20110519-0100,"",1359562332823
deactivated,workbench,org.eclipse.ui.workbench,3.7.0.I20110519-0100,"",1359562340276
activated,workbench,org.eclipse.ui.workbench,3.7.0.I20110519-0100,"",1359562341635
deactivated,workbench,org.eclipse.ui.workbench,3.7.0.I20110519-0100,"",1359562342526
activated,workbench,org.eclipse.ui.workbench,3.7.0.I20110519-0100,"",1359562491566
activated,view,org.eclipse.debug.ui,3.7.101.v20110817_r371,"org.eclipse.debug.ui.DebugView",1359562493238
deactivated,workbench,org.eclipse.ui.workbench,3.7.0.I20110519-0100,"",1359562495706
activated,workbench,org.eclipse.ui.workbench,3.7.0.I20110519-0100,"",1359562496597
deactivated,workbench,org.eclipse.ui.workbench,3.7.0.I20110519-0100,"",1359562498284
activated,workbench,org.eclipse.ui.workbench,3.7.0.I20110519-0100,"",1359562554344
started,bundle,org.eclipse.wst.xsl.debug.ui,1.0.200.v201101281837,"org.eclipse.wst.xsl.debug.ui",1359562557985
activated,editor,org.eclipse.jdt.ui,3.7.1.r371_v20110824-0800,"org.eclipse.jdt.ui.CompilationUnitEditor",1359562559938
executed,command,,,"AUTOGEN:::org.eclipse.jdt.debug.CompilationUnitEditor.BreakpointRulerActions/org.eclipse.jdt.debug.ui.actions.ManageBreakpointRulerAction",1359562580609
deactivated,workbench,org.eclipse.ui.workbench,3.7.0.I20110519-0100,"",1359562583077
activated,workbench,org.eclipse.ui.workbench,3.7.0.I20110519-0100,"",1359562676792
deactivated,workbench,org.eclipse.ui.workbench,3.7.0.I20110519-0100,"",1359562683120
activated,workbench,org.eclipse.ui.workbench,3.7.0.I20110519-0100,"",1359562702791
activated,editor,org.eclipse.jdt.ui,3.7.1.r371_v20110824-0800,"org.eclipse.jdt.ui.CompilationUnitEditor",1359562703041
executed,command,,,"AUTOGEN:::org.eclipse.jdt.debug.CompilationUnitEditor.BreakpointRulerActions/org.eclipse.jdt.debug.ui.actions.ManageBreakpointRulerAction",1359562705791
activated,view,org.eclipse.debug.ui,3.7.101.v20110817_r371,"org.eclipse.debug.ui.DebugView",1359562707009
executed,command,org.eclipse.debug.ui,3.7.101.v20110817_r371,"org.eclipse.debug.ui.commands.Resume",1359562707087
activated,editor,org.eclipse.jdt.ui,3.7.1.r371_v20110824-0800,"org.eclipse.jdt.ui.CompilationUnitEditor",1359562748992
executed,command,,,"AUTOGEN:::org.eclipse.jdt.debug.CompilationUnitEditor.BreakpointRulerActions/org.eclipse.jdt.debug.ui.actions.ManageBreakpointRulerAction",1359562749304
activated,view,org.eclipse.debug.ui,3.7.101.v20110817_r371,"org.eclipse.debug.ui.DebugView",1359562750507
executed,command,org.eclipse.debug.ui,3.7.101.v20110817_r371,"org.eclipse.debug.ui.commands.Resume",1359562750585
executed,command,org.eclipse.debug.ui,3.7.101.v20110817_r371,"org.eclipse.debug.ui.commands.StepOver",1359562767600
executed,command,org.eclipse.debug.ui,3.7.101.v20110817_r371,"org.eclipse.debug.ui.commands.StepInto",1359562771366
executed,command,org.eclipse.debug.ui,3.7.101.v20110817_r371,"org.eclipse.debug.ui.commands.StepInto",1359562775163
executed,command,org.eclipse.debug.ui,3.7.101.v20110817_r371,"org.eclipse.debug.ui.commands.Resume",1359562788303
activated,editor,org.eclipse.jdt.ui,3.7.1.r371_v20110824-0800,"org.eclipse.jdt.ui.CompilationUnitEditor",1359562790162
activated,view,org.eclipse.jdt.ui,3.7.1.r371_v20110824-0800,"org.eclipse.jdt.callhierarchy.view",1359562796349
executed,command,org.eclipse.jdt.ui,3.7.1.r371_v20110824-0800,"org.eclipse.jdt.ui.edit.text.java.open.call.hierarchy",1359562796380
activated,editor,org.eclipse.jdt.ui,3.7.1.r371_v20110824-0800,"org.eclipse.jdt.ui.CompilationUnitEditor",1359562799583
activated,view,org.eclipse.jdt.ui,3.7.1.r371_v20110824-0800,"org.eclipse.jdt.callhierarchy.view",1359562801958
executed,command,org.eclipse.jdt.ui,3.7.1.r371_v20110824-0800,"org.eclipse.jdt.ui.edit.text.java.open.call.hierarchy",1359562801974
activated,editor,org.eclipse.jdt.ui,3.7.1.r371_v20110824-0800,"org.eclipse.jdt.ui.CompilationUnitEditor",1359562810177
activated,view,org.eclipse.jdt.ui,3.7.1.r371_v20110824-0800,"org.eclipse.jdt.callhierarchy.view",1359562812770
executed,command,org.eclipse.jdt.ui,3.7.1.r371_v20110824-0800,"org.eclipse.jdt.ui.edit.text.java.open.call.hierarchy",1359562812786
activated,editor,org.eclipse.jdt.ui,3.7.1.r371_v20110824-0800,"org.eclipse.jdt.ui.CompilationUnitEditor",1359562822129
executed,command,,,"AUTOGEN:::org.eclipse.jdt.debug.CompilationUnitEditor.BreakpointRulerActions/org.eclipse.jdt.debug.ui.actions.ManageBreakpointRulerAction",1359562822301
activated,editor,org.eclipse.jdt.ui,3.7.1.r371_v20110824-0800,"org.eclipse.jdt.ui.CompilationUnitEditor",1359562835285
activated,view,org.eclipse.debug.ui,3.7.101.v20110817_r371,"org.eclipse.debug.ui.DebugView",1359562843238
executed,command,org.eclipse.debug.ui,3.7.101.v20110817_r371,"org.eclipse.debug.ui.commands.Resume",1359562843316
activated,editor,org.eclipse.jdt.ui,3.7.1.r371_v20110824-0800,"org.eclipse.jdt.ui.CompilationUnitEditor",1359562846331
executed,command,,,"AUTOGEN:::org.eclipse.jdt.debug.CompilationUnitEditor.BreakpointRulerActions/org.eclipse.jdt.debug.ui.actions.ManageBreakpointRulerAction",1359562846519
activated,view,org.eclipse.debug.ui,3.7.101.v20110817_r371,"org.eclipse.debug.ui.DebugView",1359562847956
executed,command,org.eclipse.debug.ui,3.7.101.v20110817_r371,"org.eclipse.debug.ui.commands.Resume",1359562847987
executed,command,org.eclipse.debug.ui,3.7.101.v20110817_r371,"org.eclipse.debug.ui.commands.StepOver",1359562852784
deactivated,workbench,org.eclipse.ui.workbench,3.7.0.I20110519-0100,"",1359562858612
activated,workbench,org.eclipse.ui.workbench,3.7.0.I20110519-0100,"",1359562873002
activated,editor,org.eclipse.jdt.ui,3.7.1.r371_v20110824-0800,"org.eclipse.jdt.ui.CompilationUnitEditor",1359562873018
activated,view,org.eclipse.debug.ui,3.7.101.v20110817_r371,"org.eclipse.debug.ui.BreakpointView",1359562884251
activated,view,org.eclipse.debug.ui,3.7.101.v20110817_r371,"org.eclipse.debug.ui.VariableView",1359562885064
activated,editor,org.eclipse.jdt.ui,3.7.1.r371_v20110824-0800,"org.eclipse.jdt.ui.CompilationUnitEditor",1359562902469
activated,editor,org.eclipse.jdt.ui,3.7.1.r371_v20110824-0800,"org.eclipse.jdt.ui.CompilationUnitEditor",1359562904204
executed,command,,,"AUTOGEN:::org.eclipse.jdt.debug.CompilationUnitEditor.BreakpointRulerActions/org.eclipse.jdt.debug.ui.actions.ManageBreakpointRulerAction",1359562906610
activated,view,org.eclipse.debug.ui,3.7.101.v20110817_r371,"org.eclipse.debug.ui.DebugView",1359562908032
executed,command,org.eclipse.debug.ui,3.7.101.v20110817_r371,"org.eclipse.debug.ui.commands.Resume",1359562908094
deactivated,workbench,org.eclipse.ui.workbench,3.7.0.I20110519-0100,"",1359562910110
activated,workbench,org.eclipse.ui.workbench,3.7.0.I20110519-0100,"",1359562912750
activated,editor,org.eclipse.jdt.ui,3.7.1.r371_v20110824-0800,"org.eclipse.jdt.ui.CompilationUnitEditor",1359562912766
deactivated,workbench,org.eclipse.ui.workbench,3.7.0.I20110519-0100,"",1359562914391
activated,workbench,org.eclipse.ui.workbench,3.7.0.I20110519-0100,"",1359562920312
executed,command,,,"AUTOGEN:::org.eclipse.jdt.debug.CompilationUnitEditor.BreakpointRulerActions/org.eclipse.jdt.debug.ui.actions.ManageBreakpointRulerAction",1359562922468
executed,command,,,"AUTOGEN:::org.eclipse.jdt.debug.CompilationUnitEditor.BreakpointRulerActions/org.eclipse.jdt.debug.ui.actions.ManageBreakpointRulerAction",1359562925125
activated,view,org.eclipse.debug.ui,3.7.101.v20110817_r371,"org.eclipse.debug.ui.BreakpointView",1359562926296
no handler,command,org.eclipse.ui,3.7.0.I20110602-0100,"org.eclipse.ui.edit.delete",1359562932265
activated,editor,org.eclipse.jdt.ui,3.7.1.r371_v20110824-0800,"org.eclipse.jdt.ui.CompilationUnitEditor",1359562937796
executed,command,,,"AUTOGEN:::org.eclipse.jdt.debug.CompilationUnitEditor.BreakpointRulerActions/org.eclipse.jdt.debug.ui.actions.ManageBreakpointRulerAction",1359562937983
activated,view,org.eclipse.debug.ui,3.7.101.v20110817_r371,"org.eclipse.debug.ui.BreakpointView",1359562940233
activated,view,org.eclipse.debug.ui,3.7.101.v20110817_r371,"org.eclipse.debug.ui.DebugView",1359562941655
executed,command,org.eclipse.debug.ui,3.7.101.v20110817_r371,"org.eclipse.debug.ui.commands.Resume",1359562941718
activated,view,org.eclipse.debug.ui,3.7.101.v20110817_r371,"org.eclipse.debug.ui.BreakpointView",1359562944639
activated,view,org.eclipse.debug.ui,3.7.101.v20110817_r371,"org.eclipse.debug.ui.DebugView",1359562945999
executed,command,org.eclipse.debug.ui,3.7.101.v20110817_r371,"org.eclipse.debug.ui.commands.Resume",1359562946061
executed,command,org.eclipse.debug.ui,3.7.101.v20110817_r371,"org.eclipse.debug.ui.commands.StepInto",1359562953170
deactivated,workbench,org.eclipse.ui.workbench,3.7.0.I20110519-0100,"",1359562963013
activated,workbench,org.eclipse.ui.workbench,3.7.0.I20110519-0100,"",1359563026245
deactivated,workbench,org.eclipse.ui.workbench,3.7.0.I20110519-0100,"",1359563035838
activated,workbench,org.eclipse.ui.workbench,3.7.0.I20110519-0100,"",1359563041807
deactivated,workbench,org.eclipse.ui.workbench,3.7.0.I20110519-0100,"",1359563045385
activated,workbench,org.eclipse.ui.workbench,3.7.0.I20110519-0100,"",1359563074040
deactivated,workbench,org.eclipse.ui.workbench,3.7.0.I20110519-0100,"",1359563078040
activated,workbench,org.eclipse.ui.workbench,3.7.0.I20110519-0100,"",1359563083383
activated,editor,org.eclipse.jdt.ui,3.7.1.r371_v20110824-0800,"org.eclipse.jdt.ui.CompilationUnitEditor",1359563083399
deactivated,workbench,org.eclipse.ui.workbench,3.7.0.I20110519-0100,"",1359563086383
activated,workbench,org.eclipse.ui.workbench,3.7.0.I20110519-0100,"",1359563089898
deactivated,workbench,org.eclipse.ui.workbench,3.7.0.I20110519-0100,"",1359563092648
activated,workbench,org.eclipse.ui.workbench,3.7.0.I20110519-0100,"",1359563117132
deactivated,workbench,org.eclipse.ui.workbench,3.7.0.I20110519-0100,"",1359563129209
activated,workbench,org.eclipse.ui.workbench,3.7.0.I20110519-0100,"",1359563135287
deactivated,workbench,org.eclipse.ui.workbench,3.7.0.I20110519-0100,"",1359563139037
activated,workbench,org.eclipse.ui.workbench,3.7.0.I20110519-0100,"",1359563151349
deactivated,workbench,org.eclipse.ui.workbench,3.7.0.I20110519-0100,"",1359563159661
activated,workbench,org.eclipse.ui.workbench,3.7.0.I20110519-0100,"",1359563185519
activated,perspective,org.eclipse.jst.j2ee.ui,1.1.501.v201108231700,"org.eclipse.jst.j2ee.J2EEPerspective",1359563333606
activated,editor,org.eclipse.jdt.ui,3.7.1.r371_v20110824-0800,"org.eclipse.jdt.ui.CompilationUnitEditor",1359563336965
deactivated,workbench,org.eclipse.ui.workbench,3.7.0.I20110519-0100,"",1359563354496
activated,workbench,org.eclipse.ui.workbench,3.7.0.I20110519-0100,"",1359563405306
deactivated,workbench,org.eclipse.ui.workbench,3.7.0.I20110519-0100,"",1359563408322
activated,workbench,org.eclipse.ui.workbench,3.7.0.I20110519-0100,"",1359563411525
executed,command,,,"AUTOGEN:::org.eclipse.jdt.debug.CompilationUnitEditor.BreakpointRulerActions/org.eclipse.jdt.debug.ui.actions.ManageBreakpointRulerAction",1359563413712
activated,perspective,org.eclipse.debug.ui,3.7.101.v20110817_r371,"org.eclipse.debug.ui.DebugPerspective",1359563416618
activated,view,org.eclipse.debug.ui,3.7.101.v20110817_r371,"org.eclipse.debug.ui.DebugView",1359563418134
executed,command,org.eclipse.debug.ui,3.7.101.v20110817_r371,"org.eclipse.debug.ui.commands.Terminate",1359563418212
activated,view,org.eclipse.debug.ui,3.7.101.v20110817_r371,"org.eclipse.debug.ui.BreakpointView",1359563430086
activated,editor,org.eclipse.jdt.ui,3.7.1.r371_v20110824-0800,"org.eclipse.jdt.ui.CompilationUnitEditor",1359563430633
activated,perspective,org.eclipse.jst.j2ee.ui,1.1.501.v201108231700,"org.eclipse.jst.j2ee.J2EEPerspective",1359563433680
activated,perspective,org.eclipse.debug.ui,3.7.101.v20110817_r371,"org.eclipse.debug.ui.DebugPerspective",1359563436086
activated,view,org.eclipse.debug.ui,3.7.101.v20110817_r371,"org.eclipse.debug.ui.BreakpointView",1359563436586
executed,command,org.eclipse.ui,3.7.0.I20110602-0100,"org.eclipse.ui.edit.selectAll",1359563437398
