what,kind,bundleId,bundleVersion,description,time
executed,command,org.eclipse.ui,3.7.0.I20110602-0100,"org.eclipse.ui.edit.delete",1357744625972
executed,command,org.eclipse.ui,3.7.0.I20110602-0100,"org.eclipse.ui.edit.delete",1357744626129
executed,command,org.eclipse.ui,3.7.0.I20110602-0100,"org.eclipse.ui.edit.delete",1357744626301
executed,command,org.eclipse.ui,3.7.0.I20110602-0100,"org.eclipse.ui.edit.delete",1357744626629
deactivated,workbench,org.eclipse.ui.workbench,3.7.0.I20110519-0100,"",1357744638769
activated,workbench,org.eclipse.ui.workbench,3.7.0.I20110519-0100,"",1357744638785
deactivated,workbench,org.eclipse.ui.workbench,3.7.0.I20110519-0100,"",1357744638847
activated,workbench,org.eclipse.ui.workbench,3.7.0.I20110519-0100,"",1357744640816
executed,command,org.eclipse.ui,3.7.0.I20110602-0100,"org.eclipse.ui.edit.copy",1357744643222
executed,command,org.eclipse.ui,3.7.0.I20110602-0100,"org.eclipse.ui.edit.paste",1357744644378
deactivated,workbench,org.eclipse.ui.workbench,3.7.0.I20110519-0100,"",1357744645035
activated,workbench,org.eclipse.ui.workbench,3.7.0.I20110519-0100,"",1357744646128
executed,command,org.eclipse.ui,3.7.0.I20110602-0100,"org.eclipse.ui.edit.text.contentAssist.proposals",1357744649066
deactivated,workbench,org.eclipse.ui.workbench,3.7.0.I20110519-0100,"",1357744649738
activated,workbench,org.eclipse.ui.workbench,3.7.0.I20110519-0100,"",1357744650769
executed,command,org.eclipse.ui,3.7.0.I20110602-0100,"org.eclipse.ui.edit.text.contentAssist.proposals",1357744653238
deactivated,workbench,org.eclipse.ui.workbench,3.7.0.I20110519-0100,"",1357744654675
activated,workbench,org.eclipse.ui.workbench,3.7.0.I20110519-0100,"",1357744655738
executed,command,org.eclipse.ui,3.7.0.I20110602-0100,"org.eclipse.ui.edit.text.contentAssist.proposals",1357744656644
deactivated,workbench,org.eclipse.ui.workbench,3.7.0.I20110519-0100,"",1357744659066
activated,workbench,org.eclipse.ui.workbench,3.7.0.I20110519-0100,"",1357744660316
executed,command,org.eclipse.ui,3.7.0.I20110602-0100,"org.eclipse.ui.edit.text.contentAssist.proposals",1357744663394
deactivated,workbench,org.eclipse.ui.workbench,3.7.0.I20110519-0100,"",1357744679065
activated,workbench,org.eclipse.ui.workbench,3.7.0.I20110519-0100,"",1357744679956
deactivated,workbench,org.eclipse.ui.workbench,3.7.0.I20110519-0100,"",1357744687159
activated,workbench,org.eclipse.ui.workbench,3.7.0.I20110519-0100,"",1357744688034
executed,command,org.eclipse.ui,3.7.0.I20110602-0100,"org.eclipse.ui.edit.text.contentAssist.proposals",1357744692596
deactivated,workbench,org.eclipse.ui.workbench,3.7.0.I20110519-0100,"",1357744693534
activated,workbench,org.eclipse.ui.workbench,3.7.0.I20110519-0100,"",1357744694565
executed,command,org.eclipse.ui,3.7.0.I20110602-0100,"org.eclipse.ui.file.saveAll",1357744696831
executed,command,org.eclipse.ui.workbench.texteditor,3.7.0.v20110505-0800,"org.eclipse.ui.edit.text.select.lineStart",1357744699221
executed,command,org.eclipse.ui.workbench.texteditor,3.7.0.v20110505-0800,"org.eclipse.ui.edit.text.select.lineStart",1357744699362
executed,command,org.eclipse.ui,3.7.0.I20110602-0100,"org.eclipse.ui.edit.delete",1357744700409
executed,command,org.eclipse.ui,3.7.0.I20110602-0100,"org.eclipse.ui.edit.delete",1357744706705
executed,command,org.eclipse.ui,3.7.0.I20110602-0100,"org.eclipse.ui.edit.delete",1357744707987
executed,command,org.eclipse.ui,3.7.0.I20110602-0100,"org.eclipse.ui.edit.delete",1357744720065
executed,command,org.eclipse.ui,3.7.0.I20110602-0100,"org.eclipse.ui.edit.delete",1357744720268
executed,command,org.eclipse.ui,3.7.0.I20110602-0100,"org.eclipse.ui.edit.delete",1357744720471
executed,command,org.eclipse.ui,3.7.0.I20110602-0100,"org.eclipse.ui.edit.delete",1357744720627
executed,command,org.eclipse.ui,3.7.0.I20110602-0100,"org.eclipse.ui.edit.delete",1357744720799
executed,command,org.eclipse.ui,3.7.0.I20110602-0100,"org.eclipse.ui.edit.delete",1357744720939
executed,command,org.eclipse.ui,3.7.0.I20110602-0100,"org.eclipse.ui.edit.delete",1357744721127
executed,command,org.eclipse.ui.workbench.texteditor,3.7.0.v20110505-0800,"org.eclipse.ui.edit.text.goto.lineEnd",1357744721705
executed,command,org.eclipse.ui,3.7.0.I20110602-0100,"org.eclipse.ui.edit.delete",1357744721924
executed,command,org.eclipse.ui,3.7.0.I20110602-0100,"org.eclipse.ui.edit.delete",1357744722096
executed,command,org.eclipse.ui,3.7.0.I20110602-0100,"org.eclipse.ui.edit.delete",1357744722252
executed,command,org.eclipse.ui,3.7.0.I20110602-0100,"org.eclipse.ui.edit.delete",1357744722408
executed,command,org.eclipse.ui,3.7.0.I20110602-0100,"org.eclipse.ui.edit.delete",1357744722736
executed,command,org.eclipse.ui,3.7.0.I20110602-0100,"org.eclipse.ui.edit.delete",1357744722908
executed,command,org.eclipse.ui,3.7.0.I20110602-0100,"org.eclipse.ui.edit.delete",1357744723143
executed,command,org.eclipse.ui.workbench.texteditor,3.7.0.v20110505-0800,"org.eclipse.ui.edit.text.goto.lineEnd",1357744726939
executed,command,org.eclipse.ui,3.7.0.I20110602-0100,"org.eclipse.ui.edit.delete",1357744727142
executed,command,org.eclipse.ui,3.7.0.I20110602-0100,"org.eclipse.ui.edit.delete",1357744727314
executed,command,org.eclipse.ui,3.7.0.I20110602-0100,"org.eclipse.ui.edit.delete",1357744727471
executed,command,org.eclipse.ui,3.7.0.I20110602-0100,"org.eclipse.ui.edit.delete",1357744727627
executed,command,org.eclipse.ui,3.7.0.I20110602-0100,"org.eclipse.ui.edit.delete",1357744727799
executed,command,org.eclipse.ui,3.7.0.I20110602-0100,"org.eclipse.ui.edit.delete",1357744727971
executed,command,org.eclipse.ui,3.7.0.I20110602-0100,"org.eclipse.ui.edit.delete",1357744728158
executed,command,org.eclipse.ui,3.7.0.I20110602-0100,"org.eclipse.ui.edit.copy",1357744736002
executed,command,org.eclipse.ui,3.7.0.I20110602-0100,"org.eclipse.ui.edit.paste",1357744736548
executed,command,org.eclipse.ui,3.7.0.I20110602-0100,"org.eclipse.ui.edit.paste",1357744737408
executed,command,org.eclipse.ui,3.7.0.I20110602-0100,"org.eclipse.ui.edit.paste",1357744737939
executed,command,org.eclipse.ui,3.7.0.I20110602-0100,"org.eclipse.ui.edit.paste",1357744738377
executed,command,org.eclipse.ui,3.7.0.I20110602-0100,"org.eclipse.ui.edit.paste",1357744738783
executed,command,org.eclipse.ui,3.7.0.I20110602-0100,"org.eclipse.ui.edit.paste",1357744739189
executed,command,org.eclipse.ui,3.7.0.I20110602-0100,"org.eclipse.ui.edit.undo",1357744740048
executed,command,org.eclipse.ui.workbench.texteditor,3.7.0.v20110505-0800,"org.eclipse.ui.edit.text.select.lineStart",1357744741798
executed,command,org.eclipse.ui.workbench.texteditor,3.7.0.v20110505-0800,"org.eclipse.ui.edit.text.select.lineStart",1357744745204
executed,command,org.eclipse.ui.workbench.texteditor,3.7.0.v20110505-0800,"org.eclipse.ui.edit.text.select.lineStart",1357744748392
executed,command,org.eclipse.ui.workbench.texteditor,3.7.0.v20110505-0800,"org.eclipse.ui.edit.text.select.lineStart",1357744750923
executed,command,org.eclipse.ui.workbench.texteditor,3.7.0.v20110505-0800,"org.eclipse.ui.edit.text.select.lineStart",1357744754782
executed,command,org.eclipse.ui.workbench.texteditor,3.7.0.v20110505-0800,"org.eclipse.ui.edit.text.select.lineStart",1357744758642
executed,command,org.eclipse.ui.workbench.texteditor,3.7.0.v20110505-0800,"org.eclipse.ui.edit.text.select.lineStart",1357744761079
executed,command,org.eclipse.ui.workbench.texteditor,3.7.0.v20110505-0800,"org.eclipse.ui.edit.text.select.lineStart",1357744767063
executed,command,org.eclipse.ui.workbench.texteditor,3.7.0.v20110505-0800,"org.eclipse.ui.edit.text.select.lineStart",1357744769907
executed,command,org.eclipse.ui.workbench.texteditor,3.7.0.v20110505-0800,"org.eclipse.ui.edit.text.select.lineStart",1357744776501
deactivated,workbench,org.eclipse.ui.workbench,3.7.0.I20110519-0100,"",1357744793469
activated,workbench,org.eclipse.ui.workbench,3.7.0.I20110519-0100,"",1357744794984
deactivated,workbench,org.eclipse.ui.workbench,3.7.0.I20110519-0100,"",1357744795313
activated,workbench,org.eclipse.ui.workbench,3.7.0.I20110519-0100,"",1357744795313
deactivated,workbench,org.eclipse.ui.workbench,3.7.0.I20110519-0100,"",1357744795422
activated,workbench,org.eclipse.ui.workbench,3.7.0.I20110519-0100,"",1357744795875
deactivated,workbench,org.eclipse.ui.workbench,3.7.0.I20110519-0100,"",1357744796594
activated,workbench,org.eclipse.ui.workbench,3.7.0.I20110519-0100,"",1357744796594
deactivated,workbench,org.eclipse.ui.workbench,3.7.0.I20110519-0100,"",1357744796688
activated,workbench,org.eclipse.ui.workbench,3.7.0.I20110519-0100,"",1357744799281
deactivated,workbench,org.eclipse.ui.workbench,3.7.0.I20110519-0100,"",1357744800969
activated,workbench,org.eclipse.ui.workbench,3.7.0.I20110519-0100,"",1357744802031
deactivated,workbench,org.eclipse.ui.workbench,3.7.0.I20110519-0100,"",1357744803000
activated,workbench,org.eclipse.ui.workbench,3.7.0.I20110519-0100,"",1357744804890
deactivated,workbench,org.eclipse.ui.workbench,3.7.0.I20110519-0100,"",1357744807000
activated,workbench,org.eclipse.ui.workbench,3.7.0.I20110519-0100,"",1357744808422
executed,command,org.eclipse.ui,3.7.0.I20110602-0100,"org.eclipse.ui.edit.text.contentAssist.proposals",1357744813078
executed,command,org.eclipse.ui,3.7.0.I20110602-0100,"org.eclipse.ui.edit.text.contentAssist.proposals",1357744815171
deactivated,workbench,org.eclipse.ui.workbench,3.7.0.I20110519-0100,"",1357744820078
activated,workbench,org.eclipse.ui.workbench,3.7.0.I20110519-0100,"",1357744826031
executed,command,org.eclipse.ui,3.7.0.I20110602-0100,"org.eclipse.ui.edit.text.contentAssist.proposals",1357744827390
deactivated,workbench,org.eclipse.ui.workbench,3.7.0.I20110519-0100,"",1357744830859
activated,workbench,org.eclipse.ui.workbench,3.7.0.I20110519-0100,"",1357744832749
executed,command,org.eclipse.ui,3.7.0.I20110602-0100,"org.eclipse.ui.edit.text.contentAssist.proposals",1357744834593
deactivated,workbench,org.eclipse.ui.workbench,3.7.0.I20110519-0100,"",1357744836983
activated,workbench,org.eclipse.ui.workbench,3.7.0.I20110519-0100,"",1357744840499
executed,command,org.eclipse.ui,3.7.0.I20110602-0100,"org.eclipse.ui.edit.text.contentAssist.proposals",1357744845436
deactivated,workbench,org.eclipse.ui.workbench,3.7.0.I20110519-0100,"",1357744847889
activated,workbench,org.eclipse.ui.workbench,3.7.0.I20110519-0100,"",1357744848733
executed,command,org.eclipse.ui,3.7.0.I20110602-0100,"org.eclipse.ui.edit.text.contentAssist.proposals",1357744850858
deactivated,workbench,org.eclipse.ui.workbench,3.7.0.I20110519-0100,"",1357744855295
activated,workbench,org.eclipse.ui.workbench,3.7.0.I20110519-0100,"",1357744856530
executed,command,org.eclipse.ui,3.7.0.I20110602-0100,"org.eclipse.ui.edit.text.contentAssist.proposals",1357744859514
deactivated,workbench,org.eclipse.ui.workbench,3.7.0.I20110519-0100,"",1357744860795
activated,workbench,org.eclipse.ui.workbench,3.7.0.I20110519-0100,"",1357744861733
executed,command,org.eclipse.ui,3.7.0.I20110602-0100,"org.eclipse.ui.edit.text.contentAssist.proposals",1357744862826
deactivated,workbench,org.eclipse.ui.workbench,3.7.0.I20110519-0100,"",1357744868842
activated,workbench,org.eclipse.ui.workbench,3.7.0.I20110519-0100,"",1357744870061
deactivated,workbench,org.eclipse.ui.workbench,3.7.0.I20110519-0100,"",1357744873920
activated,workbench,org.eclipse.ui.workbench,3.7.0.I20110519-0100,"",1357744971667
executed,command,org.eclipse.ui.workbench.texteditor,3.7.0.v20110505-0800,"org.eclipse.ui.edit.text.select.lineStart",1357744978902
executed,command,org.eclipse.ui.workbench.texteditor,3.7.0.v20110505-0800,"org.eclipse.ui.edit.text.select.lineStart",1357744979308
executed,command,org.eclipse.ui,3.7.0.I20110602-0100,"org.eclipse.ui.edit.delete",1357744979636
executed,command,org.eclipse.ui.workbench.texteditor,3.7.0.v20110505-0800,"org.eclipse.ui.edit.text.goto.lineEnd",1357744985605
executed,command,org.eclipse.ui,3.7.0.I20110602-0100,"org.eclipse.ui.edit.delete",1357744987480
executed,command,org.eclipse.ui.workbench.texteditor,3.7.0.v20110505-0800,"org.eclipse.ui.edit.text.goto.lineEnd",1357744990933
executed,command,org.eclipse.ui,3.7.0.I20110602-0100,"org.eclipse.ui.edit.delete",1357744991745
executed,command,org.eclipse.ui,3.7.0.I20110602-0100,"org.eclipse.ui.edit.delete",1357744991901
executed,command,org.eclipse.ui,3.7.0.I20110602-0100,"org.eclipse.ui.edit.delete",1357744992198
executed,command,org.eclipse.ui,3.7.0.I20110602-0100,"org.eclipse.ui.edit.delete",1357744992339
executed,command,org.eclipse.ui,3.7.0.I20110602-0100,"org.eclipse.ui.edit.delete",1357744992526
executed,command,org.eclipse.ui,3.7.0.I20110602-0100,"org.eclipse.ui.edit.delete",1357744993401
executed,command,org.eclipse.ui,3.7.0.I20110602-0100,"org.eclipse.ui.edit.delete",1357744993901
executed,command,org.eclipse.ui,3.7.0.I20110602-0100,"org.eclipse.ui.edit.delete",1357744994073
executed,command,org.eclipse.ui,3.7.0.I20110602-0100,"org.eclipse.ui.edit.delete",1357744994245
executed,command,org.eclipse.ui,3.7.0.I20110602-0100,"org.eclipse.ui.edit.delete",1357744994432
executed,command,org.eclipse.ui.workbench.texteditor,3.7.0.v20110505-0800,"org.eclipse.ui.edit.text.goto.lineEnd",1357744995995
executed,command,org.eclipse.ui,3.7.0.I20110602-0100,"org.eclipse.ui.edit.delete",1357744998479
executed,command,org.eclipse.ui,3.7.0.I20110602-0100,"org.eclipse.ui.edit.delete",1357745000432
executed,command,org.eclipse.ui,3.7.0.I20110602-0100,"org.eclipse.ui.edit.delete",1357745000557
executed,command,org.eclipse.ui,3.7.0.I20110602-0100,"org.eclipse.ui.edit.delete",1357745000698
executed,command,org.eclipse.ui,3.7.0.I20110602-0100,"org.eclipse.ui.edit.delete",1357745000823
executed,command,org.eclipse.ui,3.7.0.I20110602-0100,"org.eclipse.ui.edit.delete",1357745000963
executed,command,org.eclipse.ui.workbench.texteditor,3.7.0.v20110505-0800,"org.eclipse.ui.edit.text.goto.lineEnd",1357745003104
executed,command,org.eclipse.ui.workbench.texteditor,3.7.0.v20110505-0800,"org.eclipse.ui.edit.text.goto.lineEnd",1357745004042
executed,command,org.eclipse.ui.workbench.texteditor,3.7.0.v20110505-0800,"org.eclipse.ui.edit.text.goto.lineStart",1357745004541
executed,command,org.eclipse.ui,3.7.0.I20110602-0100,"org.eclipse.ui.edit.delete",1357745004729
executed,command,org.eclipse.ui.workbench.texteditor,3.7.0.v20110505-0800,"org.eclipse.ui.edit.text.select.lineStart",1357745006026
executed,command,org.eclipse.ui.workbench.texteditor,3.7.0.v20110505-0800,"org.eclipse.ui.edit.text.select.lineStart",1357745006323
executed,command,org.eclipse.ui,3.7.0.I20110602-0100,"org.eclipse.ui.edit.delete",1357745006854
executed,command,org.eclipse.ui.workbench.texteditor,3.7.0.v20110505-0800,"org.eclipse.ui.edit.text.goto.lineEnd",1357745009744
executed,command,org.eclipse.ui,3.7.0.I20110602-0100,"org.eclipse.ui.edit.delete",1357745010041
executed,command,org.eclipse.ui,3.7.0.I20110602-0100,"org.eclipse.ui.edit.delete",1357745010260
executed,command,org.eclipse.ui,3.7.0.I20110602-0100,"org.eclipse.ui.edit.delete",1357745010416
executed,command,org.eclipse.ui,3.7.0.I20110602-0100,"org.eclipse.ui.edit.delete",1357745010573
executed,command,org.eclipse.ui,3.7.0.I20110602-0100,"org.eclipse.ui.edit.delete",1357745010713
executed,command,org.eclipse.ui,3.7.0.I20110602-0100,"org.eclipse.ui.edit.delete",1357745010869
executed,command,org.eclipse.ui,3.7.0.I20110602-0100,"org.eclipse.ui.edit.delete",1357745011088
executed,command,org.eclipse.ui.workbench.texteditor,3.7.0.v20110505-0800,"org.eclipse.ui.edit.text.goto.lineEnd",1357745014588
executed,command,org.eclipse.ui,3.7.0.I20110602-0100,"org.eclipse.ui.edit.delete",1357745014885
executed,command,org.eclipse.ui,3.7.0.I20110602-0100,"org.eclipse.ui.edit.delete",1357745015166
executed,command,org.eclipse.ui,3.7.0.I20110602-0100,"org.eclipse.ui.edit.delete",1357745015338
executed,command,org.eclipse.ui,3.7.0.I20110602-0100,"org.eclipse.ui.edit.delete",1357745015494
executed,command,org.eclipse.ui,3.7.0.I20110602-0100,"org.eclipse.ui.edit.delete",1357745015666
executed,command,org.eclipse.ui,3.7.0.I20110602-0100,"org.eclipse.ui.edit.delete",1357745016135
executed,command,org.eclipse.ui,3.7.0.I20110602-0100,"org.eclipse.ui.edit.delete",1357745016713
executed,command,org.eclipse.ui.workbench.texteditor,3.7.0.v20110505-0800,"org.eclipse.ui.edit.text.goto.lineEnd",1357745019869
executed,command,org.eclipse.ui,3.7.0.I20110602-0100,"org.eclipse.ui.edit.delete",1357745020119
executed,command,org.eclipse.ui,3.7.0.I20110602-0100,"org.eclipse.ui.edit.delete",1357745020400
executed,command,org.eclipse.ui,3.7.0.I20110602-0100,"org.eclipse.ui.edit.delete",1357745020557
executed,command,org.eclipse.ui,3.7.0.I20110602-0100,"org.eclipse.ui.edit.delete",1357745020713
executed,command,org.eclipse.ui,3.7.0.I20110602-0100,"org.eclipse.ui.edit.delete",1357745020853
executed,command,org.eclipse.ui,3.7.0.I20110602-0100,"org.eclipse.ui.edit.delete",1357745020978
executed,command,org.eclipse.ui,3.7.0.I20110602-0100,"org.eclipse.ui.edit.delete",1357745021135
executed,command,org.eclipse.ui,3.7.0.I20110602-0100,"org.eclipse.ui.edit.copy",1357745023463
executed,command,org.eclipse.ui.workbench.texteditor,3.7.0.v20110505-0800,"org.eclipse.ui.edit.text.goto.lineStart",1357745023916
executed,command,org.eclipse.ui,3.7.0.I20110602-0100,"org.eclipse.ui.edit.paste",1357745024353
executed,command,org.eclipse.ui,3.7.0.I20110602-0100,"org.eclipse.ui.edit.paste",1357745025072
executed,command,org.eclipse.ui,3.7.0.I20110602-0100,"org.eclipse.ui.edit.paste",1357745025885
executed,command,org.eclipse.ui,3.7.0.I20110602-0100,"org.eclipse.ui.edit.paste",1357745026213
executed,command,org.eclipse.ui,3.7.0.I20110602-0100,"org.eclipse.ui.edit.paste",1357745026556
executed,command,org.eclipse.ui,3.7.0.I20110602-0100,"org.eclipse.ui.edit.paste",1357745026931
executed,command,org.eclipse.ui,3.7.0.I20110602-0100,"org.eclipse.ui.edit.paste",1357745027291
executed,command,org.eclipse.ui,3.7.0.I20110602-0100,"org.eclipse.ui.edit.paste",1357745027635
executed,command,org.eclipse.ui,3.7.0.I20110602-0100,"org.eclipse.ui.edit.paste",1357745027978
executed,command,org.eclipse.ui,3.7.0.I20110602-0100,"org.eclipse.ui.edit.paste",1357745028369
executed,command,org.eclipse.ui,3.7.0.I20110602-0100,"org.eclipse.ui.edit.paste",1357745028744
executed,command,org.eclipse.ui.workbench.texteditor,3.7.0.v20110505-0800,"org.eclipse.ui.edit.text.select.lineStart",1357745032447
executed,command,org.eclipse.ui.workbench.texteditor,3.7.0.v20110505-0800,"org.eclipse.ui.edit.text.select.lineStart",1357745035509
executed,command,org.eclipse.ui.workbench.texteditor,3.7.0.v20110505-0800,"org.eclipse.ui.edit.text.goto.lineEnd",1357745037025
executed,command,org.eclipse.ui.workbench.texteditor,3.7.0.v20110505-0800,"org.eclipse.ui.edit.text.select.lineStart",1357745041072
executed,command,org.eclipse.ui.workbench.texteditor,3.7.0.v20110505-0800,"org.eclipse.ui.edit.text.select.lineStart",1357745043650
executed,command,org.eclipse.ui.workbench.texteditor,3.7.0.v20110505-0800,"org.eclipse.ui.edit.text.select.lineStart",1357745047306
executed,command,org.eclipse.ui.workbench.texteditor,3.7.0.v20110505-0800,"org.eclipse.ui.edit.text.select.lineStart",1357745051571
executed,command,org.eclipse.ui.workbench.texteditor,3.7.0.v20110505-0800,"org.eclipse.ui.edit.text.select.lineStart",1357745054884
executed,command,org.eclipse.ui.workbench.texteditor,3.7.0.v20110505-0800,"org.eclipse.ui.edit.text.select.lineStart",1357745058290
executed,command,org.eclipse.ui.workbench.texteditor,3.7.0.v20110505-0800,"org.eclipse.ui.edit.text.select.lineStart",1357745060868
executed,command,org.eclipse.ui.workbench.texteditor,3.7.0.v20110505-0800,"org.eclipse.ui.edit.text.select.lineStart",1357745063055
executed,command,org.eclipse.ui.workbench.texteditor,3.7.0.v20110505-0800,"org.eclipse.ui.edit.text.select.lineStart",1357745068555
executed,command,org.eclipse.ui.workbench.texteditor,3.7.0.v20110505-0800,"org.eclipse.ui.edit.text.goto.lineEnd",1357745073024
executed,command,org.eclipse.ui,3.7.0.I20110602-0100,"org.eclipse.ui.edit.delete",1357745075414
executed,command,org.eclipse.ui,3.7.0.I20110602-0100,"org.eclipse.ui.edit.delete",1357745076180
executed,command,org.eclipse.ui,3.7.0.I20110602-0100,"org.eclipse.ui.edit.delete",1357745076430
executed,command,org.eclipse.ui,3.7.0.I20110602-0100,"org.eclipse.ui.edit.delete",1357745076649
executed,command,org.eclipse.ui,3.7.0.I20110602-0100,"org.eclipse.ui.edit.delete",1357745077102
executed,command,org.eclipse.ui,3.7.0.I20110602-0100,"org.eclipse.ui.edit.delete",1357745077414
executed,command,org.eclipse.ui,3.7.0.I20110602-0100,"org.eclipse.ui.edit.delete",1357745077758
executed,command,org.eclipse.ui,3.7.0.I20110602-0100,"org.eclipse.ui.file.saveAll",1357745082883
deactivated,workbench,org.eclipse.ui.workbench,3.7.0.I20110519-0100,"",1357745085586
activated,workbench,org.eclipse.ui.workbench,3.7.0.I20110519-0100,"",1357745088398
deactivated,workbench,org.eclipse.ui.workbench,3.7.0.I20110519-0100,"",1357745089023
activated,workbench,org.eclipse.ui.workbench,3.7.0.I20110519-0100,"",1357745093257
executed,command,org.eclipse.ui,3.7.0.I20110602-0100,"org.eclipse.ui.edit.text.contentAssist.proposals",1357745101695
deactivated,workbench,org.eclipse.ui.workbench,3.7.0.I20110519-0100,"",1357745102148
activated,workbench,org.eclipse.ui.workbench,3.7.0.I20110519-0100,"",1357745103241
executed,command,org.eclipse.ui,3.7.0.I20110602-0100,"org.eclipse.ui.edit.text.contentAssist.proposals",1357745106163
deactivated,workbench,org.eclipse.ui.workbench,3.7.0.I20110519-0100,"",1357745106601
activated,workbench,org.eclipse.ui.workbench,3.7.0.I20110519-0100,"",1357745107507
executed,command,org.eclipse.ui,3.7.0.I20110602-0100,"org.eclipse.ui.edit.text.contentAssist.proposals",1357745110147
deactivated,workbench,org.eclipse.ui.workbench,3.7.0.I20110519-0100,"",1357745111476
activated,workbench,org.eclipse.ui.workbench,3.7.0.I20110519-0100,"",1357745113007
executed,command,org.eclipse.ui,3.7.0.I20110602-0100,"org.eclipse.ui.edit.text.contentAssist.proposals",1357745115663
deactivated,workbench,org.eclipse.ui.workbench,3.7.0.I20110519-0100,"",1357745117335
activated,workbench,org.eclipse.ui.workbench,3.7.0.I20110519-0100,"",1357745118647
executed,command,org.eclipse.ui,3.7.0.I20110602-0100,"org.eclipse.ui.edit.text.contentAssist.proposals",1357745122506
deactivated,workbench,org.eclipse.ui.workbench,3.7.0.I20110519-0100,"",1357745123006
activated,workbench,org.eclipse.ui.workbench,3.7.0.I20110519-0100,"",1357745123975
executed,command,org.eclipse.ui,3.7.0.I20110602-0100,"org.eclipse.ui.edit.text.contentAssist.proposals",1357745126959
deactivated,workbench,org.eclipse.ui.workbench,3.7.0.I20110519-0100,"",1357745127725
activated,workbench,org.eclipse.ui.workbench,3.7.0.I20110519-0100,"",1357745128616
executed,command,org.eclipse.ui,3.7.0.I20110602-0100,"org.eclipse.ui.edit.text.contentAssist.proposals",1357745131787
deactivated,workbench,org.eclipse.ui.workbench,3.7.0.I20110519-0100,"",1357745132491
activated,workbench,org.eclipse.ui.workbench,3.7.0.I20110519-0100,"",1357745134006
deactivated,workbench,org.eclipse.ui.workbench,3.7.0.I20110519-0100,"",1357745138522
activated,workbench,org.eclipse.ui.workbench,3.7.0.I20110519-0100,"",1357745141818
deactivated,workbench,org.eclipse.ui.workbench,3.7.0.I20110519-0100,"",1357745148568
activated,workbench,org.eclipse.ui.workbench,3.7.0.I20110519-0100,"",1357745149709
deactivated,workbench,org.eclipse.ui.workbench,3.7.0.I20110519-0100,"",1357745151302
activated,workbench,org.eclipse.ui.workbench,3.7.0.I20110519-0100,"",1357745152552
executed,command,org.eclipse.ui,3.7.0.I20110602-0100,"org.eclipse.ui.edit.text.contentAssist.proposals",1357745159130
deactivated,workbench,org.eclipse.ui.workbench,3.7.0.I20110519-0100,"",1357745160208
activated,workbench,org.eclipse.ui.workbench,3.7.0.I20110519-0100,"",1357745162302
deactivated,workbench,org.eclipse.ui.workbench,3.7.0.I20110519-0100,"",1357745165239
activated,workbench,org.eclipse.ui.workbench,3.7.0.I20110519-0100,"",1357745168130
executed,command,org.eclipse.ui,3.7.0.I20110602-0100,"org.eclipse.ui.edit.text.contentAssist.proposals",1357745173833
executed,command,org.eclipse.ui,3.7.0.I20110602-0100,"org.eclipse.ui.edit.text.contentAssist.proposals",1357745175614
deactivated,workbench,org.eclipse.ui.workbench,3.7.0.I20110519-0100,"",1357745177317
activated,workbench,org.eclipse.ui.workbench,3.7.0.I20110519-0100,"",1357745178614
executed,command,org.eclipse.ui,3.7.0.I20110602-0100,"org.eclipse.ui.edit.text.contentAssist.proposals",1357745179833
executed,command,org.eclipse.ui.workbench.texteditor,3.7.0.v20110505-0800,"org.eclipse.ui.edit.text.goto.lineEnd",1357745182489
deactivated,workbench,org.eclipse.ui.workbench,3.7.0.I20110519-0100,"",1357745184895
activated,workbench,org.eclipse.ui.workbench,3.7.0.I20110519-0100,"",1357745186067
executed,command,org.eclipse.ui,3.7.0.I20110602-0100,"org.eclipse.ui.edit.text.contentAssist.proposals",1357745189364
deactivated,workbench,org.eclipse.ui.workbench,3.7.0.I20110519-0100,"",1357745191754
