<?xml version="1.0" encoding="UTF-8"?>
<session version="1.0">
<refactoring comment="Rename method &apos;com.nykredit.kundeservice.smil.AdHocTableCellRender.getColoringSupportIndenforTidsfrist(...)&apos; to &apos;getColoringProcentSupportIndenforTidsfrist&apos;&#x0D;&#x0A;- Original project: &apos;SMIL&apos;&#x0D;&#x0A;- Original element: &apos;com.nykredit.kundeservice.smil.AdHocTableCellRender.getColoringSupportIndenforTidsfrist(...)&apos;&#x0D;&#x0A;- Renamed element: &apos;com.nykredit.kundeservice.smil.AdHocTableCellRender.getColoringProcentSupportIndenforTidsfrist(...)&apos;&#x0D;&#x0A;- Update references to refactored element" delegate="false" deprecate="false" description="Rename method &apos;getColoringSupportIndenforTidsfrist&apos;" flags="589826" id="org.eclipse.jdt.ui.rename.method" input="/src&lt;com.nykredit.kundeservice.smil{AdHocTableCellRender.java[AdHocTableCellRender~getColoringSupportIndenforTidsfrist~I~I" name="getColoringProcentSupportIndenforTidsfrist" references="true" stamp="1359627168183" version="1.0"/>
</session>